15-Mar-2017 11:43:41.751 INFO [Download metadata thread] hudson.model.AsyncPeriodicWork$1.run Started Download metadata
15-Mar-2017 11:43:52.109 INFO [Download metadata thread] hudson.model.UpdateSite.updateData Obtained the latest update center data file for UpdateSource default
15-Mar-2017 11:43:53.457 INFO [Download metadata thread] hudson.model.DownloadService$Downloadable.load Obtained the updated data file for hudson.tasks.Maven.MavenInstaller
15-Mar-2017 11:43:53.778 INFO [Download metadata thread] hudson.model.DownloadService$Downloadable.load Obtained the updated data file for hudson.tasks.Ant.AntInstaller
15-Mar-2017 11:43:54.125 INFO [Download metadata thread] hudson.model.DownloadService$Downloadable.load Obtained the updated data file for hudson.plugins.gradle.GradleInstaller
15-Mar-2017 11:43:55.651 INFO [Download metadata thread] hudson.model.DownloadService$Downloadable.load Obtained the updated data file for hudson.tools.JDKInstaller
15-Mar-2017 11:43:55.684 INFO [Download metadata thread] hudson.model.AsyncPeriodicWork$1.run Finished Download metadata. 13,306 ms
15-Mar-2017 17:19:33.701 INFO [Workspace clean-up thread] hudson.model.AsyncPeriodicWork$1.run Started Workspace clean-up
15-Mar-2017 17:19:33.713 INFO [Workspace clean-up thread] hudson.model.AsyncPeriodicWork$1.run Finished Workspace clean-up. 3 ms
15-Mar-2017 18:26:55.141 INFO [Fingerprint cleanup thread] hudson.model.AsyncPeriodicWork$1.run Started Fingerprint cleanup
15-Mar-2017 18:26:55.176 INFO [4075] hudson.model.AsyncPeriodicWork$1.run Finished Fingerprint cleanup. 35 ms
