91.215.65.18 - - [23/Jun/2017:09:28:10 +0000] "GET / HTTP/1.1" 503 1660
91.215.65.18 - - [23/Jun/2017:09:28:10 +0000] "GET /static/f8350a26/css/color.css HTTP/1.1" 200 763
91.215.65.18 - - [23/Jun/2017:09:28:10 +0000] "GET /static/f8350a26/css/layout-common.css HTTP/1.1" 200 1245
91.215.65.18 - - [23/Jun/2017:09:28:10 +0000] "GET /static/f8350a26/css/style.css HTTP/1.1" 200 9036
91.215.65.18 - - [23/Jun/2017:09:28:10 +0000] "GET /static/f8350a26/css/responsive-grid.css HTTP/1.1" 200 4051
91.215.65.18 - - [23/Jun/2017:09:28:10 +0000] "GET /static/f8350a26/scripts/yui/container/assets/container.css HTTP/1.1" 200 2306
91.215.65.18 - - [23/Jun/2017:09:28:10 +0000] "GET /static/f8350a26/scripts/yui/container/assets/skins/sam/container.css HTTP/1.1" 200 1277
91.215.65.18 - - [23/Jun/2017:09:28:10 +0000] "GET /static/f8350a26/scripts/prototype.js HTTP/1.1" 200 37879
91.215.65.18 - - [23/Jun/2017:09:28:10 +0000] "GET /static/f8350a26/scripts/yui/assets/skins/sam/skin.css HTTP/1.1" 200 16551
91.215.65.18 - - [23/Jun/2017:09:28:10 +0000] "GET /static/f8350a26/scripts/yui/button/assets/skins/sam/button.css HTTP/1.1" 200 810
91.215.65.18 - - [23/Jun/2017:09:28:10 +0000] "GET /static/f8350a26/scripts/behavior.js HTTP/1.1" 200 2360
91.215.65.18 - - [23/Jun/2017:09:28:10 +0000] "GET /static/f8350a26/scripts/yui/menu/assets/skins/sam/menu.css HTTP/1.1" 200 1301
91.215.65.18 - - [23/Jun/2017:09:28:10 +0000] "GET /adjuncts/f8350a26/lib/layout/breadcrumbs.css HTTP/1.1" 503 1660
91.215.65.18 - - [23/Jun/2017:09:28:10 +0000] "GET /static/f8350a26/scripts/yui/yahoo/yahoo-min.js HTTP/1.1" 200 3038
91.215.65.18 - - [23/Jun/2017:09:28:10 +0000] "GET /adjuncts/f8350a26/org/kohsuke/stapler/bind.js HTTP/1.1" 503 1660
91.215.65.18 - - [23/Jun/2017:09:28:10 +0000] "GET /static/f8350a26/scripts/yui/event/event-min.js HTTP/1.1" 200 5146
91.215.65.18 - - [23/Jun/2017:09:28:10 +0000] "GET /static/f8350a26/scripts/yui/dom/dom-min.js HTTP/1.1" 200 5739
91.215.65.18 - - [23/Jun/2017:09:28:10 +0000] "GET /static/f8350a26/scripts/yui/dragdrop/dragdrop-min.js HTTP/1.1" 200 6974
91.215.65.18 - - [23/Jun/2017:09:28:10 +0000] "GET /static/f8350a26/scripts/yui/connection/connection-min.js HTTP/1.1" 200 4442
91.215.65.18 - - [23/Jun/2017:09:28:10 +0000] "GET /static/f8350a26/scripts/yui/animation/animation-min.js HTTP/1.1" 200 4877
91.215.65.18 - - [23/Jun/2017:09:28:10 +0000] "GET /static/f8350a26/scripts/yui/datasource/datasource-min.js HTTP/1.1" 200 8248
91.215.65.18 - - [23/Jun/2017:09:28:10 +0000] "GET /static/f8350a26/scripts/yui/menu/menu-min.js HTTP/1.1" 200 15901
91.215.65.18 - - [23/Jun/2017:09:28:10 +0000] "GET /static/f8350a26/scripts/yui/element/element-min.js HTTP/1.1" 200 2698
91.215.65.18 - - [23/Jun/2017:09:28:10 +0000] "GET /static/f8350a26/scripts/yui/autocomplete/autocomplete-min.js HTTP/1.1" 200 7254
91.215.65.18 - - [23/Jun/2017:09:28:10 +0000] "GET /static/f8350a26/scripts/yui/container/container-min.js HTTP/1.1" 200 19888
91.215.65.18 - - [23/Jun/2017:09:28:10 +0000] "GET /static/f8350a26/scripts/yui/storage/storage-min.js HTTP/1.1" 200 4048
91.215.65.18 - - [23/Jun/2017:09:28:10 +0000] "GET /static/f8350a26/scripts/sortable.js HTTP/1.1" 200 3999
91.215.65.18 - - [23/Jun/2017:09:28:11 +0000] "GET /static/f8350a26/scripts/yui/button/button-min.js HTTP/1.1" 200 8305
91.215.65.18 - - [23/Jun/2017:09:28:11 +0000] "GET /static/f8350a26/scripts/hudson-behavior.js HTTP/1.1" 200 28684
91.215.65.18 - - [23/Jun/2017:09:28:11 +0000] "GET /adjuncts/f8350a26/org/kohsuke/stapler/bind.js HTTP/1.1" 503 1660
91.215.65.18 - - [23/Jun/2017:09:28:11 +0000] "GET /static/f8350a26/jsbundles/page-init.js HTTP/1.1" 200 9291
91.215.65.18 - - [23/Jun/2017:09:28:11 +0000] "GET /adjuncts/f8350a26/lib/layout/breadcrumbs.js HTTP/1.1" 503 1660
91.215.65.18 - - [23/Jun/2017:09:28:11 +0000] "GET /static/f8350a26/images/headshot.png HTTP/1.1" 200 2409
91.215.65.18 - - [23/Jun/2017:09:28:11 +0000] "GET /static/f8350a26/images/title.png HTTP/1.1" 200 2510
91.215.65.18 - - [23/Jun/2017:09:28:11 +0000] "GET /static/f8350a26/images/16x16/help.png HTTP/1.1" 200 763
91.215.65.18 - - [23/Jun/2017:09:28:11 +0000] "GET /adjuncts/f8350a26/lib/layout/breadcrumbs.css HTTP/1.1" 503 1660
91.215.65.18 - - [23/Jun/2017:09:28:11 +0000] "GET /adjuncts/f8350a26/lib/layout/breadcrumbs.js HTTP/1.1" 503 1660
91.215.65.18 - - [23/Jun/2017:09:28:11 +0000] "GET /static/f8350a26/images/16x16/search.png HTTP/1.1" 200 774
91.215.65.18 - - [23/Jun/2017:09:28:11 +0000] "GET /static/f8350a26/assets/jquery-detached/jsmodules/jquery2.js HTTP/1.1" 503 1660
91.215.65.18 - - [23/Jun/2017:09:28:11 +0000] "GET /static/f8350a26/images/top-sticker-bottom-edge.png HTTP/1.1" 200 331
91.215.65.18 - - [23/Jun/2017:09:28:11 +0000] "GET /opensearch.xml HTTP/1.1" 503 1660
91.215.65.18 - - [23/Jun/2017:09:28:11 +0000] "GET /static/f8350a26/favicon.ico HTTP/1.1" 200 17542
91.215.65.18 - - [23/Jun/2017:09:28:16 +0000] "GET / HTTP/1.1" 503 1660
91.215.65.18 - - [23/Jun/2017:09:28:21 +0000] "GET / HTTP/1.1" 503 1660
91.215.65.18 - - [23/Jun/2017:09:28:26 +0000] "GET / HTTP/1.1" 503 1660
91.215.65.18 - - [23/Jun/2017:09:28:31 +0000] "GET / HTTP/1.1" 503 1660
91.215.65.18 - - [23/Jun/2017:09:28:38 +0000] "GET / HTTP/1.1" 503 3441
91.215.65.18 - - [23/Jun/2017:09:28:43 +0000] "GET / HTTP/1.1" 403 1013
91.215.65.18 - - [23/Jun/2017:09:28:43 +0000] "GET / HTTP/1.1" 403 793
91.215.65.18 - - [23/Jun/2017:09:28:43 +0000] "GET /favicon.ico HTTP/1.1" 200 17542
91.215.65.18 - - [23/Jun/2017:09:28:46 +0000] "GET /login?from=%2F HTTP/1.1" 200 1879
91.215.65.18 - - [23/Jun/2017:09:28:46 +0000] "GET /adjuncts/f8350a26/org/kohsuke/stapler/bind.js HTTP/1.1" 200 936
91.215.65.18 - - [23/Jun/2017:09:28:46 +0000] "GET /adjuncts/f8350a26/lib/layout/breadcrumbs.css HTTP/1.1" 200 717
91.215.65.18 - - [23/Jun/2017:09:28:46 +0000] "GET /adjuncts/f8350a26/lib/layout/breadcrumbs.js HTTP/1.1" 200 3019
91.215.65.18 - - [23/Jun/2017:09:28:46 +0000] "GET /static/f8350a26/assets/jquery-detached/jsmodules/jquery2.js HTTP/1.1" 200 39262
91.215.65.18 - - [23/Jun/2017:09:28:46 +0000] "GET /adjuncts/f8350a26/lib/layout/menu_down_arrow.png HTTP/1.1" 200 2767
91.215.65.18 - - [23/Jun/2017:09:28:47 +0000] "GET /adjuncts/f8350a26/lib/layout/menu_right_arrow2.png HTTP/1.1" 200 2764
91.215.65.18 - - [23/Jun/2017:09:28:48 +0000] "POST /j_acegi_security_check HTTP/1.1" 302 -
91.215.65.18 - - [23/Jun/2017:09:29:06 +0000] "GET / HTTP/1.1" 200 7656
91.215.65.18 - - [23/Jun/2017:09:29:06 +0000] "GET /adjuncts/f8350a26/jenkins/management/AdministrativeMonitorsDecorator/resources.css HTTP/1.1" 200 593
91.215.65.18 - - [23/Jun/2017:09:29:06 +0000] "GET /adjuncts/f8350a26/jenkins/management/AdministrativeMonitorsDecorator/resources.js HTTP/1.1" 200 376
91.215.65.18 - - [23/Jun/2017:09:29:06 +0000] "GET /static/f8350a26/scripts/yui/cookie/cookie-min.js HTTP/1.1" 200 1430
91.215.65.18 - - [23/Jun/2017:09:29:06 +0000] "GET /static/f8350a26/images/24x24/new-package.png HTTP/1.1" 200 922
91.215.65.18 - - [23/Jun/2017:09:29:06 +0000] "GET /static/f8350a26/images/24x24/user.png HTTP/1.1" 200 1242
91.215.65.18 - - [23/Jun/2017:09:29:06 +0000] "GET /static/f8350a26/images/24x24/fingerprint.png HTTP/1.1" 200 739
91.215.65.18 - - [23/Jun/2017:09:29:06 +0000] "GET /static/f8350a26/images/24x24/gear2.png HTTP/1.1" 200 1460
91.215.65.18 - - [23/Jun/2017:09:29:06 +0000] "GET /static/f8350a26/images/24x24/notepad.png HTTP/1.1" 200 955
91.215.65.18 - - [23/Jun/2017:09:29:06 +0000] "GET /static/f8350a26/images/24x24/search.png HTTP/1.1" 200 1309
91.215.65.18 - - [23/Jun/2017:09:29:06 +0000] "GET /static/f8350a26/images/16x16/collapse.png HTTP/1.1" 200 168
91.215.65.18 - - [23/Jun/2017:09:29:06 +0000] "GET /static/f8350a26/plugin/credentials/images/24x24/credentials.png HTTP/1.1" 200 1572
91.215.65.18 - - [23/Jun/2017:09:29:06 +0000] "GET /static/f8350a26/images/24x24/clock.png HTTP/1.1" 200 1528
91.215.65.18 - - [23/Jun/2017:09:29:06 +0000] "GET /static/f8350a26/images/32x32/red.png HTTP/1.1" 200 1527
91.215.65.18 - - [23/Jun/2017:09:29:06 +0000] "GET /static/f8350a26/images/32x32/health-60to79.png HTTP/1.1" 200 1743
91.215.65.18 - - [23/Jun/2017:09:29:06 +0000] "GET /static/f8350a26/images/16x16/notepad.png HTTP/1.1" 200 383
91.215.65.18 - - [23/Jun/2017:09:29:06 +0000] "GET /static/f8350a26/images/32x32/nobuilt.png HTTP/1.1" 200 1245
91.215.65.18 - - [23/Jun/2017:09:29:06 +0000] "GET /static/f8350a26/images/32x32/disabled.png HTTP/1.1" 200 1245
91.215.65.18 - - [23/Jun/2017:09:29:06 +0000] "GET /static/f8350a26/images/32x32/health-80plus.png HTTP/1.1" 200 1270
91.215.65.18 - - [23/Jun/2017:09:29:06 +0000] "GET /static/f8350a26/images/32x32/health-00to19.png HTTP/1.1" 200 1937
91.215.65.18 - - [23/Jun/2017:09:29:06 +0000] "GET /static/f8350a26/images/32x32/blue.png HTTP/1.1" 200 1656
91.215.65.18 - - [23/Jun/2017:09:29:06 +0000] "GET /static/f8350a26/images/32x32/health-20to39.png HTTP/1.1" 200 1808
91.215.65.18 - - [23/Jun/2017:09:29:06 +0000] "GET /static/f8350a26/images/16x16/error.png HTTP/1.1" 200 543
91.215.65.18 - - [23/Jun/2017:09:29:06 +0000] "GET /static/f8350a26/images/16x16/warning.png HTTP/1.1" 200 487
91.215.65.18 - - [23/Jun/2017:09:29:06 +0000] "GET /static/f8350a26/images/32x32/aborted.png HTTP/1.1" 200 1245
91.215.65.18 - - [23/Jun/2017:09:29:06 +0000] "GET /static/f8350a26/images/16x16/health-60to79.png HTTP/1.1" 200 652
91.215.65.18 - - [23/Jun/2017:09:29:06 +0000] "GET /static/f8350a26/images/16x16/health-00to19.png HTTP/1.1" 200 643
91.215.65.18 - - [23/Jun/2017:09:29:06 +0000] "GET /static/f8350a26/images/16x16/health-80plus.png HTTP/1.1" 200 481
91.215.65.18 - - [23/Jun/2017:09:29:06 +0000] "GET /static/f8350a26/images/16x16/health-20to39.png HTTP/1.1" 200 762
91.215.65.18 - - [23/Jun/2017:09:29:06 +0000] "GET /static/f8350a26/images/16x16/health-40to59.png HTTP/1.1" 200 518
91.215.65.18 - - [23/Jun/2017:09:29:06 +0000] "GET /static/f8350a26/images/32x32/health-40to59.png HTTP/1.1" 200 1320
91.215.65.18 - - [23/Jun/2017:09:29:06 +0000] "GET /static/f8350a26/images/atom.gif HTTP/1.1" 200 644
91.215.65.18 - - [23/Jun/2017:09:29:06 +0000] "GET /opensearch.xml HTTP/1.1" 403 821
91.215.65.18 - - [23/Jun/2017:09:29:11 +0000] "POST /ajaxExecutors HTTP/1.1" 200 387
91.215.65.18 - - [23/Jun/2017:09:29:11 +0000] "POST /ajaxBuildQueue HTTP/1.1" 200 604
91.215.65.18 - - [23/Jun/2017:09:29:11 +0000] "GET /static/f8350a26/images/16x16/stop.png HTTP/1.1" 200 486
91.215.65.18 - - [23/Jun/2017:09:29:17 +0000] "GET /job/generar-paquete-demo-develop/ HTTP/1.1" 200 6676
91.215.65.18 - - [23/Jun/2017:09:29:17 +0000] "GET /static/f8350a26/images/24x24/up.png HTTP/1.1" 200 769
91.215.65.18 - - [23/Jun/2017:09:29:17 +0000] "GET /static/f8350a26/plugin/cloudbees-folder/images/24x24/folder.png HTTP/1.1" 200 1007
91.215.65.18 - - [23/Jun/2017:09:29:17 +0000] "GET /static/f8350a26/images/24x24/clipboard.png HTTP/1.1" 200 819
91.215.65.18 - - [23/Jun/2017:09:29:17 +0000] "GET /static/f8350a26/images/16x16/blue.png HTTP/1.1" 200 656
91.215.65.18 - - [23/Jun/2017:09:29:17 +0000] "GET /static/f8350a26/images/16x16/aborted.png HTTP/1.1" 200 572
91.215.65.18 - - [23/Jun/2017:09:29:17 +0000] "GET /static/f8350a26/images/16x16/red.png HTTP/1.1" 200 639
91.215.65.18 - - [23/Jun/2017:09:29:17 +0000] "GET /static/f8350a26/images/24x24/edit-delete.png HTTP/1.1" 200 1236
91.215.65.18 - - [23/Jun/2017:09:29:17 +0000] "GET /static/f8350a26/plugin/email-ext/images/template-debugger.png HTTP/1.1" 200 818
91.215.65.18 - - [23/Jun/2017:09:29:17 +0000] "GET /static/f8350a26/images/16x16/go_down.png HTTP/1.1" 200 193
91.215.65.18 - - [23/Jun/2017:09:29:17 +0000] "GET /static/f8350a26/images/16x16/go_top.png HTTP/1.1" 200 211
91.215.65.18 - - [23/Jun/2017:09:29:17 +0000] "GET /static/f8350a26/images/16x16/go_up.png HTTP/1.1" 200 192
91.215.65.18 - - [23/Jun/2017:09:29:17 +0000] "GET /static/f8350a26/plugin/cloudbees-folder/images/48x48/folder.png HTTP/1.1" 200 1873
91.215.65.18 - - [23/Jun/2017:09:29:17 +0000] "GET /static/f8350a26/images/48x48/notepad.png HTTP/1.1" 200 2282
91.215.65.18 - - [23/Jun/2017:09:29:22 +0000] "POST /job/generar-paquete-demo-develop/buildHistory/ajax HTTP/1.1" 200 51
91.215.65.18 - - [23/Jun/2017:09:29:23 +0000] "GET /adjuncts/f8350a26/lib/form/section_.css HTTP/1.1" 200 127
91.215.65.18 - - [23/Jun/2017:09:29:23 +0000] "GET /adjuncts/f8350a26/lib/form/textarea/textarea.js HTTP/1.1" 200 1134
91.215.65.18 - - [23/Jun/2017:09:29:23 +0000] "GET /resources/f8350a26/hudson/security/table.css HTTP/1.1" 200 976
91.215.65.18 - - [23/Jun/2017:09:29:23 +0000] "GET /adjuncts/f8350a26/lib/form/textarea/textarea.css HTTP/1.1" 200 99
91.215.65.18 - - [23/Jun/2017:09:29:23 +0000] "GET /adjuncts/f8350a26/lib/form/advanced/advanced.js HTTP/1.1" 200 527
91.215.65.18 - - [23/Jun/2017:09:29:23 +0000] "GET /adjuncts/f8350a26/lib/form/repeatable/repeatable.js HTTP/1.1" 200 1815
91.215.65.18 - - [23/Jun/2017:09:29:23 +0000] "GET /adjuncts/f8350a26/lib/form/hetero-list/hetero-list.js HTTP/1.1" 200 2033
91.215.65.18 - - [23/Jun/2017:09:29:23 +0000] "GET /adjuncts/f8350a26/lib/form/section_.js HTTP/1.1" 200 712
91.215.65.18 - - [23/Jun/2017:09:29:23 +0000] "GET /adjuncts/f8350a26/lib/form/dragdrop/dragdrop.js HTTP/1.1" 200 1243
91.215.65.18 - - [23/Jun/2017:09:29:23 +0000] "GET /adjuncts/f8350a26/lib/form/select/select.js HTTP/1.1" 200 1323
91.215.65.18 - - [23/Jun/2017:09:29:23 +0000] "GET /static/f8350a26/images/16x16/edit-select-all.png HTTP/1.1" 200 329
91.215.65.18 - - [23/Jun/2017:09:29:23 +0000] "GET /static/f8350a26/images/textarea-handle.gif HTTP/1.1" 200 52
91.215.65.18 - - [23/Jun/2017:09:29:27 +0000] "GET /static/f8350a26/plugin/credentials/images/16x16/system-store.png HTTP/1.1" 200 1010
91.215.65.18 - - [23/Jun/2017:09:29:27 +0000] "GET /static/f8350a26/plugin/credentials/images/16x16/new-credential.png HTTP/1.1" 200 755
91.215.65.18 - - [23/Jun/2017:09:29:27 +0000] "GET /adjuncts/f8350a26/lib/form/radioBlock/radioBlock.js HTTP/1.1" 200 947
91.215.65.18 - - [23/Jun/2017:09:29:27 +0000] "GET /adjuncts/f8350a26/lib/credentials/select/select.js HTTP/1.1" 200 3606
91.215.65.18 - - [23/Jun/2017:09:29:27 +0000] "GET /adjuncts/f8350a26/lib/credentials/select/select.css HTTP/1.1" 200 266
91.215.65.18 - - [23/Jun/2017:09:29:27 +0000] "GET /static/f8350a26/images/grip.png HTTP/1.1" 200 92
91.215.65.18 - - [23/Jun/2017:09:29:27 +0000] "GET /static/f8350a26/scripts/yui/button/assets/skins/sam/menu-button-arrow.png HTTP/1.1" 200 91
91.215.65.18 - - [23/Jun/2017:09:29:27 +0000] "GET /job/generar-paquete-demo-develop/descriptorByName/hudson.plugins.git.UserRemoteConfig/checkCredentialsId?value=&url= HTTP/1.1" 200 6
91.215.65.18 - - [23/Jun/2017:09:29:27 +0000] "POST /job/generar-paquete-demo-develop/descriptorByName/hudson.plugins.git.UserRemoteConfig/fillCredentialsIdItems HTTP/1.1" 200 265
91.215.65.18 - - [23/Jun/2017:09:29:27 +0000] "POST /job/generar-paquete-demo-develop/descriptorByName/hudson.scm.SubversionSCM$ModuleLocation/fillCredentialsIdItems HTTP/1.1" 200 265
91.215.65.18 - - [23/Jun/2017:09:29:27 +0000] "POST /job/generar-paquete-demo-develop/descriptorByName/hudson.scm.SubversionSCM$ModuleLocation/fillCredentialsIdItems HTTP/1.1" 200 265
91.215.65.18 - - [23/Jun/2017:09:29:27 +0000] "POST /job/generar-paquete-demo-develop/descriptorByName/hudson.plugins.git.UserRemoteConfig/fillCredentialsIdItems HTTP/1.1" 200 265
91.215.65.18 - - [23/Jun/2017:09:29:27 +0000] "GET /job/generar-paquete-demo-develop/descriptorByName/hudson.plugins.git.UserRemoteConfig/checkCredentialsId?value=f29a8542-0f32-43bf-ad46-f14f250b2b1c&url=http%3A%2F%2F40.69.74.208%3A8081%2Fscm%2Fdem%2Fdemoessentials.git HTTP/1.1" 200 6
91.215.65.18 - - [23/Jun/2017:09:29:27 +0000] "POST /job/generar-paquete-demo-develop/descriptorByName/hudson.scm.SubversionSCM$AdditionalCredentials/fillCredentialsIdItems HTTP/1.1" 200 265
91.215.65.18 - - [23/Jun/2017:09:29:28 +0000] "GET /job/generar-paquete-demo-develop/descriptorByName/hudson.scm.SubversionSCM$ModuleLocation/checkCredentialsId?value=&remote= HTTP/1.1" 200 6
91.215.65.18 - - [23/Jun/2017:09:29:28 +0000] "GET /job/generar-paquete-demo-develop/descriptorByName/hudson.scm.SubversionSCM$ModuleLocation/checkCredentialsId?value=&remote= HTTP/1.1" 200 6
91.215.65.18 - - [23/Jun/2017:09:29:28 +0000] "GET /job/generar-paquete-demo-develop/configure HTTP/1.1" 200 28544
91.215.65.18 - - [23/Jun/2017:09:29:28 +0000] "GET /adjuncts/f8350a26/hudson/plugins/build_timeout/nestedHelp.js HTTP/1.1" 200 1136
91.215.65.18 - - [23/Jun/2017:09:29:28 +0000] "GET /adjuncts/f8350a26/org/kohsuke/stapler/codemirror/lib/codemirror.css HTTP/1.1" 200 1524
91.215.65.18 - - [23/Jun/2017:09:29:28 +0000] "GET /adjuncts/f8350a26/org/kohsuke/stapler/codemirror/lib/codemirror.js HTTP/1.1" 200 35283
91.215.65.18 - - [23/Jun/2017:09:29:28 +0000] "GET /static/f8350a26/plugin/github/js/warning.js HTTP/1.1" 200 340
91.215.65.18 - - [23/Jun/2017:09:29:28 +0000] "GET /adjuncts/f8350a26/org/kohsuke/stapler/codemirror/mode/shell/shell.js HTTP/1.1" 200 1200
91.215.65.18 - - [23/Jun/2017:09:29:28 +0000] "GET /adjuncts/f8350a26/org/kohsuke/stapler/codemirror/theme/default.css HTTP/1.1" 200 20
91.215.65.18 - - [23/Jun/2017:09:29:28 +0000] "GET /adjuncts/f8350a26/lib/form/apply/apply.js HTTP/1.1" 200 1245
91.215.65.18 - - [23/Jun/2017:09:29:28 +0000] "GET /adjuncts/f8350a26/lib/form/confirm.js HTTP/1.1" 200 730
91.215.65.18 - - [23/Jun/2017:09:29:28 +0000] "GET /static/f8350a26/jsbundles/config-scrollspy.css HTTP/1.1" 200 2226
91.215.65.18 - - [23/Jun/2017:09:29:28 +0000] "GET /static/f8350a26/jsbundles/config-scrollspy.js HTTP/1.1" 200 18495
91.215.65.18 - - [23/Jun/2017:09:29:29 +0000] "GET /job/generar-paquete-demo-develop/descriptorByName/hudson.security.AuthorizationMatrixProperty/checkName?value=%5Bdemo%5D HTTP/1.1" 200 96
91.215.65.18 - - [23/Jun/2017:09:29:29 +0000] "GET /static/f8350a26/scripts/yui/assets/skins/sam/sprite.png HTTP/1.1" 200 3128
91.215.65.18 - - [23/Jun/2017:09:29:29 +0000] "GET /job/generar-paquete-demo-develop/descriptorByName/hudson.tasks.Shell/checkUnstableReturn?value= HTTP/1.1" 200 6
91.215.65.18 - - [23/Jun/2017:09:29:29 +0000] "GET /job/generar-paquete-demo-develop/descriptorByName/jenkins.branch.RateLimitBranchProperty$JobPropertyImpl/checkCount?value=1&durationName= HTTP/1.1" 200 121
91.215.65.18 - - [23/Jun/2017:09:29:29 +0000] "GET /job/generar-paquete-demo-develop/descriptorByName/hudson.tasks.Shell/checkUnstableReturn?value= HTTP/1.1" 200 6
91.215.65.18 - - [23/Jun/2017:09:29:29 +0000] "POST /job/generar-paquete-demo-develop/descriptorByName/jenkins.branch.RateLimitBranchProperty$JobPropertyImpl/fillDurationNameItems HTTP/1.1" 200 146
91.215.65.18 - - [23/Jun/2017:09:29:29 +0000] "POST /job/generar-paquete-demo-develop/descriptorByName/hudson.plugins.git.UserRemoteConfig/fillCredentialsIdItems HTTP/1.1" 200 265
91.215.65.18 - - [23/Jun/2017:09:29:29 +0000] "POST /$stapler/bound/312790bb-9ba0-4935-9b57-2b8d1b6c1b04/render HTTP/1.1" 200 180
91.215.65.18 - - [23/Jun/2017:09:29:29 +0000] "POST /job/generar-paquete-demo-develop/descriptorByName/hudson.scm.SubversionSCM$ModuleLocation/fillCredentialsIdItems HTTP/1.1" 200 265
91.215.65.18 - - [23/Jun/2017:09:29:29 +0000] "GET /job/generar-paquete-demo-develop/descriptorByName/hudson.tasks.Shell/checkUnstableReturn?value= HTTP/1.1" 200 6
91.215.65.18 - - [23/Jun/2017:09:29:29 +0000] "POST /$stapler/bound/53953a07-1a62-4f95-b754-1359548e0406/render HTTP/1.1" 200 409
91.215.65.18 - - [23/Jun/2017:09:29:29 +0000] "GET /static/f8350a26/images/16x16/person.png HTTP/1.1" 200 474
91.215.65.18 - - [23/Jun/2017:09:29:29 +0000] "GET /job/generar-paquete-demo-develop/descriptorByName/hudson.plugins.copyartifact.CopyArtifactPermissionProperty/checkProjectNames?value=&projectNames= HTTP/1.1" 200 6
91.215.65.18 - - [23/Jun/2017:09:29:29 +0000] "POST /$stapler/bound/6e41c9f4-5771-4dd2-9e71-a7e4c642f337/render HTTP/1.1" 200 776
91.215.65.18 - - [23/Jun/2017:09:29:29 +0000] "GET /job/generar-paquete-demo-develop/descriptorByName/jenkins.branch.RateLimitBranchProperty$JobPropertyImpl/checkCount?value=1&durationName= HTTP/1.1" 200 121
91.215.65.18 - - [23/Jun/2017:09:29:29 +0000] "GET /job/generar-paquete-demo-develop/descriptorByName/hudson.model.FreeStyleProject/checkCustomWorkspace?value=&customWorkspace= HTTP/1.1" 200 111
91.215.65.18 - - [23/Jun/2017:09:29:29 +0000] "GET /static/f8350a26/images/bottom-sticker-top-edge.png HTTP/1.1" 200 331
91.215.65.18 - - [23/Jun/2017:09:29:29 +0000] "GET /static/f8350a26/images/none.gif HTTP/1.1" 200 115
91.215.65.18 - - [23/Jun/2017:09:29:30 +0000] "GET /checkDisplayName?displayName=&jobName=generar-paquete-demo-develop HTTP/1.1" 200 6
91.215.65.18 - - [23/Jun/2017:09:29:30 +0000] "GET /job/generar-paquete-demo-develop/descriptorByName/hudson.plugins.git.UserRemoteConfig/checkUrl?value=http%3A%2F%2F40.69.74.208%3A8081%2Fscm%2Fdem%2Fdemoessentials.git&credentialsId=f29a8542-0f32-43bf-ad46-f14f250b2b1c HTTP/1.1" 200 6
91.215.65.18 - - [23/Jun/2017:09:29:31 +0000] "GET /job/generar-paquete-demo-develop/descriptorByName/hudson.scm.SubversionSCM$ModuleLocation/checkRemote?value=&remote= HTTP/1.1" 200 112
91.215.65.18 - - [23/Jun/2017:09:29:31 +0000] "GET /job/generar-paquete-demo-develop/descriptorByName/hudson.scm.SubversionSCM$ModuleLocation/checkLocal?value=. HTTP/1.1" 200 6
91.215.65.18 - - [23/Jun/2017:09:29:31 +0000] "GET /job/generar-paquete-demo-develop/descriptorByName/hudson.scm.SubversionSCM/checkRevisionPropertiesSupported?value=&credentialsId=null&excludedRevprop= HTTP/1.1" 200 6
91.215.65.18 - - [23/Jun/2017:09:29:31 +0000] "GET /job/generar-paquete-demo-develop/descriptorByName/jenkins.triggers.ReverseBuildTrigger/checkUpstreamProjects?value= HTTP/1.1" 200 124
91.215.65.18 - - [23/Jun/2017:09:29:31 +0000] "GET /job/generar-paquete-demo-develop/descriptorByName/hudson.tasks.Shell/checkUnstableReturn?value= HTTP/1.1" 200 6
91.215.65.18 - - [23/Jun/2017:09:29:31 +0000] "GET /job/generar-paquete-demo-develop/descriptorByName/hudson.tasks.Shell/checkUnstableReturn?value= HTTP/1.1" 200 6
91.215.65.18 - - [23/Jun/2017:09:29:31 +0000] "GET /job/generar-paquete-demo-develop/descriptorByName/hudson.tasks.Shell/checkUnstableReturn?value= HTTP/1.1" 200 6
91.215.65.18 - - [23/Jun/2017:09:29:31 +0000] "GET /job/generar-paquete-demo-develop/descriptorByName/hudson.plugins.git.UserRemoteConfig/checkCredentialsId?value=f29a8542-0f32-43bf-ad46-f14f250b2b1c&url=http%3A%2F%2F40.69.74.208%3A8081%2Fscm%2Fdem%2Fdemoessentials.git HTTP/1.1" 200 6
91.215.65.18 - - [23/Jun/2017:09:29:31 +0000] "GET /job/generar-paquete-demo-develop/descriptorByName/hudson.scm.SubversionSCM$ModuleLocation/checkCredentialsId?value=&remote= HTTP/1.1" 200 6
91.215.65.18 - - [23/Jun/2017:09:29:31 +0000] "GET /job/generar-paquete-demo-develop/descriptorByName/hudson.scm.SubversionSCM/checkExcludedRegions?value= HTTP/1.1" 200 6
91.215.65.18 - - [23/Jun/2017:09:29:31 +0000] "GET /job/generar-paquete-demo-develop/descriptorByName/hudson.scm.SubversionSCM/checkIncludedRegions?value= HTTP/1.1" 200 6
91.215.65.18 - - [23/Jun/2017:09:29:31 +0000] "GET /job/generar-paquete-demo-develop/descriptorByName/hudson.scm.SubversionSCM/checkExcludedUsers?value= HTTP/1.1" 200 6
91.215.65.18 - - [23/Jun/2017:09:29:31 +0000] "GET /job/generar-paquete-demo-develop/descriptorByName/hudson.scm.SubversionSCM/checkExcludedCommitMessages?value= HTTP/1.1" 200 6
91.215.65.18 - - [23/Jun/2017:09:29:31 +0000] "GET /job/generar-paquete-demo-develop/descriptorByName/hudson.triggers.TimerTrigger/checkSpec?value= HTTP/1.1" 200 117
91.215.65.18 - - [23/Jun/2017:09:29:31 +0000] "GET /trigger/TimerTrigger/check?value=%23%20every%20minute%0A*%20*%20*%20*%20* HTTP/1.1" 200 511
91.215.65.18 - - [23/Jun/2017:09:29:31 +0000] "GET /publisher/ExtendedEmailPublisher/recipientListRecipientsCheck?value=msantosa%40everis.com HTTP/1.1" 200 6
91.215.65.18 - - [23/Jun/2017:09:29:32 +0000] "GET /publisher/ExtendedEmailPublisher/recipientListRecipientsCheck?value=%24DEFAULT_REPLYTO HTTP/1.1" 200 6
91.215.65.18 - - [23/Jun/2017:09:32:47 +0000] "GET /adjuncts/f8350a26/lib/layout/menu_right_arrow.png HTTP/1.1" 200 2769
91.215.65.18 - - [23/Jun/2017:09:32:48 +0000] "GET /job/generar-paquete-demo-develop/ HTTP/1.1" 200 6676
91.215.65.18 - - [23/Jun/2017:09:32:50 +0000] "GET /job/generar-paquete-demo-develop/ws/ HTTP/1.1" 200 6946
91.215.65.18 - - [23/Jun/2017:09:32:50 +0000] "GET /static/f8350a26/images/24x24/folder-delete.png HTTP/1.1" 200 1135
91.215.65.18 - - [23/Jun/2017:09:32:50 +0000] "GET /static/f8350a26/images/16x16/go-next.png HTTP/1.1" 200 548
91.215.65.18 - - [23/Jun/2017:09:32:50 +0000] "GET /static/f8350a26/images/16x16/package.png HTTP/1.1" 200 456
91.215.65.18 - - [23/Jun/2017:09:32:50 +0000] "GET /static/f8350a26/images/16x16/text.png HTTP/1.1" 200 227
91.215.65.18 - - [23/Jun/2017:09:32:50 +0000] "GET /static/f8350a26/images/16x16/fingerprint.png HTTP/1.1" 200 503
91.215.65.18 - - [23/Jun/2017:09:32:50 +0000] "GET /static/f8350a26/plugin/cloudbees-folder/images/16x16/folder.png HTTP/1.1" 200 763
91.215.65.18 - - [23/Jun/2017:09:32:51 +0000] "GET /job/generar-paquete-demo-develop/ws/errores.txt HTTP/1.1" 200 198
91.215.65.18 - - [23/Jun/2017:09:32:57 +0000] "GET /job/generar-paquete-demo-develop/ws/ HTTP/1.1" 200 6943
91.215.65.18 - - [23/Jun/2017:09:33:03 +0000] "POST /job/generar-paquete-demo-develop/buildHistory/ajax HTTP/1.1" 200 51
91.215.65.18 - - [23/Jun/2017:09:33:08 +0000] "GET /job/generar-paquete-demo-develop/configure HTTP/1.1" 200 28547
91.215.65.18 - - [23/Jun/2017:09:33:08 +0000] "GET /job/generar-paquete-demo-develop/descriptorByName/hudson.plugins.git.UserRemoteConfig/checkCredentialsId?value=&url= HTTP/1.1" 200 6
91.215.65.18 - - [23/Jun/2017:09:33:08 +0000] "POST /job/generar-paquete-demo-develop/descriptorByName/hudson.plugins.git.UserRemoteConfig/fillCredentialsIdItems HTTP/1.1" 200 265
91.215.65.18 - - [23/Jun/2017:09:33:08 +0000] "POST /job/generar-paquete-demo-develop/descriptorByName/hudson.plugins.git.UserRemoteConfig/fillCredentialsIdItems HTTP/1.1" 200 265
91.215.65.18 - - [23/Jun/2017:09:33:08 +0000] "POST /job/generar-paquete-demo-develop/descriptorByName/hudson.scm.SubversionSCM$ModuleLocation/fillCredentialsIdItems HTTP/1.1" 200 265
91.215.65.18 - - [23/Jun/2017:09:33:08 +0000] "POST /job/generar-paquete-demo-develop/descriptorByName/hudson.scm.SubversionSCM$AdditionalCredentials/fillCredentialsIdItems HTTP/1.1" 200 265
91.215.65.18 - - [23/Jun/2017:09:33:08 +0000] "POST /job/generar-paquete-demo-develop/descriptorByName/hudson.scm.SubversionSCM$ModuleLocation/fillCredentialsIdItems HTTP/1.1" 200 265
91.215.65.18 - - [23/Jun/2017:09:33:08 +0000] "GET /job/generar-paquete-demo-develop/descriptorByName/hudson.plugins.git.UserRemoteConfig/checkCredentialsId?value=f29a8542-0f32-43bf-ad46-f14f250b2b1c&url=http%3A%2F%2F40.69.74.208%3A8081%2Fscm%2Fdem%2Fdemoessentials.git HTTP/1.1" 200 6
91.215.65.18 - - [23/Jun/2017:09:33:08 +0000] "GET /job/generar-paquete-demo-develop/descriptorByName/hudson.scm.SubversionSCM$ModuleLocation/checkCredentialsId?value=&remote= HTTP/1.1" 200 6
91.215.65.18 - - [23/Jun/2017:09:33:08 +0000] "GET /job/generar-paquete-demo-develop/descriptorByName/hudson.scm.SubversionSCM$ModuleLocation/checkCredentialsId?value=&remote= HTTP/1.1" 200 6
91.215.65.18 - - [23/Jun/2017:09:33:08 +0000] "GET /job/generar-paquete-demo-develop/descriptorByName/hudson.security.AuthorizationMatrixProperty/checkName?value=%5Bdemo%5D HTTP/1.1" 200 96
91.215.65.18 - - [23/Jun/2017:09:33:08 +0000] "GET /job/generar-paquete-demo-develop/descriptorByName/jenkins.branch.RateLimitBranchProperty$JobPropertyImpl/checkCount?value=1&durationName= HTTP/1.1" 200 121
91.215.65.18 - - [23/Jun/2017:09:33:08 +0000] "GET /job/generar-paquete-demo-develop/descriptorByName/hudson.tasks.Shell/checkUnstableReturn?value= HTTP/1.1" 200 6
91.215.65.18 - - [23/Jun/2017:09:33:08 +0000] "POST /$stapler/bound/2dc8be26-fa6c-4c1e-9c3d-0991c4933e11/render HTTP/1.1" 200 180
91.215.65.18 - - [23/Jun/2017:09:33:08 +0000] "POST /$stapler/bound/bf8c7042-df19-4a46-8476-68c1f0b8a8b0/render HTTP/1.1" 200 409
91.215.65.18 - - [23/Jun/2017:09:33:08 +0000] "POST /$stapler/bound/b9739601-90e8-4516-b3dc-9a547a886100/render HTTP/1.1" 200 777
91.215.65.18 - - [23/Jun/2017:09:33:08 +0000] "GET /job/generar-paquete-demo-develop/descriptorByName/hudson.tasks.Shell/checkUnstableReturn?value= HTTP/1.1" 200 6
91.215.65.18 - - [23/Jun/2017:09:33:08 +0000] "POST /job/generar-paquete-demo-develop/descriptorByName/hudson.plugins.git.UserRemoteConfig/fillCredentialsIdItems HTTP/1.1" 200 265
91.215.65.18 - - [23/Jun/2017:09:33:08 +0000] "POST /job/generar-paquete-demo-develop/descriptorByName/hudson.scm.SubversionSCM$ModuleLocation/fillCredentialsIdItems HTTP/1.1" 200 265
91.215.65.18 - - [23/Jun/2017:09:33:08 +0000] "POST /job/generar-paquete-demo-develop/descriptorByName/jenkins.branch.RateLimitBranchProperty$JobPropertyImpl/fillDurationNameItems HTTP/1.1" 200 146
91.215.65.18 - - [23/Jun/2017:09:33:08 +0000] "GET /job/generar-paquete-demo-develop/descriptorByName/hudson.plugins.copyartifact.CopyArtifactPermissionProperty/checkProjectNames?value=&projectNames= HTTP/1.1" 200 6
91.215.65.18 - - [23/Jun/2017:09:33:09 +0000] "GET /job/generar-paquete-demo-develop/descriptorByName/hudson.tasks.Shell/checkUnstableReturn?value= HTTP/1.1" 200 6
91.215.65.18 - - [23/Jun/2017:09:33:09 +0000] "GET /job/generar-paquete-demo-develop/descriptorByName/jenkins.branch.RateLimitBranchProperty$JobPropertyImpl/checkCount?value=1&durationName= HTTP/1.1" 200 121
91.215.65.18 - - [23/Jun/2017:09:33:09 +0000] "GET /job/generar-paquete-demo-develop/descriptorByName/hudson.model.FreeStyleProject/checkCustomWorkspace?value=&customWorkspace= HTTP/1.1" 200 111
91.215.65.18 - - [23/Jun/2017:09:33:09 +0000] "GET /checkDisplayName?displayName=&jobName=generar-paquete-demo-develop HTTP/1.1" 200 6
91.215.65.18 - - [23/Jun/2017:09:33:09 +0000] "GET /job/generar-paquete-demo-develop/descriptorByName/hudson.plugins.git.UserRemoteConfig/checkUrl?value=http%3A%2F%2F40.69.74.208%3A8081%2Fscm%2Fdem%2Fdemoessentials.git&credentialsId=f29a8542-0f32-43bf-ad46-f14f250b2b1c HTTP/1.1" 200 6
91.215.65.18 - - [23/Jun/2017:09:33:09 +0000] "GET /job/generar-paquete-demo-develop/descriptorByName/hudson.scm.SubversionSCM$ModuleLocation/checkRemote?value=&remote= HTTP/1.1" 200 112
91.215.65.18 - - [23/Jun/2017:09:33:09 +0000] "GET /job/generar-paquete-demo-develop/descriptorByName/hudson.scm.SubversionSCM$ModuleLocation/checkLocal?value=. HTTP/1.1" 200 6
91.215.65.18 - - [23/Jun/2017:09:33:09 +0000] "GET /job/generar-paquete-demo-develop/descriptorByName/hudson.scm.SubversionSCM/checkRevisionPropertiesSupported?value=&credentialsId=null&excludedRevprop= HTTP/1.1" 200 6
91.215.65.18 - - [23/Jun/2017:09:33:09 +0000] "GET /job/generar-paquete-demo-develop/descriptorByName/jenkins.triggers.ReverseBuildTrigger/checkUpstreamProjects?value= HTTP/1.1" 200 124
91.215.65.18 - - [23/Jun/2017:09:33:09 +0000] "GET /job/generar-paquete-demo-develop/descriptorByName/hudson.tasks.Shell/checkUnstableReturn?value= HTTP/1.1" 200 6
91.215.65.18 - - [23/Jun/2017:09:33:09 +0000] "GET /job/generar-paquete-demo-develop/descriptorByName/hudson.tasks.Shell/checkUnstableReturn?value= HTTP/1.1" 200 6
91.215.65.18 - - [23/Jun/2017:09:33:09 +0000] "GET /job/generar-paquete-demo-develop/descriptorByName/hudson.tasks.Shell/checkUnstableReturn?value= HTTP/1.1" 200 6
91.215.65.18 - - [23/Jun/2017:09:33:09 +0000] "GET /job/generar-paquete-demo-develop/descriptorByName/hudson.plugins.git.UserRemoteConfig/checkCredentialsId?value=f29a8542-0f32-43bf-ad46-f14f250b2b1c&url=http%3A%2F%2F40.69.74.208%3A8081%2Fscm%2Fdem%2Fdemoessentials.git HTTP/1.1" 200 6
91.215.65.18 - - [23/Jun/2017:09:33:09 +0000] "GET /job/generar-paquete-demo-develop/descriptorByName/hudson.scm.SubversionSCM$ModuleLocation/checkCredentialsId?value=&remote= HTTP/1.1" 200 6
91.215.65.18 - - [23/Jun/2017:09:33:09 +0000] "GET /job/generar-paquete-demo-develop/descriptorByName/hudson.scm.SubversionSCM/checkExcludedRegions?value= HTTP/1.1" 200 6
91.215.65.18 - - [23/Jun/2017:09:33:10 +0000] "GET /job/generar-paquete-demo-develop/descriptorByName/hudson.scm.SubversionSCM/checkIncludedRegions?value= HTTP/1.1" 200 6
91.215.65.18 - - [23/Jun/2017:09:33:10 +0000] "GET /job/generar-paquete-demo-develop/descriptorByName/hudson.scm.SubversionSCM/checkExcludedUsers?value= HTTP/1.1" 200 6
91.215.65.18 - - [23/Jun/2017:09:33:10 +0000] "GET /job/generar-paquete-demo-develop/descriptorByName/hudson.scm.SubversionSCM/checkExcludedCommitMessages?value= HTTP/1.1" 200 6
91.215.65.18 - - [23/Jun/2017:09:33:10 +0000] "GET /job/generar-paquete-demo-develop/descriptorByName/hudson.triggers.TimerTrigger/checkSpec?value= HTTP/1.1" 200 117
91.215.65.18 - - [23/Jun/2017:09:33:10 +0000] "GET /trigger/TimerTrigger/check?value=%23%20every%20minute%0A*%20*%20*%20*%20* HTTP/1.1" 200 511
91.215.65.18 - - [23/Jun/2017:09:33:10 +0000] "GET /publisher/ExtendedEmailPublisher/recipientListRecipientsCheck?value=msantosa%40everis.com HTTP/1.1" 200 6
91.215.65.18 - - [23/Jun/2017:09:33:10 +0000] "GET /publisher/ExtendedEmailPublisher/recipientListRecipientsCheck?value=%24DEFAULT_REPLYTO HTTP/1.1" 200 6
91.215.65.18 - - [23/Jun/2017:10:30:55 +0000] "GET / HTTP/1.1" 403 793
91.215.65.18 - - [23/Jun/2017:10:30:55 +0000] "GET /login?from=%2F HTTP/1.1" 200 1880
91.215.65.18 - - [23/Jun/2017:10:30:57 +0000] "POST /j_acegi_security_check HTTP/1.1" 302 -
91.215.65.18 - - [23/Jun/2017:10:30:57 +0000] "GET / HTTP/1.1" 200 7664
91.215.65.18 - - [23/Jun/2017:10:31:02 +0000] "POST /ajaxBuildQueue HTTP/1.1" 200 311
91.215.65.18 - - [23/Jun/2017:10:31:02 +0000] "POST /ajaxExecutors HTTP/1.1" 200 387
91.215.65.18 - - [23/Jun/2017:10:31:07 +0000] "GET /job/generar-paquete-demo-develop/ HTTP/1.1" 200 6677
91.215.65.18 - - [23/Jun/2017:10:31:10 +0000] "GET /job/generar-paquete-demo-develop/configure HTTP/1.1" 200 28571
91.215.65.18 - - [23/Jun/2017:10:31:10 +0000] "GET /job/generar-paquete-demo-develop/descriptorByName/hudson.plugins.git.UserRemoteConfig/checkCredentialsId?value=&url= HTTP/1.1" 200 6
91.215.65.18 - - [23/Jun/2017:10:31:10 +0000] "POST /job/generar-paquete-demo-develop/descriptorByName/hudson.plugins.git.UserRemoteConfig/fillCredentialsIdItems HTTP/1.1" 200 265
91.215.65.18 - - [23/Jun/2017:10:31:10 +0000] "POST /job/generar-paquete-demo-develop/descriptorByName/hudson.plugins.git.UserRemoteConfig/fillCredentialsIdItems HTTP/1.1" 200 265
91.215.65.18 - - [23/Jun/2017:10:31:10 +0000] "POST /job/generar-paquete-demo-develop/descriptorByName/hudson.scm.SubversionSCM$AdditionalCredentials/fillCredentialsIdItems HTTP/1.1" 200 265
91.215.65.18 - - [23/Jun/2017:10:31:10 +0000] "POST /job/generar-paquete-demo-develop/descriptorByName/hudson.scm.SubversionSCM$ModuleLocation/fillCredentialsIdItems HTTP/1.1" 200 265
91.215.65.18 - - [23/Jun/2017:10:31:10 +0000] "POST /job/generar-paquete-demo-develop/descriptorByName/hudson.scm.SubversionSCM$ModuleLocation/fillCredentialsIdItems HTTP/1.1" 200 265
91.215.65.18 - - [23/Jun/2017:10:31:10 +0000] "GET /job/generar-paquete-demo-develop/descriptorByName/hudson.plugins.git.UserRemoteConfig/checkCredentialsId?value=f29a8542-0f32-43bf-ad46-f14f250b2b1c&url=http%3A%2F%2F40.69.74.208%3A8081%2Fscm%2Fdem%2Fdemoessentials.git HTTP/1.1" 200 6
91.215.65.18 - - [23/Jun/2017:10:31:10 +0000] "GET /job/generar-paquete-demo-develop/descriptorByName/hudson.scm.SubversionSCM$ModuleLocation/checkCredentialsId?value=&remote= HTTP/1.1" 200 6
91.215.65.18 - - [23/Jun/2017:10:31:11 +0000] "GET /job/generar-paquete-demo-develop/descriptorByName/hudson.scm.SubversionSCM$ModuleLocation/checkCredentialsId?value=&remote= HTTP/1.1" 200 6
91.215.65.18 - - [23/Jun/2017:10:31:11 +0000] "GET /job/generar-paquete-demo-develop/descriptorByName/jenkins.branch.RateLimitBranchProperty$JobPropertyImpl/checkCount?value=1&durationName= HTTP/1.1" 200 121
91.215.65.18 - - [23/Jun/2017:10:31:11 +0000] "GET /job/generar-paquete-demo-develop/descriptorByName/hudson.tasks.Shell/checkUnstableReturn?value= HTTP/1.1" 200 6
91.215.65.18 - - [23/Jun/2017:10:31:11 +0000] "POST /$stapler/bound/0e236039-8be6-4900-9873-1084a7471969/render HTTP/1.1" 200 180
91.215.65.18 - - [23/Jun/2017:10:31:11 +0000] "POST /$stapler/bound/96f79ed6-d68d-401d-9d17-26d462690f46/render HTTP/1.1" 200 409
91.215.65.18 - - [23/Jun/2017:10:31:11 +0000] "POST /job/generar-paquete-demo-develop/descriptorByName/jenkins.branch.RateLimitBranchProperty$JobPropertyImpl/fillDurationNameItems HTTP/1.1" 200 146
91.215.65.18 - - [23/Jun/2017:10:31:11 +0000] "POST /$stapler/bound/637a35f8-cef7-415c-9cc9-a8357e0f9029/render HTTP/1.1" 200 778
91.215.65.18 - - [23/Jun/2017:10:31:11 +0000] "POST /job/generar-paquete-demo-develop/descriptorByName/hudson.plugins.git.UserRemoteConfig/fillCredentialsIdItems HTTP/1.1" 200 265
91.215.65.18 - - [23/Jun/2017:10:31:11 +0000] "POST /job/generar-paquete-demo-develop/descriptorByName/hudson.scm.SubversionSCM$ModuleLocation/fillCredentialsIdItems HTTP/1.1" 200 265
91.215.65.18 - - [23/Jun/2017:10:31:11 +0000] "GET /job/generar-paquete-demo-develop/descriptorByName/hudson.tasks.Shell/checkUnstableReturn?value= HTTP/1.1" 200 6
91.215.65.18 - - [23/Jun/2017:10:31:11 +0000] "GET /job/generar-paquete-demo-develop/descriptorByName/hudson.security.AuthorizationMatrixProperty/checkName?value=%5Bdemo%5D HTTP/1.1" 200 96
91.215.65.18 - - [23/Jun/2017:10:31:11 +0000] "GET /job/generar-paquete-demo-develop/descriptorByName/hudson.tasks.Shell/checkUnstableReturn?value= HTTP/1.1" 200 6
91.215.65.18 - - [23/Jun/2017:10:31:11 +0000] "GET /job/generar-paquete-demo-develop/descriptorByName/hudson.plugins.copyartifact.CopyArtifactPermissionProperty/checkProjectNames?value=&projectNames= HTTP/1.1" 200 6
91.215.65.18 - - [23/Jun/2017:10:31:11 +0000] "GET /job/generar-paquete-demo-develop/descriptorByName/jenkins.branch.RateLimitBranchProperty$JobPropertyImpl/checkCount?value=1&durationName= HTTP/1.1" 200 121
91.215.65.18 - - [23/Jun/2017:10:31:11 +0000] "GET /job/generar-paquete-demo-develop/descriptorByName/hudson.model.FreeStyleProject/checkCustomWorkspace?value=&customWorkspace= HTTP/1.1" 200 111
91.215.65.18 - - [23/Jun/2017:10:31:11 +0000] "GET /checkDisplayName?displayName=&jobName=generar-paquete-demo-develop HTTP/1.1" 200 6
91.215.65.18 - - [23/Jun/2017:10:31:11 +0000] "GET /job/generar-paquete-demo-develop/descriptorByName/hudson.plugins.git.UserRemoteConfig/checkUrl?value=http%3A%2F%2F40.69.74.208%3A8081%2Fscm%2Fdem%2Fdemoessentials.git&credentialsId=f29a8542-0f32-43bf-ad46-f14f250b2b1c HTTP/1.1" 200 6
91.215.65.18 - - [23/Jun/2017:10:31:11 +0000] "GET /job/generar-paquete-demo-develop/descriptorByName/hudson.scm.SubversionSCM$ModuleLocation/checkRemote?value=&remote= HTTP/1.1" 200 112
91.215.65.18 - - [23/Jun/2017:10:31:11 +0000] "GET /job/generar-paquete-demo-develop/descriptorByName/hudson.scm.SubversionSCM$ModuleLocation/checkLocal?value=. HTTP/1.1" 200 6
91.215.65.18 - - [23/Jun/2017:10:31:11 +0000] "GET /job/generar-paquete-demo-develop/descriptorByName/hudson.scm.SubversionSCM/checkRevisionPropertiesSupported?value=&credentialsId=null&excludedRevprop= HTTP/1.1" 200 6
91.215.65.18 - - [23/Jun/2017:10:31:12 +0000] "GET /job/generar-paquete-demo-develop/descriptorByName/jenkins.triggers.ReverseBuildTrigger/checkUpstreamProjects?value= HTTP/1.1" 200 124
91.215.65.18 - - [23/Jun/2017:10:31:12 +0000] "GET /job/generar-paquete-demo-develop/descriptorByName/hudson.tasks.Shell/checkUnstableReturn?value= HTTP/1.1" 200 6
91.215.65.18 - - [23/Jun/2017:10:31:12 +0000] "GET /job/generar-paquete-demo-develop/descriptorByName/hudson.tasks.Shell/checkUnstableReturn?value= HTTP/1.1" 200 6
91.215.65.18 - - [23/Jun/2017:10:31:12 +0000] "GET /job/generar-paquete-demo-develop/descriptorByName/hudson.tasks.Shell/checkUnstableReturn?value= HTTP/1.1" 200 6
91.215.65.18 - - [23/Jun/2017:10:31:12 +0000] "GET /job/generar-paquete-demo-develop/descriptorByName/hudson.plugins.git.UserRemoteConfig/checkCredentialsId?value=f29a8542-0f32-43bf-ad46-f14f250b2b1c&url=http%3A%2F%2F40.69.74.208%3A8081%2Fscm%2Fdem%2Fdemoessentials.git HTTP/1.1" 200 6
91.215.65.18 - - [23/Jun/2017:10:31:12 +0000] "GET /job/generar-paquete-demo-develop/descriptorByName/hudson.scm.SubversionSCM$ModuleLocation/checkCredentialsId?value=&remote= HTTP/1.1" 200 6
91.215.65.18 - - [23/Jun/2017:10:31:12 +0000] "GET /job/generar-paquete-demo-develop/descriptorByName/hudson.scm.SubversionSCM/checkExcludedRegions?value= HTTP/1.1" 200 6
91.215.65.18 - - [23/Jun/2017:10:31:12 +0000] "GET /job/generar-paquete-demo-develop/descriptorByName/hudson.scm.SubversionSCM/checkIncludedRegions?value= HTTP/1.1" 200 6
91.215.65.18 - - [23/Jun/2017:10:31:12 +0000] "GET /job/generar-paquete-demo-develop/descriptorByName/hudson.scm.SubversionSCM/checkExcludedUsers?value= HTTP/1.1" 200 6
91.215.65.18 - - [23/Jun/2017:10:31:12 +0000] "GET /job/generar-paquete-demo-develop/descriptorByName/hudson.scm.SubversionSCM/checkExcludedCommitMessages?value= HTTP/1.1" 200 6
91.215.65.18 - - [23/Jun/2017:10:31:12 +0000] "GET /job/generar-paquete-demo-develop/descriptorByName/hudson.triggers.TimerTrigger/checkSpec?value= HTTP/1.1" 200 117
91.215.65.18 - - [23/Jun/2017:10:31:12 +0000] "GET /trigger/TimerTrigger/check?value=%23%20every%20minute%0A*%20*%20*%20*%20* HTTP/1.1" 200 513
91.215.65.18 - - [23/Jun/2017:10:31:12 +0000] "GET /publisher/ExtendedEmailPublisher/recipientListRecipientsCheck?value=msantosa%40everis.com HTTP/1.1" 200 6
91.215.65.18 - - [23/Jun/2017:10:31:12 +0000] "GET /publisher/ExtendedEmailPublisher/recipientListRecipientsCheck?value=%24DEFAULT_REPLYTO HTTP/1.1" 200 6
91.215.65.18 - - [23/Jun/2017:10:31:56 +0000] "GET / HTTP/1.1" 200 7665
91.215.65.18 - - [23/Jun/2017:10:31:57 +0000] "GET /opensearch.xml HTTP/1.1" 403 821
91.215.65.18 - - [23/Jun/2017:10:32:02 +0000] "POST /ajaxExecutors HTTP/1.1" 200 387
91.215.65.18 - - [23/Jun/2017:10:32:02 +0000] "POST /ajaxBuildQueue HTTP/1.1" 200 311
91.215.65.18 - - [23/Jun/2017:10:32:07 +0000] "POST /ajaxBuildQueue HTTP/1.1" 200 311
91.215.65.18 - - [23/Jun/2017:10:32:07 +0000] "POST /ajaxExecutors HTTP/1.1" 200 387
91.215.65.18 - - [23/Jun/2017:10:32:11 +0000] "GET /job/validar-paquete-demo/ HTTP/1.1" 200 6543
91.215.65.18 - - [23/Jun/2017:10:32:14 +0000] "GET /job/validar-paquete-demo/configure HTTP/1.1" 200 27124
91.215.65.18 - - [23/Jun/2017:10:32:14 +0000] "POST /job/validar-paquete-demo/descriptorByName/hudson.plugins.git.UserRemoteConfig/fillCredentialsIdItems HTTP/1.1" 200 265
91.215.65.18 - - [23/Jun/2017:10:32:14 +0000] "GET /job/validar-paquete-demo/descriptorByName/hudson.plugins.git.UserRemoteConfig/checkCredentialsId?value=&url= HTTP/1.1" 200 6
91.215.65.18 - - [23/Jun/2017:10:32:14 +0000] "POST /job/validar-paquete-demo/descriptorByName/hudson.plugins.git.UserRemoteConfig/fillCredentialsIdItems HTTP/1.1" 200 265
91.215.65.18 - - [23/Jun/2017:10:32:14 +0000] "POST /job/validar-paquete-demo/descriptorByName/hudson.scm.SubversionSCM$ModuleLocation/fillCredentialsIdItems HTTP/1.1" 200 265
91.215.65.18 - - [23/Jun/2017:10:32:14 +0000] "POST /job/validar-paquete-demo/descriptorByName/hudson.scm.SubversionSCM$ModuleLocation/fillCredentialsIdItems HTTP/1.1" 200 265
91.215.65.18 - - [23/Jun/2017:10:32:14 +0000] "POST /job/validar-paquete-demo/descriptorByName/hudson.scm.SubversionSCM$AdditionalCredentials/fillCredentialsIdItems HTTP/1.1" 200 265
91.215.65.18 - - [23/Jun/2017:10:32:14 +0000] "GET /job/validar-paquete-demo/descriptorByName/hudson.plugins.git.UserRemoteConfig/checkCredentialsId?value=&url= HTTP/1.1" 200 6
91.215.65.18 - - [23/Jun/2017:10:32:14 +0000] "GET /job/validar-paquete-demo/descriptorByName/hudson.scm.SubversionSCM$ModuleLocation/checkCredentialsId?value=&remote= HTTP/1.1" 200 6
91.215.65.18 - - [23/Jun/2017:10:32:15 +0000] "GET /job/validar-paquete-demo/descriptorByName/hudson.scm.SubversionSCM$ModuleLocation/checkCredentialsId?value=&remote= HTTP/1.1" 200 6
91.215.65.18 - - [23/Jun/2017:10:32:15 +0000] "GET /job/validar-paquete-demo/descriptorByName/jenkins.branch.RateLimitBranchProperty$JobPropertyImpl/checkCount?value=1&durationName= HTTP/1.1" 200 121
91.215.65.18 - - [23/Jun/2017:10:32:15 +0000] "POST /$stapler/bound/0a108804-5777-4759-a106-fe13083fa589/render HTTP/1.1" 200 180
91.215.65.18 - - [23/Jun/2017:10:32:15 +0000] "POST /$stapler/bound/95dfb900-4e5a-4d4e-975b-d57933f77a4a/render HTTP/1.1" 200 409
91.215.65.18 - - [23/Jun/2017:10:32:15 +0000] "POST /job/validar-paquete-demo/descriptorByName/jenkins.branch.RateLimitBranchProperty$JobPropertyImpl/fillDurationNameItems HTTP/1.1" 200 146
91.215.65.18 - - [23/Jun/2017:10:32:15 +0000] "POST /job/validar-paquete-demo/descriptorByName/hudson.plugins.git.UserRemoteConfig/fillCredentialsIdItems HTTP/1.1" 200 265
91.215.65.18 - - [23/Jun/2017:10:32:15 +0000] "POST /$stapler/bound/5d1589dd-6d61-4e39-9eb1-4b961aeb9534/render HTTP/1.1" 200 775
91.215.65.18 - - [23/Jun/2017:10:32:15 +0000] "POST /job/validar-paquete-demo/descriptorByName/hudson.scm.SubversionSCM$ModuleLocation/fillCredentialsIdItems HTTP/1.1" 200 265
91.215.65.18 - - [23/Jun/2017:10:32:15 +0000] "GET /job/validar-paquete-demo/descriptorByName/hudson.security.AuthorizationMatrixProperty/checkName?value=%5Bdemo%5D HTTP/1.1" 200 96
91.215.65.18 - - [23/Jun/2017:10:32:15 +0000] "GET /job/validar-paquete-demo/descriptorByName/hudson.plugins.copyartifact.CopyArtifactPermissionProperty/checkProjectNames?value=&projectNames= HTTP/1.1" 200 6
91.215.65.18 - - [23/Jun/2017:10:32:15 +0000] "GET /job/validar-paquete-demo/descriptorByName/jenkins.branch.RateLimitBranchProperty$JobPropertyImpl/checkCount?value=1&durationName= HTTP/1.1" 200 121
91.215.65.18 - - [23/Jun/2017:10:32:15 +0000] "GET /job/validar-paquete-demo/descriptorByName/hudson.model.FreeStyleProject/checkCustomWorkspace?value=&customWorkspace= HTTP/1.1" 200 111
91.215.65.18 - - [23/Jun/2017:10:32:15 +0000] "GET /checkDisplayName?displayName=&jobName=validar-paquete-demo HTTP/1.1" 200 6
91.215.65.18 - - [23/Jun/2017:10:32:15 +0000] "GET /job/validar-paquete-demo/descriptorByName/hudson.plugins.git.UserRemoteConfig/checkUrl?value=&credentialsId= HTTP/1.1" 200 113
91.215.65.18 - - [23/Jun/2017:10:32:15 +0000] "GET /job/validar-paquete-demo/descriptorByName/hudson.scm.SubversionSCM$ModuleLocation/checkRemote?value=&remote= HTTP/1.1" 200 112
91.215.65.18 - - [23/Jun/2017:10:32:15 +0000] "GET /job/validar-paquete-demo/descriptorByName/hudson.scm.SubversionSCM$ModuleLocation/checkLocal?value=. HTTP/1.1" 200 6
91.215.65.18 - - [23/Jun/2017:10:32:15 +0000] "GET /job/validar-paquete-demo/descriptorByName/hudson.scm.SubversionSCM/checkRevisionPropertiesSupported?value=&credentialsId=null&excludedRevprop= HTTP/1.1" 200 6
91.215.65.18 - - [23/Jun/2017:10:32:16 +0000] "GET /job/validar-paquete-demo/descriptorByName/jenkins.triggers.ReverseBuildTrigger/checkUpstreamProjects?value= HTTP/1.1" 200 124
91.215.65.18 - - [23/Jun/2017:10:32:16 +0000] "GET /job/validar-paquete-demo/descriptorByName/hudson.plugins.git.UserRemoteConfig/checkCredentialsId?value=&url= HTTP/1.1" 200 6
91.215.65.18 - - [23/Jun/2017:10:32:16 +0000] "GET /job/validar-paquete-demo/descriptorByName/hudson.scm.SubversionSCM$ModuleLocation/checkCredentialsId?value=&remote= HTTP/1.1" 200 6
91.215.65.18 - - [23/Jun/2017:10:32:16 +0000] "GET /job/validar-paquete-demo/descriptorByName/hudson.scm.SubversionSCM/checkExcludedRegions?value= HTTP/1.1" 200 6
91.215.65.18 - - [23/Jun/2017:10:32:16 +0000] "GET /job/validar-paquete-demo/descriptorByName/hudson.scm.SubversionSCM/checkIncludedRegions?value= HTTP/1.1" 200 6
91.215.65.18 - - [23/Jun/2017:10:32:16 +0000] "GET /job/validar-paquete-demo/descriptorByName/hudson.scm.SubversionSCM/checkExcludedUsers?value= HTTP/1.1" 200 6
91.215.65.18 - - [23/Jun/2017:10:32:16 +0000] "GET /job/validar-paquete-demo/descriptorByName/hudson.scm.SubversionSCM/checkExcludedCommitMessages?value= HTTP/1.1" 200 6
91.215.65.18 - - [23/Jun/2017:10:32:16 +0000] "GET /job/validar-paquete-demo/descriptorByName/hudson.triggers.TimerTrigger/checkSpec?value= HTTP/1.1" 200 117
91.215.65.18 - - [23/Jun/2017:10:32:16 +0000] "GET /job/validar-paquete-demo/descriptorByName/org.jenkinsci.plugins.parameterizedscheduler.ParameterizedTimerTrigger/checkParameterizedSpecification?value= HTTP/1.1" 200 6
91.215.65.18 - - [23/Jun/2017:10:32:16 +0000] "GET /trigger/TimerTrigger/check?value= HTTP/1.1" 200 117
91.215.65.18 - - [23/Jun/2017:10:32:16 +0000] "GET /publisher/ExtendedEmailPublisher/recipientListRecipientsCheck?value=Millan.Santos.Arias%40everis.com HTTP/1.1" 200 6
91.215.65.18 - - [23/Jun/2017:10:32:16 +0000] "GET /publisher/ExtendedEmailPublisher/recipientListRecipientsCheck?value=%24DEFAULT_REPLYTO HTTP/1.1" 200 6
