91.215.65.18 - - [30/Jun/2017:08:49:19 +0000] "GET / HTTP/1.1" 403 793
91.215.65.18 - - [30/Jun/2017:08:49:20 +0000] "GET /login?from=%2F HTTP/1.1" 200 3539
91.215.65.18 - - [30/Jun/2017:08:49:20 +0000] "GET /static/9befc5a0/css/layout-common.css HTTP/1.1" 200 1245
91.215.65.18 - - [30/Jun/2017:08:49:20 +0000] "GET /static/9befc5a0/css/style.css HTTP/1.1" 200 9036
91.215.65.18 - - [30/Jun/2017:08:49:20 +0000] "GET /static/9befc5a0/css/responsive-grid.css HTTP/1.1" 200 4051
91.215.65.18 - - [30/Jun/2017:08:49:20 +0000] "GET /static/9befc5a0/css/color.css HTTP/1.1" 200 763
91.215.65.18 - - [30/Jun/2017:08:49:20 +0000] "GET /static/9befc5a0/scripts/behavior.js HTTP/1.1" 200 2360
91.215.65.18 - - [30/Jun/2017:08:49:20 +0000] "GET /static/9befc5a0/scripts/yui/assets/skins/sam/skin.css HTTP/1.1" 200 16551
91.215.65.18 - - [30/Jun/2017:08:49:20 +0000] "GET /static/9befc5a0/scripts/yui/container/assets/container.css HTTP/1.1" 200 2306
91.215.65.18 - - [30/Jun/2017:08:49:20 +0000] "GET /static/9befc5a0/scripts/prototype.js HTTP/1.1" 200 37879
91.215.65.18 - - [30/Jun/2017:08:49:20 +0000] "GET /static/9befc5a0/scripts/yui/container/assets/skins/sam/container.css HTTP/1.1" 200 1277
91.215.65.18 - - [30/Jun/2017:08:49:20 +0000] "GET /static/9befc5a0/scripts/yui/button/assets/skins/sam/button.css HTTP/1.1" 200 810
91.215.65.18 - - [30/Jun/2017:08:49:20 +0000] "GET /adjuncts/9befc5a0/lib/layout/breadcrumbs.css HTTP/1.1" 200 717
91.215.65.18 - - [30/Jun/2017:08:49:20 +0000] "GET /adjuncts/9befc5a0/org/kohsuke/stapler/bind.js HTTP/1.1" 200 936
91.215.65.18 - - [30/Jun/2017:08:49:20 +0000] "GET /static/9befc5a0/scripts/yui/yahoo/yahoo-min.js HTTP/1.1" 200 3038
91.215.65.18 - - [30/Jun/2017:08:49:21 +0000] "GET /static/9befc5a0/scripts/yui/dom/dom-min.js HTTP/1.1" 200 5739
91.215.65.18 - - [30/Jun/2017:08:49:21 +0000] "GET /static/9befc5a0/scripts/yui/animation/animation-min.js HTTP/1.1" 200 4877
91.215.65.18 - - [30/Jun/2017:08:49:21 +0000] "GET /static/9befc5a0/scripts/yui/event/event-min.js HTTP/1.1" 200 5146
91.215.65.18 - - [30/Jun/2017:08:49:21 +0000] "GET /static/9befc5a0/scripts/yui/dragdrop/dragdrop-min.js HTTP/1.1" 200 6974
91.215.65.18 - - [30/Jun/2017:08:49:21 +0000] "GET /static/9befc5a0/scripts/yui/connection/connection-min.js HTTP/1.1" 200 4442
91.215.65.18 - - [30/Jun/2017:08:49:21 +0000] "GET /static/9befc5a0/scripts/yui/datasource/datasource-min.js HTTP/1.1" 200 8248
91.215.65.18 - - [30/Jun/2017:08:49:21 +0000] "GET /static/9befc5a0/scripts/yui/element/element-min.js HTTP/1.1" 200 2698
91.215.65.18 - - [30/Jun/2017:08:49:21 +0000] "GET /static/9befc5a0/scripts/yui/button/button-min.js HTTP/1.1" 200 8305
91.215.65.18 - - [30/Jun/2017:08:49:21 +0000] "GET /static/9befc5a0/scripts/yui/storage/storage-min.js HTTP/1.1" 200 4048
91.215.65.18 - - [30/Jun/2017:08:49:21 +0000] "GET /static/9befc5a0/scripts/hudson-behavior.js HTTP/1.1" 200 28684
91.215.65.18 - - [30/Jun/2017:08:49:21 +0000] "GET /static/9befc5a0/scripts/sortable.js HTTP/1.1" 200 3999
91.215.65.18 - - [30/Jun/2017:08:49:21 +0000] "GET /static/9befc5a0/scripts/yui/menu/menu-min.js HTTP/1.1" 200 15901
91.215.65.18 - - [30/Jun/2017:08:49:21 +0000] "GET /static/9befc5a0/scripts/yui/menu/assets/skins/sam/menu.css HTTP/1.1" 200 1301
91.215.65.18 - - [30/Jun/2017:08:49:21 +0000] "GET /static/9befc5a0/scripts/yui/container/container-min.js HTTP/1.1" 200 19888
91.215.65.18 - - [30/Jun/2017:08:49:21 +0000] "GET /static/9befc5a0/scripts/yui/autocomplete/autocomplete-min.js HTTP/1.1" 200 7254
91.215.65.18 - - [30/Jun/2017:08:49:21 +0000] "GET /adjuncts/9befc5a0/lib/layout/breadcrumbs.js HTTP/1.1" 200 3019
91.215.65.18 - - [30/Jun/2017:08:49:21 +0000] "GET /static/9befc5a0/jsbundles/page-init.js HTTP/1.1" 200 9291
91.215.65.18 - - [30/Jun/2017:08:49:21 +0000] "GET /static/9befc5a0/images/headshot.png HTTP/1.1" 200 2409
91.215.65.18 - - [30/Jun/2017:08:49:21 +0000] "GET /static/9befc5a0/images/title.png HTTP/1.1" 200 2510
91.215.65.18 - - [30/Jun/2017:08:49:21 +0000] "GET /adjuncts/9befc5a0/lib/layout/menu_down_arrow.png HTTP/1.1" 200 2767
91.215.65.18 - - [30/Jun/2017:08:49:21 +0000] "GET /adjuncts/9befc5a0/lib/layout/menu_right_arrow2.png HTTP/1.1" 200 2764
91.215.65.18 - - [30/Jun/2017:08:49:21 +0000] "GET /static/9befc5a0/assets/jquery-detached/jsmodules/jquery2.js HTTP/1.1" 200 39262
91.215.65.18 - - [30/Jun/2017:08:49:21 +0000] "GET /static/9befc5a0/images/16x16/help.png HTTP/1.1" 200 763
91.215.65.18 - - [30/Jun/2017:08:49:21 +0000] "GET /static/9befc5a0/images/16x16/search.png HTTP/1.1" 200 774
91.215.65.18 - - [30/Jun/2017:08:49:22 +0000] "GET /static/9befc5a0/favicon.ico HTTP/1.1" 200 17542
91.215.65.18 - - [30/Jun/2017:08:49:22 +0000] "GET /static/9befc5a0/images/top-sticker-bottom-edge.png HTTP/1.1" 200 331
91.215.65.18 - - [30/Jun/2017:08:49:26 +0000] "POST /j_acegi_security_check HTTP/1.1" 302 -
91.215.65.18 - - [30/Jun/2017:08:49:42 +0000] "GET / HTTP/1.1" 200 7719
91.215.65.18 - - [30/Jun/2017:08:49:42 +0000] "GET /adjuncts/9befc5a0/jenkins/management/AdministrativeMonitorsDecorator/resources.css HTTP/1.1" 200 593
91.215.65.18 - - [30/Jun/2017:08:49:42 +0000] "GET /static/9befc5a0/scripts/yui/cookie/cookie-min.js HTTP/1.1" 200 1430
91.215.65.18 - - [30/Jun/2017:08:49:42 +0000] "GET /adjuncts/9befc5a0/jenkins/management/AdministrativeMonitorsDecorator/resources.js HTTP/1.1" 200 376
91.215.65.18 - - [30/Jun/2017:08:49:42 +0000] "GET /static/9befc5a0/images/24x24/new-package.png HTTP/1.1" 200 922
91.215.65.18 - - [30/Jun/2017:08:49:42 +0000] "GET /static/9befc5a0/images/16x16/collapse.png HTTP/1.1" 200 168
91.215.65.18 - - [30/Jun/2017:08:49:42 +0000] "GET /static/9befc5a0/images/24x24/gear2.png HTTP/1.1" 200 1460
91.215.65.18 - - [30/Jun/2017:08:49:42 +0000] "GET /static/9befc5a0/plugin/credentials/images/24x24/credentials.png HTTP/1.1" 200 1572
91.215.65.18 - - [30/Jun/2017:08:49:42 +0000] "GET /static/9befc5a0/images/16x16/notepad.png HTTP/1.1" 200 383
91.215.65.18 - - [30/Jun/2017:08:49:42 +0000] "GET /static/9befc5a0/images/32x32/health-00to19.png HTTP/1.1" 200 1937
91.215.65.18 - - [30/Jun/2017:08:49:42 +0000] "GET /static/9befc5a0/images/24x24/clock.png HTTP/1.1" 200 1528
91.215.65.18 - - [30/Jun/2017:08:49:42 +0000] "GET /static/9befc5a0/images/32x32/blue.png HTTP/1.1" 200 1656
91.215.65.18 - - [30/Jun/2017:08:49:42 +0000] "GET /static/9befc5a0/images/32x32/aborted.png HTTP/1.1" 200 1245
91.215.65.18 - - [30/Jun/2017:08:49:42 +0000] "GET /static/9befc5a0/images/32x32/red.png HTTP/1.1" 200 1527
91.215.65.18 - - [30/Jun/2017:08:49:42 +0000] "GET /static/9befc5a0/images/32x32/health-40to59.png HTTP/1.1" 200 1320
91.215.65.18 - - [30/Jun/2017:08:49:42 +0000] "GET /static/9befc5a0/images/32x32/disabled.png HTTP/1.1" 200 1245
91.215.65.18 - - [30/Jun/2017:08:49:42 +0000] "GET /static/9befc5a0/images/32x32/nobuilt.png HTTP/1.1" 200 1245
91.215.65.18 - - [30/Jun/2017:08:49:42 +0000] "GET /static/9befc5a0/images/32x32/health-60to79.png HTTP/1.1" 200 1743
91.215.65.18 - - [30/Jun/2017:08:49:42 +0000] "GET /static/9befc5a0/images/32x32/health-80plus.png HTTP/1.1" 200 1270
91.215.65.18 - - [30/Jun/2017:08:49:43 +0000] "GET /static/9befc5a0/images/32x32/health-20to39.png HTTP/1.1" 200 1808
91.215.65.18 - - [30/Jun/2017:08:49:43 +0000] "GET /static/9befc5a0/images/24x24/search.png HTTP/1.1" 200 1309
91.215.65.18 - - [30/Jun/2017:08:49:43 +0000] "GET /static/9befc5a0/images/24x24/fingerprint.png HTTP/1.1" 200 739
91.215.65.18 - - [30/Jun/2017:08:49:43 +0000] "GET /static/9befc5a0/images/24x24/user.png HTTP/1.1" 200 1242
91.215.65.18 - - [30/Jun/2017:08:49:43 +0000] "GET /static/9befc5a0/images/16x16/error.png HTTP/1.1" 200 543
91.215.65.18 - - [30/Jun/2017:08:49:43 +0000] "GET /static/9befc5a0/images/24x24/notepad.png HTTP/1.1" 200 955
91.215.65.18 - - [30/Jun/2017:08:49:43 +0000] "GET /static/9befc5a0/images/16x16/warning.png HTTP/1.1" 200 487
91.215.65.18 - - [30/Jun/2017:08:49:43 +0000] "GET /static/9befc5a0/images/16x16/health-00to19.png HTTP/1.1" 200 643
91.215.65.18 - - [30/Jun/2017:08:49:43 +0000] "GET /static/9befc5a0/images/16x16/health-80plus.png HTTP/1.1" 200 481
91.215.65.18 - - [30/Jun/2017:08:49:43 +0000] "GET /static/9befc5a0/images/16x16/health-60to79.png HTTP/1.1" 200 652
91.215.65.18 - - [30/Jun/2017:08:49:43 +0000] "GET /static/9befc5a0/images/16x16/health-20to39.png HTTP/1.1" 200 762
91.215.65.18 - - [30/Jun/2017:08:49:43 +0000] "GET /static/9befc5a0/images/16x16/health-40to59.png HTTP/1.1" 200 518
91.215.65.18 - - [30/Jun/2017:08:49:43 +0000] "GET /static/9befc5a0/images/atom.gif HTTP/1.1" 200 644
91.215.65.18 - - [30/Jun/2017:08:49:47 +0000] "POST /ajaxExecutors HTTP/1.1" 200 375
91.215.65.18 - - [30/Jun/2017:08:49:47 +0000] "POST /ajaxBuildQueue HTTP/1.1" 200 308
91.215.65.18 - - [30/Jun/2017:08:49:52 +0000] "POST /ajaxBuildQueue HTTP/1.1" 200 308
91.215.65.18 - - [30/Jun/2017:08:49:52 +0000] "POST /ajaxExecutors HTTP/1.1" 200 375
91.215.65.18 - - [30/Jun/2017:08:49:57 +0000] "POST /ajaxExecutors HTTP/1.1" 200 375
91.215.65.18 - - [30/Jun/2017:08:49:57 +0000] "POST /ajaxBuildQueue HTTP/1.1" 200 308
91.215.65.18 - - [30/Jun/2017:08:50:02 +0000] "POST /ajaxBuildQueue HTTP/1.1" 200 308
91.215.65.18 - - [30/Jun/2017:08:50:02 +0000] "POST /ajaxExecutors HTTP/1.1" 200 375
91.215.65.18 - - [30/Jun/2017:08:50:07 +0000] "POST /ajaxBuildQueue HTTP/1.1" 200 308
91.215.65.18 - - [30/Jun/2017:08:50:07 +0000] "POST /ajaxExecutors HTTP/1.1" 200 375
91.215.65.18 - - [30/Jun/2017:08:50:12 +0000] "POST /ajaxBuildQueue HTTP/1.1" 200 308
91.215.65.18 - - [30/Jun/2017:08:50:12 +0000] "POST /ajaxExecutors HTTP/1.1" 200 375
91.215.65.18 - - [30/Jun/2017:08:50:17 +0000] "POST /ajaxExecutors HTTP/1.1" 200 375
91.215.65.18 - - [30/Jun/2017:08:50:17 +0000] "POST /ajaxBuildQueue HTTP/1.1" 200 308
91.215.65.18 - - [30/Jun/2017:08:50:22 +0000] "POST /ajaxBuildQueue HTTP/1.1" 200 308
91.215.65.18 - - [30/Jun/2017:08:50:22 +0000] "POST /ajaxExecutors HTTP/1.1" 200 375
91.215.65.18 - - [30/Jun/2017:08:50:27 +0000] "POST /ajaxExecutors HTTP/1.1" 200 375
91.215.65.18 - - [30/Jun/2017:08:50:27 +0000] "POST /ajaxBuildQueue HTTP/1.1" 200 308
91.215.65.18 - - [30/Jun/2017:08:50:32 +0000] "POST /ajaxBuildQueue HTTP/1.1" 200 308
91.215.65.18 - - [30/Jun/2017:08:50:32 +0000] "POST /ajaxExecutors HTTP/1.1" 200 375
91.215.65.18 - - [30/Jun/2017:08:50:37 +0000] "POST /ajaxBuildQueue HTTP/1.1" 200 308
91.215.65.18 - - [30/Jun/2017:08:50:37 +0000] "POST /ajaxExecutors HTTP/1.1" 200 375
91.215.65.18 - - [30/Jun/2017:08:50:42 +0000] "POST /ajaxExecutors HTTP/1.1" 200 375
91.215.65.18 - - [30/Jun/2017:08:50:42 +0000] "POST /ajaxBuildQueue HTTP/1.1" 200 308
91.215.65.18 - - [30/Jun/2017:08:50:47 +0000] "POST /ajaxBuildQueue HTTP/1.1" 200 308
91.215.65.18 - - [30/Jun/2017:08:50:47 +0000] "POST /ajaxExecutors HTTP/1.1" 200 375
91.215.65.18 - - [30/Jun/2017:08:50:52 +0000] "POST /ajaxBuildQueue HTTP/1.1" 200 308
91.215.65.18 - - [30/Jun/2017:08:50:52 +0000] "POST /ajaxExecutors HTTP/1.1" 200 375
91.215.65.18 - - [30/Jun/2017:08:50:57 +0000] "POST /ajaxBuildQueue HTTP/1.1" 200 308
91.215.65.18 - - [30/Jun/2017:08:50:57 +0000] "POST /ajaxExecutors HTTP/1.1" 200 375
91.215.65.18 - - [30/Jun/2017:08:51:02 +0000] "POST /ajaxBuildQueue HTTP/1.1" 200 308
91.215.65.18 - - [30/Jun/2017:08:51:02 +0000] "POST /ajaxExecutors HTTP/1.1" 200 375
91.215.65.18 - - [30/Jun/2017:08:51:07 +0000] "POST /ajaxBuildQueue HTTP/1.1" 200 308
91.215.65.18 - - [30/Jun/2017:08:51:07 +0000] "POST /ajaxExecutors HTTP/1.1" 200 375
91.215.65.18 - - [30/Jun/2017:08:51:12 +0000] "POST /ajaxBuildQueue HTTP/1.1" 200 308
91.215.65.18 - - [30/Jun/2017:08:51:12 +0000] "POST /ajaxExecutors HTTP/1.1" 200 375
91.215.65.18 - - [30/Jun/2017:08:51:17 +0000] "POST /ajaxBuildQueue HTTP/1.1" 200 308
91.215.65.18 - - [30/Jun/2017:08:51:17 +0000] "POST /ajaxExecutors HTTP/1.1" 200 375
91.215.65.18 - - [30/Jun/2017:08:51:22 +0000] "POST /ajaxBuildQueue HTTP/1.1" 200 308
91.215.65.18 - - [30/Jun/2017:08:51:22 +0000] "POST /ajaxExecutors HTTP/1.1" 200 375
91.215.65.18 - - [30/Jun/2017:08:51:27 +0000] "POST /ajaxBuildQueue HTTP/1.1" 200 308
91.215.65.18 - - [30/Jun/2017:08:51:27 +0000] "POST /ajaxExecutors HTTP/1.1" 200 375
91.215.65.18 - - [30/Jun/2017:08:51:32 +0000] "POST /ajaxBuildQueue HTTP/1.1" 200 308
91.215.65.18 - - [30/Jun/2017:08:51:32 +0000] "POST /ajaxExecutors HTTP/1.1" 200 375
91.215.65.18 - - [30/Jun/2017:08:51:37 +0000] "POST /ajaxBuildQueue HTTP/1.1" 200 308
91.215.65.18 - - [30/Jun/2017:08:51:37 +0000] "POST /ajaxExecutors HTTP/1.1" 200 375
91.215.65.18 - - [30/Jun/2017:08:51:42 +0000] "POST /ajaxBuildQueue HTTP/1.1" 200 308
91.215.65.18 - - [30/Jun/2017:08:51:42 +0000] "POST /ajaxExecutors HTTP/1.1" 200 375
91.215.65.18 - - [30/Jun/2017:08:51:47 +0000] "POST /ajaxBuildQueue HTTP/1.1" 200 308
91.215.65.18 - - [30/Jun/2017:08:51:47 +0000] "POST /ajaxExecutors HTTP/1.1" 200 375
91.215.65.18 - - [30/Jun/2017:08:51:52 +0000] "POST /ajaxBuildQueue HTTP/1.1" 200 308
91.215.65.18 - - [30/Jun/2017:08:51:52 +0000] "POST /ajaxExecutors HTTP/1.1" 200 375
91.215.65.18 - - [30/Jun/2017:08:51:57 +0000] "POST /ajaxBuildQueue HTTP/1.1" 200 308
91.215.65.18 - - [30/Jun/2017:08:51:57 +0000] "POST /ajaxExecutors HTTP/1.1" 200 375
91.215.65.18 - - [30/Jun/2017:08:52:02 +0000] "POST /ajaxBuildQueue HTTP/1.1" 200 308
91.215.65.18 - - [30/Jun/2017:08:52:02 +0000] "POST /ajaxExecutors HTTP/1.1" 200 375
91.215.65.18 - - [30/Jun/2017:08:52:07 +0000] "POST /ajaxBuildQueue HTTP/1.1" 200 308
91.215.65.18 - - [30/Jun/2017:08:52:07 +0000] "POST /ajaxExecutors HTTP/1.1" 200 375
91.215.65.18 - - [30/Jun/2017:08:52:12 +0000] "POST /ajaxBuildQueue HTTP/1.1" 200 308
91.215.65.18 - - [30/Jun/2017:08:52:12 +0000] "POST /ajaxExecutors HTTP/1.1" 200 375
91.215.65.18 - - [30/Jun/2017:08:52:17 +0000] "POST /ajaxBuildQueue HTTP/1.1" 200 308
91.215.65.18 - - [30/Jun/2017:08:52:17 +0000] "POST /ajaxExecutors HTTP/1.1" 200 375
91.215.65.18 - - [30/Jun/2017:08:52:22 +0000] "POST /ajaxBuildQueue HTTP/1.1" 200 308
91.215.65.18 - - [30/Jun/2017:08:52:22 +0000] "POST /ajaxExecutors HTTP/1.1" 200 375
91.215.65.18 - - [30/Jun/2017:08:52:27 +0000] "POST /ajaxBuildQueue HTTP/1.1" 200 308
91.215.65.18 - - [30/Jun/2017:08:52:27 +0000] "POST /ajaxExecutors HTTP/1.1" 200 375
91.215.65.18 - - [30/Jun/2017:08:52:32 +0000] "POST /ajaxBuildQueue HTTP/1.1" 200 308
91.215.65.18 - - [30/Jun/2017:08:52:32 +0000] "POST /ajaxExecutors HTTP/1.1" 200 375
91.215.65.18 - - [30/Jun/2017:08:52:37 +0000] "POST /ajaxBuildQueue HTTP/1.1" 200 308
91.215.65.18 - - [30/Jun/2017:08:52:37 +0000] "POST /ajaxExecutors HTTP/1.1" 200 375
91.215.65.18 - - [30/Jun/2017:08:52:42 +0000] "POST /ajaxBuildQueue HTTP/1.1" 200 308
91.215.65.18 - - [30/Jun/2017:08:52:42 +0000] "POST /ajaxExecutors HTTP/1.1" 200 375
91.215.65.18 - - [30/Jun/2017:08:52:47 +0000] "POST /ajaxBuildQueue HTTP/1.1" 200 308
91.215.65.18 - - [30/Jun/2017:08:52:47 +0000] "POST /ajaxExecutors HTTP/1.1" 200 375
91.215.65.18 - - [30/Jun/2017:08:52:52 +0000] "POST /ajaxBuildQueue HTTP/1.1" 200 308
91.215.65.18 - - [30/Jun/2017:08:52:52 +0000] "POST /ajaxExecutors HTTP/1.1" 200 375
91.215.65.18 - - [30/Jun/2017:08:52:57 +0000] "POST /ajaxBuildQueue HTTP/1.1" 200 308
91.215.65.18 - - [30/Jun/2017:08:52:57 +0000] "POST /ajaxExecutors HTTP/1.1" 200 375
91.215.65.18 - - [30/Jun/2017:08:53:02 +0000] "POST /ajaxExecutors HTTP/1.1" 200 375
91.215.65.18 - - [30/Jun/2017:08:53:02 +0000] "POST /ajaxBuildQueue HTTP/1.1" 200 308
91.215.65.18 - - [30/Jun/2017:08:53:07 +0000] "POST /ajaxBuildQueue HTTP/1.1" 200 308
91.215.65.18 - - [30/Jun/2017:08:53:07 +0000] "POST /ajaxExecutors HTTP/1.1" 200 375
91.215.65.18 - - [30/Jun/2017:08:53:12 +0000] "POST /ajaxBuildQueue HTTP/1.1" 200 308
91.215.65.18 - - [30/Jun/2017:08:53:12 +0000] "POST /ajaxExecutors HTTP/1.1" 200 375
91.215.65.18 - - [30/Jun/2017:08:53:17 +0000] "POST /ajaxBuildQueue HTTP/1.1" 200 308
91.215.65.18 - - [30/Jun/2017:08:53:17 +0000] "POST /ajaxExecutors HTTP/1.1" 200 375
91.215.65.18 - - [30/Jun/2017:08:53:22 +0000] "POST /ajaxBuildQueue HTTP/1.1" 200 308
91.215.65.18 - - [30/Jun/2017:08:53:22 +0000] "POST /ajaxExecutors HTTP/1.1" 200 375
91.215.65.18 - - [30/Jun/2017:08:53:27 +0000] "POST /ajaxBuildQueue HTTP/1.1" 200 308
91.215.65.18 - - [30/Jun/2017:08:53:27 +0000] "POST /ajaxExecutors HTTP/1.1" 200 375
91.215.65.18 - - [30/Jun/2017:10:28:33 +0000] "POST /ajaxBuildQueue HTTP/1.1" 403 1004
91.215.65.18 - - [30/Jun/2017:10:28:33 +0000] "POST /ajaxExecutors HTTP/1.1" 403 1004
91.215.65.18 - - [30/Jun/2017:10:28:38 +0000] "POST /ajaxBuildQueue HTTP/1.1" 403 1004
91.215.65.18 - - [30/Jun/2017:10:28:38 +0000] "POST /ajaxExecutors HTTP/1.1" 403 1004
91.215.65.18 - - [30/Jun/2017:10:28:43 +0000] "POST /ajaxBuildQueue HTTP/1.1" 403 1004
91.215.65.18 - - [30/Jun/2017:10:28:43 +0000] "POST /ajaxExecutors HTTP/1.1" 403 1004
91.215.65.18 - - [30/Jun/2017:10:28:47 +0000] "POST /ajaxBuildQueue HTTP/1.1" 403 1004
91.215.65.18 - - [30/Jun/2017:10:28:48 +0000] "POST /ajaxExecutors HTTP/1.1" 403 1004
91.215.65.18 - - [30/Jun/2017:10:28:52 +0000] "POST /ajaxBuildQueue HTTP/1.1" 403 1004
91.215.65.18 - - [30/Jun/2017:10:28:53 +0000] "POST /ajaxExecutors HTTP/1.1" 403 1004
91.215.65.18 - - [30/Jun/2017:10:28:57 +0000] "POST /ajaxBuildQueue HTTP/1.1" 403 1004
91.215.65.18 - - [30/Jun/2017:10:28:58 +0000] "POST /ajaxExecutors HTTP/1.1" 403 1004
91.215.65.18 - - [30/Jun/2017:10:29:02 +0000] "POST /ajaxBuildQueue HTTP/1.1" 403 1004
91.215.65.18 - - [30/Jun/2017:10:29:03 +0000] "POST /ajaxExecutors HTTP/1.1" 403 1004
91.215.65.18 - - [30/Jun/2017:10:29:07 +0000] "POST /ajaxBuildQueue HTTP/1.1" 403 1004
91.215.65.18 - - [30/Jun/2017:10:29:08 +0000] "POST /ajaxExecutors HTTP/1.1" 403 1004
91.215.65.18 - - [30/Jun/2017:10:29:12 +0000] "POST /ajaxBuildQueue HTTP/1.1" 403 1004
91.215.65.18 - - [30/Jun/2017:10:29:12 +0000] "POST /ajaxExecutors HTTP/1.1" 403 1004
91.215.65.18 - - [30/Jun/2017:10:29:18 +0000] "POST /ajaxBuildQueue HTTP/1.1" 403 1004
91.215.65.18 - - [30/Jun/2017:10:29:18 +0000] "POST /ajaxExecutors HTTP/1.1" 403 1004
91.215.65.18 - - [30/Jun/2017:10:29:22 +0000] "POST /ajaxBuildQueue HTTP/1.1" 403 1004
91.215.65.18 - - [30/Jun/2017:10:29:22 +0000] "POST /ajaxExecutors HTTP/1.1" 403 1004
91.215.65.18 - - [30/Jun/2017:10:29:27 +0000] "POST /ajaxBuildQueue HTTP/1.1" 403 1004
91.215.65.18 - - [30/Jun/2017:10:29:27 +0000] "POST /ajaxExecutors HTTP/1.1" 403 1004
91.215.65.18 - - [30/Jun/2017:10:29:32 +0000] "POST /ajaxBuildQueue HTTP/1.1" 403 1004
91.215.65.18 - - [30/Jun/2017:10:29:33 +0000] "POST /ajaxExecutors HTTP/1.1" 403 1004
91.215.65.18 - - [30/Jun/2017:10:29:38 +0000] "POST /ajaxBuildQueue HTTP/1.1" 403 1004
91.215.65.18 - - [30/Jun/2017:10:29:38 +0000] "POST /ajaxExecutors HTTP/1.1" 403 1004
91.215.65.18 - - [30/Jun/2017:10:29:43 +0000] "POST /ajaxExecutors HTTP/1.1" 403 1004
91.215.65.18 - - [30/Jun/2017:10:29:43 +0000] "POST /ajaxBuildQueue HTTP/1.1" 403 1004
91.215.65.18 - - [30/Jun/2017:10:29:48 +0000] "POST /ajaxBuildQueue HTTP/1.1" 403 1004
91.215.65.18 - - [30/Jun/2017:10:29:48 +0000] "POST /ajaxExecutors HTTP/1.1" 403 1004
91.215.65.18 - - [30/Jun/2017:10:29:53 +0000] "POST /ajaxBuildQueue HTTP/1.1" 403 1004
91.215.65.18 - - [30/Jun/2017:10:29:53 +0000] "POST /ajaxExecutors HTTP/1.1" 403 1004
91.215.65.18 - - [30/Jun/2017:10:29:57 +0000] "POST /ajaxBuildQueue HTTP/1.1" 403 1004
91.215.65.18 - - [30/Jun/2017:10:29:58 +0000] "POST /ajaxExecutors HTTP/1.1" 403 1004
91.215.65.18 - - [30/Jun/2017:10:30:03 +0000] "POST /ajaxExecutors HTTP/1.1" 403 1004
91.215.65.18 - - [30/Jun/2017:10:30:03 +0000] "POST /ajaxBuildQueue HTTP/1.1" 403 1004
91.215.65.18 - - [30/Jun/2017:10:30:07 +0000] "POST /ajaxBuildQueue HTTP/1.1" 403 1004
91.215.65.18 - - [30/Jun/2017:10:30:08 +0000] "POST /ajaxExecutors HTTP/1.1" 403 1004
91.215.65.18 - - [30/Jun/2017:10:30:13 +0000] "POST /ajaxBuildQueue HTTP/1.1" 403 1004
91.215.65.18 - - [30/Jun/2017:10:30:13 +0000] "POST /ajaxExecutors HTTP/1.1" 403 1004
91.215.65.18 - - [30/Jun/2017:10:30:17 +0000] "POST /ajaxBuildQueue HTTP/1.1" 403 1004
91.215.65.18 - - [30/Jun/2017:10:30:18 +0000] "POST /ajaxExecutors HTTP/1.1" 403 1004
91.215.65.18 - - [30/Jun/2017:10:30:23 +0000] "POST /ajaxBuildQueue HTTP/1.1" 403 1004
91.215.65.18 - - [30/Jun/2017:10:30:23 +0000] "POST /ajaxExecutors HTTP/1.1" 403 1004
91.215.65.18 - - [30/Jun/2017:10:30:28 +0000] "POST /ajaxBuildQueue HTTP/1.1" 403 1004
91.215.65.18 - - [30/Jun/2017:10:30:28 +0000] "POST /ajaxExecutors HTTP/1.1" 403 1004
91.215.65.18 - - [30/Jun/2017:10:30:33 +0000] "POST /ajaxBuildQueue HTTP/1.1" 403 1004
91.215.65.18 - - [30/Jun/2017:10:30:33 +0000] "POST /ajaxExecutors HTTP/1.1" 403 1004
91.215.65.18 - - [30/Jun/2017:10:30:38 +0000] "POST /ajaxBuildQueue HTTP/1.1" 403 1004
91.215.65.18 - - [30/Jun/2017:10:30:38 +0000] "POST /ajaxExecutors HTTP/1.1" 403 1004
91.215.65.18 - - [30/Jun/2017:10:30:43 +0000] "POST /ajaxBuildQueue HTTP/1.1" 403 1004
91.215.65.18 - - [30/Jun/2017:10:30:43 +0000] "POST /ajaxExecutors HTTP/1.1" 403 1004
91.215.65.18 - - [30/Jun/2017:10:30:48 +0000] "POST /ajaxBuildQueue HTTP/1.1" 403 1004
91.215.65.18 - - [30/Jun/2017:10:30:48 +0000] "POST /ajaxExecutors HTTP/1.1" 403 1004
91.215.65.18 - - [30/Jun/2017:10:30:53 +0000] "POST /ajaxBuildQueue HTTP/1.1" 403 1004
91.215.65.18 - - [30/Jun/2017:10:30:53 +0000] "POST /ajaxExecutors HTTP/1.1" 403 1004
91.215.65.18 - - [30/Jun/2017:10:30:58 +0000] "POST /ajaxBuildQueue HTTP/1.1" 403 1004
91.215.65.18 - - [30/Jun/2017:10:30:58 +0000] "POST /ajaxExecutors HTTP/1.1" 403 1004
91.215.65.18 - - [30/Jun/2017:10:31:03 +0000] "POST /ajaxBuildQueue HTTP/1.1" 403 1004
91.215.65.18 - - [30/Jun/2017:10:31:03 +0000] "POST /ajaxExecutors HTTP/1.1" 403 1004
91.215.65.18 - - [30/Jun/2017:10:31:08 +0000] "POST /ajaxBuildQueue HTTP/1.1" 403 1004
91.215.65.18 - - [30/Jun/2017:10:31:08 +0000] "POST /ajaxExecutors HTTP/1.1" 403 1004
91.215.65.18 - - [30/Jun/2017:10:31:13 +0000] "POST /ajaxBuildQueue HTTP/1.1" 403 1004
91.215.65.18 - - [30/Jun/2017:10:31:13 +0000] "POST /ajaxExecutors HTTP/1.1" 403 1004
91.215.65.18 - - [30/Jun/2017:10:31:18 +0000] "POST /ajaxBuildQueue HTTP/1.1" 403 1004
91.215.65.18 - - [30/Jun/2017:10:31:18 +0000] "POST /ajaxExecutors HTTP/1.1" 403 1004
91.215.65.18 - - [30/Jun/2017:10:31:23 +0000] "POST /ajaxBuildQueue HTTP/1.1" 403 1004
91.215.65.18 - - [30/Jun/2017:10:31:23 +0000] "POST /ajaxExecutors HTTP/1.1" 403 1004
91.215.65.18 - - [30/Jun/2017:10:31:28 +0000] "POST /ajaxBuildQueue HTTP/1.1" 403 1004
91.215.65.18 - - [30/Jun/2017:10:31:28 +0000] "POST /ajaxExecutors HTTP/1.1" 403 1004
91.215.65.18 - - [30/Jun/2017:10:31:33 +0000] "POST /ajaxBuildQueue HTTP/1.1" 403 1004
91.215.65.18 - - [30/Jun/2017:10:31:33 +0000] "POST /ajaxExecutors HTTP/1.1" 403 1004
91.215.65.18 - - [30/Jun/2017:10:31:38 +0000] "POST /ajaxBuildQueue HTTP/1.1" 403 1004
91.215.65.18 - - [30/Jun/2017:10:31:38 +0000] "POST /ajaxExecutors HTTP/1.1" 403 1004
91.215.65.18 - - [30/Jun/2017:10:31:43 +0000] "POST /ajaxBuildQueue HTTP/1.1" 403 1004
91.215.65.18 - - [30/Jun/2017:10:31:43 +0000] "POST /ajaxExecutors HTTP/1.1" 403 1004
91.215.65.18 - - [30/Jun/2017:10:31:48 +0000] "POST /ajaxBuildQueue HTTP/1.1" 403 1004
91.215.65.18 - - [30/Jun/2017:10:31:48 +0000] "POST /ajaxExecutors HTTP/1.1" 403 1004
91.215.65.18 - - [30/Jun/2017:10:31:53 +0000] "POST /ajaxBuildQueue HTTP/1.1" 403 1004
91.215.65.18 - - [30/Jun/2017:10:31:53 +0000] "POST /ajaxExecutors HTTP/1.1" 403 1004
91.215.65.18 - - [30/Jun/2017:10:31:58 +0000] "POST /ajaxBuildQueue HTTP/1.1" 403 1004
91.215.65.18 - - [30/Jun/2017:10:31:58 +0000] "POST /ajaxExecutors HTTP/1.1" 403 1004
91.215.65.18 - - [30/Jun/2017:10:32:03 +0000] "POST /ajaxExecutors HTTP/1.1" 403 1004
91.215.65.18 - - [30/Jun/2017:10:32:03 +0000] "POST /ajaxBuildQueue HTTP/1.1" 403 1004
91.215.65.18 - - [30/Jun/2017:10:32:08 +0000] "POST /ajaxBuildQueue HTTP/1.1" 403 1004
91.215.65.18 - - [30/Jun/2017:10:32:08 +0000] "POST /ajaxExecutors HTTP/1.1" 403 1004
91.215.65.18 - - [30/Jun/2017:10:32:13 +0000] "POST /ajaxBuildQueue HTTP/1.1" 403 1004
91.215.65.18 - - [30/Jun/2017:10:32:13 +0000] "POST /ajaxExecutors HTTP/1.1" 403 1004
91.215.65.18 - - [30/Jun/2017:10:32:18 +0000] "POST /ajaxBuildQueue HTTP/1.1" 403 1004
91.215.65.18 - - [30/Jun/2017:10:32:18 +0000] "POST /ajaxExecutors HTTP/1.1" 403 1004
91.215.65.18 - - [30/Jun/2017:10:32:23 +0000] "POST /ajaxBuildQueue HTTP/1.1" 403 1004
91.215.65.18 - - [30/Jun/2017:10:32:23 +0000] "POST /ajaxExecutors HTTP/1.1" 403 1004
91.215.65.18 - - [30/Jun/2017:10:32:28 +0000] "POST /ajaxBuildQueue HTTP/1.1" 403 1004
91.215.65.18 - - [30/Jun/2017:10:32:28 +0000] "POST /ajaxExecutors HTTP/1.1" 403 1004
91.215.65.18 - - [30/Jun/2017:10:32:33 +0000] "POST /ajaxBuildQueue HTTP/1.1" 403 1004
91.215.65.18 - - [30/Jun/2017:10:32:33 +0000] "POST /ajaxExecutors HTTP/1.1" 403 1004
91.215.65.18 - - [30/Jun/2017:10:32:38 +0000] "POST /ajaxBuildQueue HTTP/1.1" 403 1004
91.215.65.18 - - [30/Jun/2017:10:32:38 +0000] "POST /ajaxExecutors HTTP/1.1" 403 1004
91.215.65.18 - - [30/Jun/2017:10:32:43 +0000] "POST /ajaxBuildQueue HTTP/1.1" 403 1004
91.215.65.18 - - [30/Jun/2017:10:32:43 +0000] "POST /ajaxExecutors HTTP/1.1" 403 1004
91.215.65.18 - - [30/Jun/2017:10:32:48 +0000] "POST /ajaxBuildQueue HTTP/1.1" 403 1004
91.215.65.18 - - [30/Jun/2017:10:32:48 +0000] "POST /ajaxExecutors HTTP/1.1" 403 1004
91.215.65.18 - - [30/Jun/2017:10:32:53 +0000] "POST /ajaxExecutors HTTP/1.1" 403 1004
91.215.65.18 - - [30/Jun/2017:10:32:53 +0000] "POST /ajaxBuildQueue HTTP/1.1" 403 1004
91.215.65.18 - - [30/Jun/2017:10:32:58 +0000] "POST /ajaxBuildQueue HTTP/1.1" 403 1004
91.215.65.18 - - [30/Jun/2017:10:32:58 +0000] "POST /ajaxExecutors HTTP/1.1" 403 1004
91.215.65.18 - - [30/Jun/2017:10:33:03 +0000] "POST /ajaxBuildQueue HTTP/1.1" 403 1004
91.215.65.18 - - [30/Jun/2017:10:33:03 +0000] "POST /ajaxExecutors HTTP/1.1" 403 1004
91.215.65.18 - - [30/Jun/2017:10:33:08 +0000] "POST /ajaxBuildQueue HTTP/1.1" 403 1004
91.215.65.18 - - [30/Jun/2017:10:33:08 +0000] "POST /ajaxExecutors HTTP/1.1" 403 1004
91.215.65.18 - - [30/Jun/2017:10:33:13 +0000] "POST /ajaxBuildQueue HTTP/1.1" 403 1004
91.215.65.18 - - [30/Jun/2017:10:33:13 +0000] "POST /ajaxExecutors HTTP/1.1" 403 1004
91.215.65.18 - - [30/Jun/2017:10:33:18 +0000] "POST /ajaxBuildQueue HTTP/1.1" 403 1004
91.215.65.18 - - [30/Jun/2017:10:33:18 +0000] "POST /ajaxExecutors HTTP/1.1" 403 1004
91.215.65.18 - - [30/Jun/2017:10:33:23 +0000] "POST /ajaxBuildQueue HTTP/1.1" 403 1004
91.215.65.18 - - [30/Jun/2017:10:33:23 +0000] "POST /ajaxExecutors HTTP/1.1" 403 1004
91.215.65.18 - - [30/Jun/2017:10:33:28 +0000] "POST /ajaxBuildQueue HTTP/1.1" 403 1004
91.215.65.18 - - [30/Jun/2017:10:33:28 +0000] "POST /ajaxExecutors HTTP/1.1" 403 1004
91.215.65.18 - - [30/Jun/2017:10:33:33 +0000] "POST /ajaxBuildQueue HTTP/1.1" 403 1004
91.215.65.18 - - [30/Jun/2017:10:33:33 +0000] "POST /ajaxExecutors HTTP/1.1" 403 1004
91.215.65.18 - - [30/Jun/2017:10:33:38 +0000] "POST /ajaxBuildQueue HTTP/1.1" 403 1004
91.215.65.18 - - [30/Jun/2017:10:33:38 +0000] "POST /ajaxExecutors HTTP/1.1" 403 1004
91.215.65.18 - - [30/Jun/2017:10:33:43 +0000] "POST /ajaxBuildQueue HTTP/1.1" 403 1004
91.215.65.18 - - [30/Jun/2017:10:33:43 +0000] "POST /ajaxExecutors HTTP/1.1" 403 1004
91.215.65.18 - - [30/Jun/2017:10:33:48 +0000] "POST /ajaxBuildQueue HTTP/1.1" 403 1004
91.215.65.18 - - [30/Jun/2017:10:33:48 +0000] "POST /ajaxExecutors HTTP/1.1" 403 1004
91.215.65.18 - - [30/Jun/2017:10:33:53 +0000] "POST /ajaxBuildQueue HTTP/1.1" 403 1004
91.215.65.18 - - [30/Jun/2017:10:33:53 +0000] "POST /ajaxExecutors HTTP/1.1" 403 1004
91.215.65.18 - - [30/Jun/2017:10:33:58 +0000] "POST /ajaxBuildQueue HTTP/1.1" 403 1004
91.215.65.18 - - [30/Jun/2017:10:33:58 +0000] "POST /ajaxExecutors HTTP/1.1" 403 1004
91.215.65.18 - - [30/Jun/2017:10:34:03 +0000] "POST /ajaxBuildQueue HTTP/1.1" 403 1004
91.215.65.18 - - [30/Jun/2017:10:34:03 +0000] "POST /ajaxExecutors HTTP/1.1" 403 1004
91.215.65.18 - - [30/Jun/2017:10:34:08 +0000] "POST /ajaxBuildQueue HTTP/1.1" 403 1004
91.215.65.18 - - [30/Jun/2017:10:34:08 +0000] "POST /ajaxExecutors HTTP/1.1" 403 1004
91.215.65.18 - - [30/Jun/2017:10:34:13 +0000] "POST /ajaxBuildQueue HTTP/1.1" 403 1004
91.215.65.18 - - [30/Jun/2017:10:34:13 +0000] "POST /ajaxExecutors HTTP/1.1" 403 1004
91.215.65.18 - - [30/Jun/2017:10:34:18 +0000] "POST /ajaxBuildQueue HTTP/1.1" 403 1004
91.215.65.18 - - [30/Jun/2017:10:34:18 +0000] "POST /ajaxExecutors HTTP/1.1" 403 1004
91.215.65.18 - - [30/Jun/2017:10:34:23 +0000] "POST /ajaxBuildQueue HTTP/1.1" 403 1004
91.215.65.18 - - [30/Jun/2017:10:34:23 +0000] "POST /ajaxExecutors HTTP/1.1" 403 1004
91.215.65.18 - - [30/Jun/2017:10:34:28 +0000] "POST /ajaxBuildQueue HTTP/1.1" 403 1004
91.215.65.18 - - [30/Jun/2017:10:34:28 +0000] "POST /ajaxExecutors HTTP/1.1" 403 1004
91.215.65.18 - - [30/Jun/2017:10:34:33 +0000] "POST /ajaxBuildQueue HTTP/1.1" 403 1004
91.215.65.18 - - [30/Jun/2017:10:34:33 +0000] "POST /ajaxExecutors HTTP/1.1" 403 1004
91.215.65.18 - - [30/Jun/2017:10:34:38 +0000] "POST /ajaxBuildQueue HTTP/1.1" 403 1004
91.215.65.18 - - [30/Jun/2017:10:34:38 +0000] "POST /ajaxExecutors HTTP/1.1" 403 1004
91.215.65.18 - - [30/Jun/2017:10:34:43 +0000] "POST /ajaxBuildQueue HTTP/1.1" 403 1004
91.215.65.18 - - [30/Jun/2017:10:34:43 +0000] "POST /ajaxExecutors HTTP/1.1" 403 1004
91.215.65.18 - - [30/Jun/2017:10:34:48 +0000] "POST /ajaxBuildQueue HTTP/1.1" 403 1004
91.215.65.18 - - [30/Jun/2017:10:34:48 +0000] "POST /ajaxExecutors HTTP/1.1" 403 1004
91.215.65.18 - - [30/Jun/2017:10:34:53 +0000] "POST /ajaxBuildQueue HTTP/1.1" 403 1004
91.215.65.18 - - [30/Jun/2017:10:34:53 +0000] "POST /ajaxExecutors HTTP/1.1" 403 1004
91.215.65.18 - - [30/Jun/2017:10:34:58 +0000] "POST /ajaxBuildQueue HTTP/1.1" 403 1004
91.215.65.18 - - [30/Jun/2017:10:34:58 +0000] "POST /ajaxExecutors HTTP/1.1" 403 1004
91.215.65.18 - - [30/Jun/2017:10:35:03 +0000] "POST /ajaxBuildQueue HTTP/1.1" 403 1004
91.215.65.18 - - [30/Jun/2017:10:35:03 +0000] "POST /ajaxExecutors HTTP/1.1" 403 1004
91.215.65.18 - - [30/Jun/2017:10:35:08 +0000] "POST /ajaxBuildQueue HTTP/1.1" 403 1004
91.215.65.18 - - [30/Jun/2017:10:35:08 +0000] "POST /ajaxExecutors HTTP/1.1" 403 1004
91.215.65.18 - - [30/Jun/2017:10:35:13 +0000] "POST /ajaxBuildQueue HTTP/1.1" 403 1004
91.215.65.18 - - [30/Jun/2017:10:35:13 +0000] "POST /ajaxExecutors HTTP/1.1" 403 1004
91.215.65.18 - - [30/Jun/2017:10:35:18 +0000] "POST /ajaxBuildQueue HTTP/1.1" 403 1004
91.215.65.18 - - [30/Jun/2017:10:35:18 +0000] "POST /ajaxExecutors HTTP/1.1" 403 1004
91.215.65.18 - - [30/Jun/2017:10:35:23 +0000] "POST /ajaxBuildQueue HTTP/1.1" 403 1004
91.215.65.18 - - [30/Jun/2017:10:35:23 +0000] "POST /ajaxExecutors HTTP/1.1" 403 1004
91.215.65.18 - - [30/Jun/2017:10:35:28 +0000] "POST /ajaxBuildQueue HTTP/1.1" 403 1004
91.215.65.18 - - [30/Jun/2017:10:35:28 +0000] "POST /ajaxExecutors HTTP/1.1" 403 1004
91.215.65.18 - - [30/Jun/2017:10:35:33 +0000] "POST /ajaxBuildQueue HTTP/1.1" 403 1004
91.215.65.18 - - [30/Jun/2017:10:35:33 +0000] "POST /ajaxExecutors HTTP/1.1" 403 1004
91.215.65.18 - - [30/Jun/2017:10:35:38 +0000] "POST /ajaxBuildQueue HTTP/1.1" 403 1004
91.215.65.18 - - [30/Jun/2017:10:35:38 +0000] "POST /ajaxExecutors HTTP/1.1" 403 1004
91.215.65.18 - - [30/Jun/2017:10:35:43 +0000] "POST /ajaxBuildQueue HTTP/1.1" 403 1004
91.215.65.18 - - [30/Jun/2017:10:35:43 +0000] "POST /ajaxExecutors HTTP/1.1" 403 1004
91.215.65.18 - - [30/Jun/2017:10:35:48 +0000] "POST /ajaxBuildQueue HTTP/1.1" 403 1004
91.215.65.18 - - [30/Jun/2017:10:35:48 +0000] "POST /ajaxExecutors HTTP/1.1" 403 1004
91.215.65.18 - - [30/Jun/2017:10:35:53 +0000] "POST /ajaxBuildQueue HTTP/1.1" 403 1004
91.215.65.18 - - [30/Jun/2017:10:35:53 +0000] "POST /ajaxExecutors HTTP/1.1" 403 1004
91.215.65.18 - - [30/Jun/2017:10:35:58 +0000] "POST /ajaxBuildQueue HTTP/1.1" 403 1004
91.215.65.18 - - [30/Jun/2017:10:35:58 +0000] "POST /ajaxExecutors HTTP/1.1" 403 1004
91.215.65.18 - - [30/Jun/2017:10:36:03 +0000] "POST /ajaxBuildQueue HTTP/1.1" 403 1004
91.215.65.18 - - [30/Jun/2017:10:36:03 +0000] "POST /ajaxExecutors HTTP/1.1" 403 1004
91.215.65.18 - - [30/Jun/2017:10:36:08 +0000] "POST /ajaxBuildQueue HTTP/1.1" 403 1004
91.215.65.18 - - [30/Jun/2017:10:36:08 +0000] "POST /ajaxExecutors HTTP/1.1" 403 1004
91.215.65.18 - - [30/Jun/2017:10:36:13 +0000] "POST /ajaxBuildQueue HTTP/1.1" 403 1004
91.215.65.18 - - [30/Jun/2017:10:36:13 +0000] "POST /ajaxExecutors HTTP/1.1" 403 1004
91.215.65.18 - - [30/Jun/2017:10:36:18 +0000] "POST /ajaxBuildQueue HTTP/1.1" 403 1004
91.215.65.18 - - [30/Jun/2017:10:36:18 +0000] "POST /ajaxExecutors HTTP/1.1" 403 1004
91.215.65.18 - - [30/Jun/2017:10:36:23 +0000] "POST /ajaxBuildQueue HTTP/1.1" 403 1004
91.215.65.18 - - [30/Jun/2017:10:36:23 +0000] "POST /ajaxExecutors HTTP/1.1" 403 1004
91.215.65.18 - - [30/Jun/2017:10:36:28 +0000] "POST /ajaxBuildQueue HTTP/1.1" 403 1004
91.215.65.18 - - [30/Jun/2017:10:36:28 +0000] "POST /ajaxExecutors HTTP/1.1" 403 1004
91.215.65.18 - - [30/Jun/2017:10:36:33 +0000] "POST /ajaxBuildQueue HTTP/1.1" 403 1004
91.215.65.18 - - [30/Jun/2017:10:36:33 +0000] "POST /ajaxExecutors HTTP/1.1" 403 1004
91.215.65.18 - - [30/Jun/2017:10:36:38 +0000] "POST /ajaxBuildQueue HTTP/1.1" 403 1004
91.215.65.18 - - [30/Jun/2017:10:36:38 +0000] "POST /ajaxExecutors HTTP/1.1" 403 1004
91.215.65.18 - - [30/Jun/2017:10:36:43 +0000] "POST /ajaxBuildQueue HTTP/1.1" 403 1004
91.215.65.18 - - [30/Jun/2017:10:36:43 +0000] "POST /ajaxExecutors HTTP/1.1" 403 1004
91.215.65.18 - - [30/Jun/2017:10:36:48 +0000] "POST /ajaxBuildQueue HTTP/1.1" 403 1004
91.215.65.18 - - [30/Jun/2017:10:36:48 +0000] "POST /ajaxExecutors HTTP/1.1" 403 1004
91.215.65.18 - - [30/Jun/2017:10:36:53 +0000] "POST /ajaxBuildQueue HTTP/1.1" 403 1004
91.215.65.18 - - [30/Jun/2017:10:36:53 +0000] "POST /ajaxExecutors HTTP/1.1" 403 1004
91.215.65.18 - - [30/Jun/2017:10:36:58 +0000] "POST /ajaxExecutors HTTP/1.1" 403 1004
91.215.65.18 - - [30/Jun/2017:10:36:58 +0000] "POST /ajaxBuildQueue HTTP/1.1" 403 1004
91.215.65.18 - - [30/Jun/2017:10:37:03 +0000] "POST /ajaxBuildQueue HTTP/1.1" 403 1004
91.215.65.18 - - [30/Jun/2017:10:37:03 +0000] "POST /ajaxExecutors HTTP/1.1" 403 1004
91.215.65.18 - - [30/Jun/2017:10:37:08 +0000] "POST /ajaxBuildQueue HTTP/1.1" 403 1004
91.215.65.18 - - [30/Jun/2017:10:37:08 +0000] "POST /ajaxExecutors HTTP/1.1" 403 1004
91.215.65.18 - - [30/Jun/2017:10:37:13 +0000] "POST /ajaxBuildQueue HTTP/1.1" 403 1004
91.215.65.18 - - [30/Jun/2017:10:37:13 +0000] "POST /ajaxExecutors HTTP/1.1" 403 1004
91.215.65.18 - - [30/Jun/2017:10:37:18 +0000] "POST /ajaxBuildQueue HTTP/1.1" 403 1004
91.215.65.18 - - [30/Jun/2017:10:37:18 +0000] "POST /ajaxExecutors HTTP/1.1" 403 1004
91.215.65.18 - - [30/Jun/2017:10:37:23 +0000] "POST /ajaxBuildQueue HTTP/1.1" 403 1004
91.215.65.18 - - [30/Jun/2017:10:37:23 +0000] "POST /ajaxExecutors HTTP/1.1" 403 1004
91.215.65.18 - - [30/Jun/2017:10:37:28 +0000] "POST /ajaxBuildQueue HTTP/1.1" 403 1004
91.215.65.18 - - [30/Jun/2017:10:37:28 +0000] "POST /ajaxExecutors HTTP/1.1" 403 1004
91.215.65.18 - - [30/Jun/2017:10:37:33 +0000] "POST /ajaxBuildQueue HTTP/1.1" 403 1004
91.215.65.18 - - [30/Jun/2017:10:37:33 +0000] "POST /ajaxExecutors HTTP/1.1" 403 1004
91.215.65.18 - - [30/Jun/2017:10:37:38 +0000] "POST /ajaxBuildQueue HTTP/1.1" 403 1004
91.215.65.18 - - [30/Jun/2017:10:37:38 +0000] "POST /ajaxExecutors HTTP/1.1" 403 1004
91.215.65.18 - - [30/Jun/2017:10:37:43 +0000] "POST /ajaxBuildQueue HTTP/1.1" 403 1004
91.215.65.18 - - [30/Jun/2017:10:37:43 +0000] "POST /ajaxExecutors HTTP/1.1" 403 1004
91.215.65.18 - - [30/Jun/2017:10:37:48 +0000] "POST /ajaxBuildQueue HTTP/1.1" 403 1004
91.215.65.18 - - [30/Jun/2017:10:37:48 +0000] "POST /ajaxExecutors HTTP/1.1" 403 1004
91.215.65.18 - - [30/Jun/2017:10:37:53 +0000] "POST /ajaxBuildQueue HTTP/1.1" 403 1004
91.215.65.18 - - [30/Jun/2017:10:37:53 +0000] "POST /ajaxExecutors HTTP/1.1" 403 1004
91.215.65.18 - - [30/Jun/2017:10:37:58 +0000] "POST /ajaxBuildQueue HTTP/1.1" 403 1004
91.215.65.18 - - [30/Jun/2017:10:37:58 +0000] "POST /ajaxExecutors HTTP/1.1" 403 1004
91.215.65.18 - - [30/Jun/2017:10:38:03 +0000] "POST /ajaxBuildQueue HTTP/1.1" 403 1004
91.215.65.18 - - [30/Jun/2017:10:38:03 +0000] "POST /ajaxExecutors HTTP/1.1" 403 1004
91.215.65.18 - - [30/Jun/2017:10:38:08 +0000] "POST /ajaxBuildQueue HTTP/1.1" 403 1004
91.215.65.18 - - [30/Jun/2017:10:38:08 +0000] "POST /ajaxExecutors HTTP/1.1" 403 1004
91.215.65.18 - - [30/Jun/2017:10:38:13 +0000] "POST /ajaxBuildQueue HTTP/1.1" 403 1004
91.215.65.18 - - [30/Jun/2017:10:38:13 +0000] "POST /ajaxExecutors HTTP/1.1" 403 1004
91.215.65.18 - - [30/Jun/2017:10:38:18 +0000] "POST /ajaxBuildQueue HTTP/1.1" 403 1004
91.215.65.18 - - [30/Jun/2017:10:38:18 +0000] "POST /ajaxExecutors HTTP/1.1" 403 1004
91.215.65.18 - - [30/Jun/2017:10:38:23 +0000] "POST /ajaxBuildQueue HTTP/1.1" 403 1004
91.215.65.18 - - [30/Jun/2017:10:38:23 +0000] "POST /ajaxExecutors HTTP/1.1" 403 1004
91.215.65.18 - - [30/Jun/2017:10:38:28 +0000] "POST /ajaxBuildQueue HTTP/1.1" 403 1004
91.215.65.18 - - [30/Jun/2017:10:38:28 +0000] "POST /ajaxExecutors HTTP/1.1" 403 1004
91.215.65.18 - - [30/Jun/2017:10:38:33 +0000] "POST /ajaxBuildQueue HTTP/1.1" 403 1004
91.215.65.18 - - [30/Jun/2017:10:38:33 +0000] "POST /ajaxExecutors HTTP/1.1" 403 1004
91.215.65.18 - - [30/Jun/2017:10:38:38 +0000] "POST /ajaxBuildQueue HTTP/1.1" 403 1004
91.215.65.18 - - [30/Jun/2017:10:38:38 +0000] "POST /ajaxExecutors HTTP/1.1" 403 1004
91.215.65.18 - - [30/Jun/2017:10:38:43 +0000] "POST /ajaxExecutors HTTP/1.1" 403 1004
91.215.65.18 - - [30/Jun/2017:10:38:43 +0000] "POST /ajaxBuildQueue HTTP/1.1" 403 1004
91.215.65.18 - - [30/Jun/2017:10:38:48 +0000] "POST /ajaxBuildQueue HTTP/1.1" 403 1004
91.215.65.18 - - [30/Jun/2017:10:38:48 +0000] "POST /ajaxExecutors HTTP/1.1" 403 1004
91.215.65.18 - - [30/Jun/2017:10:38:53 +0000] "POST /ajaxBuildQueue HTTP/1.1" 403 1004
91.215.65.18 - - [30/Jun/2017:10:38:53 +0000] "POST /ajaxExecutors HTTP/1.1" 403 1004
91.215.65.18 - - [30/Jun/2017:10:38:58 +0000] "POST /ajaxExecutors HTTP/1.1" 403 1004
91.215.65.18 - - [30/Jun/2017:10:38:58 +0000] "POST /ajaxBuildQueue HTTP/1.1" 403 1004
91.215.65.18 - - [30/Jun/2017:10:39:03 +0000] "POST /ajaxBuildQueue HTTP/1.1" 403 1004
91.215.65.18 - - [30/Jun/2017:10:39:03 +0000] "POST /ajaxExecutors HTTP/1.1" 403 1004
91.215.65.18 - - [30/Jun/2017:10:39:08 +0000] "POST /ajaxExecutors HTTP/1.1" 403 1004
91.215.65.18 - - [30/Jun/2017:10:39:08 +0000] "POST /ajaxBuildQueue HTTP/1.1" 403 1004
91.215.65.18 - - [30/Jun/2017:10:39:13 +0000] "POST /ajaxExecutors HTTP/1.1" 403 1004
91.215.65.18 - - [30/Jun/2017:10:39:13 +0000] "POST /ajaxBuildQueue HTTP/1.1" 403 1004
91.215.65.18 - - [30/Jun/2017:10:39:18 +0000] "POST /ajaxBuildQueue HTTP/1.1" 403 1004
91.215.65.18 - - [30/Jun/2017:10:39:18 +0000] "POST /ajaxExecutors HTTP/1.1" 403 1004
91.215.65.18 - - [30/Jun/2017:10:39:23 +0000] "POST /ajaxExecutors HTTP/1.1" 403 1004
91.215.65.18 - - [30/Jun/2017:10:39:23 +0000] "POST /ajaxBuildQueue HTTP/1.1" 403 1004
91.215.65.18 - - [30/Jun/2017:10:39:28 +0000] "POST /ajaxBuildQueue HTTP/1.1" 403 1004
91.215.65.18 - - [30/Jun/2017:10:39:28 +0000] "POST /ajaxExecutors HTTP/1.1" 403 1004
91.215.65.18 - - [30/Jun/2017:10:39:33 +0000] "POST /ajaxExecutors HTTP/1.1" 403 1004
91.215.65.18 - - [30/Jun/2017:10:39:33 +0000] "POST /ajaxBuildQueue HTTP/1.1" 403 1004
91.215.65.18 - - [30/Jun/2017:10:39:38 +0000] "POST /ajaxBuildQueue HTTP/1.1" 403 1004
91.215.65.18 - - [30/Jun/2017:10:39:38 +0000] "POST /ajaxExecutors HTTP/1.1" 403 1004
91.215.65.18 - - [30/Jun/2017:10:39:43 +0000] "POST /ajaxBuildQueue HTTP/1.1" 403 1004
91.215.65.18 - - [30/Jun/2017:10:39:43 +0000] "POST /ajaxExecutors HTTP/1.1" 403 1004
91.215.65.18 - - [30/Jun/2017:10:39:48 +0000] "POST /ajaxBuildQueue HTTP/1.1" 403 1004
91.215.65.18 - - [30/Jun/2017:10:39:48 +0000] "POST /ajaxExecutors HTTP/1.1" 403 1004
91.215.65.18 - - [30/Jun/2017:10:39:53 +0000] "POST /ajaxBuildQueue HTTP/1.1" 403 1004
91.215.65.18 - - [30/Jun/2017:10:39:53 +0000] "POST /ajaxExecutors HTTP/1.1" 403 1004
91.215.65.18 - - [30/Jun/2017:10:39:58 +0000] "POST /ajaxBuildQueue HTTP/1.1" 403 1004
91.215.65.18 - - [30/Jun/2017:10:39:58 +0000] "POST /ajaxExecutors HTTP/1.1" 403 1004
91.215.65.18 - - [30/Jun/2017:10:40:03 +0000] "POST /ajaxBuildQueue HTTP/1.1" 403 1004
91.215.65.18 - - [30/Jun/2017:10:40:03 +0000] "POST /ajaxExecutors HTTP/1.1" 403 1004
91.215.65.18 - - [30/Jun/2017:10:40:08 +0000] "POST /ajaxExecutors HTTP/1.1" 403 1004
91.215.65.18 - - [30/Jun/2017:10:40:08 +0000] "POST /ajaxBuildQueue HTTP/1.1" 403 1004
91.215.65.18 - - [30/Jun/2017:10:40:13 +0000] "POST /ajaxExecutors HTTP/1.1" 403 1004
91.215.65.18 - - [30/Jun/2017:10:40:13 +0000] "POST /ajaxBuildQueue HTTP/1.1" 403 1004
91.215.65.18 - - [30/Jun/2017:10:40:18 +0000] "POST /ajaxBuildQueue HTTP/1.1" 403 1004
91.215.65.18 - - [30/Jun/2017:10:40:18 +0000] "POST /ajaxExecutors HTTP/1.1" 403 1004
91.215.65.18 - - [30/Jun/2017:10:40:23 +0000] "POST /ajaxBuildQueue HTTP/1.1" 403 1004
91.215.65.18 - - [30/Jun/2017:10:40:23 +0000] "POST /ajaxExecutors HTTP/1.1" 403 1004
91.215.65.18 - - [30/Jun/2017:10:40:28 +0000] "POST /ajaxBuildQueue HTTP/1.1" 403 1004
91.215.65.18 - - [30/Jun/2017:10:40:28 +0000] "POST /ajaxExecutors HTTP/1.1" 403 1004
91.215.65.18 - - [30/Jun/2017:10:40:33 +0000] "POST /ajaxBuildQueue HTTP/1.1" 403 1004
91.215.65.18 - - [30/Jun/2017:10:40:33 +0000] "POST /ajaxExecutors HTTP/1.1" 403 1004
91.215.65.18 - - [30/Jun/2017:10:40:38 +0000] "POST /ajaxBuildQueue HTTP/1.1" 403 1004
91.215.65.18 - - [30/Jun/2017:10:40:38 +0000] "POST /ajaxExecutors HTTP/1.1" 403 1004
91.215.65.18 - - [30/Jun/2017:10:40:43 +0000] "POST /ajaxBuildQueue HTTP/1.1" 403 1004
91.215.65.18 - - [30/Jun/2017:10:40:43 +0000] "POST /ajaxExecutors HTTP/1.1" 403 1004
91.215.65.18 - - [30/Jun/2017:10:40:48 +0000] "POST /ajaxExecutors HTTP/1.1" 403 1004
91.215.65.18 - - [30/Jun/2017:10:40:48 +0000] "POST /ajaxBuildQueue HTTP/1.1" 403 1004
91.215.65.18 - - [30/Jun/2017:10:40:53 +0000] "POST /ajaxExecutors HTTP/1.1" 403 1004
91.215.65.18 - - [30/Jun/2017:10:40:53 +0000] "POST /ajaxBuildQueue HTTP/1.1" 403 1004
91.215.65.18 - - [30/Jun/2017:10:40:58 +0000] "POST /ajaxBuildQueue HTTP/1.1" 403 1004
91.215.65.18 - - [30/Jun/2017:10:40:58 +0000] "POST /ajaxExecutors HTTP/1.1" 403 1004
91.215.65.18 - - [30/Jun/2017:10:41:03 +0000] "POST /ajaxBuildQueue HTTP/1.1" 403 1004
91.215.65.18 - - [30/Jun/2017:10:41:03 +0000] "POST /ajaxExecutors HTTP/1.1" 403 1004
91.215.65.18 - - [30/Jun/2017:10:41:08 +0000] "POST /ajaxBuildQueue HTTP/1.1" 403 1004
91.215.65.18 - - [30/Jun/2017:10:41:08 +0000] "POST /ajaxExecutors HTTP/1.1" 403 1004
91.215.65.18 - - [30/Jun/2017:10:41:13 +0000] "POST /ajaxBuildQueue HTTP/1.1" 403 1004
91.215.65.18 - - [30/Jun/2017:10:41:13 +0000] "POST /ajaxExecutors HTTP/1.1" 403 1004
91.215.65.18 - - [30/Jun/2017:10:41:18 +0000] "POST /ajaxBuildQueue HTTP/1.1" 403 1004
91.215.65.18 - - [30/Jun/2017:10:41:18 +0000] "POST /ajaxExecutors HTTP/1.1" 403 1004
91.215.65.18 - - [30/Jun/2017:10:41:23 +0000] "POST /ajaxBuildQueue HTTP/1.1" 403 1004
91.215.65.18 - - [30/Jun/2017:10:41:23 +0000] "POST /ajaxExecutors HTTP/1.1" 403 1004
91.215.65.18 - - [30/Jun/2017:10:41:28 +0000] "POST /ajaxBuildQueue HTTP/1.1" 403 1004
91.215.65.18 - - [30/Jun/2017:10:41:28 +0000] "POST /ajaxExecutors HTTP/1.1" 403 1004
91.215.65.18 - - [30/Jun/2017:10:41:33 +0000] "POST /ajaxBuildQueue HTTP/1.1" 403 1004
91.215.65.18 - - [30/Jun/2017:10:41:33 +0000] "POST /ajaxExecutors HTTP/1.1" 403 1004
91.215.65.18 - - [30/Jun/2017:10:41:38 +0000] "POST /ajaxBuildQueue HTTP/1.1" 403 1004
91.215.65.18 - - [30/Jun/2017:10:41:38 +0000] "POST /ajaxExecutors HTTP/1.1" 403 1004
91.215.65.18 - - [30/Jun/2017:10:41:43 +0000] "POST /ajaxBuildQueue HTTP/1.1" 403 1004
91.215.65.18 - - [30/Jun/2017:10:41:44 +0000] "POST /ajaxExecutors HTTP/1.1" 403 1004
91.215.65.18 - - [30/Jun/2017:10:41:48 +0000] "POST /ajaxExecutors HTTP/1.1" 403 1004
91.215.65.18 - - [30/Jun/2017:10:41:48 +0000] "POST /ajaxBuildQueue HTTP/1.1" 403 1004
91.215.65.18 - - [30/Jun/2017:10:41:53 +0000] "POST /ajaxExecutors HTTP/1.1" 403 1004
91.215.65.18 - - [30/Jun/2017:10:41:53 +0000] "POST /ajaxBuildQueue HTTP/1.1" 403 1004
91.215.65.18 - - [30/Jun/2017:10:41:58 +0000] "POST /ajaxBuildQueue HTTP/1.1" 403 1004
91.215.65.18 - - [30/Jun/2017:10:41:58 +0000] "POST /ajaxExecutors HTTP/1.1" 403 1004
91.215.65.18 - - [30/Jun/2017:10:42:03 +0000] "POST /ajaxBuildQueue HTTP/1.1" 403 1004
91.215.65.18 - - [30/Jun/2017:10:42:03 +0000] "POST /ajaxExecutors HTTP/1.1" 403 1004
91.215.65.18 - - [30/Jun/2017:10:42:08 +0000] "POST /ajaxBuildQueue HTTP/1.1" 403 1004
91.215.65.18 - - [30/Jun/2017:10:42:08 +0000] "POST /ajaxExecutors HTTP/1.1" 403 1004
91.215.65.18 - - [30/Jun/2017:10:42:13 +0000] "POST /ajaxBuildQueue HTTP/1.1" 403 1004
91.215.65.18 - - [30/Jun/2017:10:42:13 +0000] "POST /ajaxExecutors HTTP/1.1" 403 1004
91.215.65.18 - - [30/Jun/2017:10:42:18 +0000] "POST /ajaxBuildQueue HTTP/1.1" 403 1004
91.215.65.18 - - [30/Jun/2017:10:42:18 +0000] "POST /ajaxExecutors HTTP/1.1" 403 1004
91.215.65.18 - - [30/Jun/2017:10:42:23 +0000] "POST /ajaxBuildQueue HTTP/1.1" 403 1004
91.215.65.18 - - [30/Jun/2017:10:42:23 +0000] "POST /ajaxExecutors HTTP/1.1" 403 1004
91.215.65.18 - - [30/Jun/2017:10:42:28 +0000] "POST /ajaxBuildQueue HTTP/1.1" 403 1004
91.215.65.18 - - [30/Jun/2017:10:42:28 +0000] "POST /ajaxExecutors HTTP/1.1" 403 1004
91.215.65.18 - - [30/Jun/2017:10:42:33 +0000] "POST /ajaxBuildQueue HTTP/1.1" 403 1004
91.215.65.18 - - [30/Jun/2017:10:42:33 +0000] "POST /ajaxExecutors HTTP/1.1" 403 1004
91.215.65.18 - - [30/Jun/2017:10:42:38 +0000] "POST /ajaxBuildQueue HTTP/1.1" 403 1004
91.215.65.18 - - [30/Jun/2017:10:42:38 +0000] "POST /ajaxExecutors HTTP/1.1" 403 1004
91.215.65.18 - - [30/Jun/2017:10:42:43 +0000] "POST /ajaxBuildQueue HTTP/1.1" 403 1004
91.215.65.18 - - [30/Jun/2017:10:42:43 +0000] "POST /ajaxExecutors HTTP/1.1" 403 1004
91.215.65.18 - - [30/Jun/2017:10:42:48 +0000] "POST /ajaxBuildQueue HTTP/1.1" 403 1004
91.215.65.18 - - [30/Jun/2017:10:42:48 +0000] "POST /ajaxExecutors HTTP/1.1" 403 1004
91.215.65.18 - - [30/Jun/2017:10:46:08 +0000] "POST /ajaxExecutors HTTP/1.1" 403 1004
91.215.65.18 - - [30/Jun/2017:10:46:08 +0000] "POST /ajaxBuildQueue HTTP/1.1" 403 1004
91.215.65.18 - - [30/Jun/2017:10:46:13 +0000] "POST /ajaxBuildQueue HTTP/1.1" 403 1004
91.215.65.18 - - [30/Jun/2017:10:46:13 +0000] "POST /ajaxExecutors HTTP/1.1" 403 1004
91.215.65.18 - - [30/Jun/2017:10:46:18 +0000] "POST /ajaxExecutors HTTP/1.1" 403 1004
91.215.65.18 - - [30/Jun/2017:10:46:18 +0000] "POST /ajaxBuildQueue HTTP/1.1" 403 1004
91.215.65.18 - - [30/Jun/2017:10:46:23 +0000] "POST /ajaxBuildQueue HTTP/1.1" 403 1004
91.215.65.18 - - [30/Jun/2017:10:46:23 +0000] "POST /ajaxExecutors HTTP/1.1" 403 1004
91.215.65.18 - - [30/Jun/2017:10:46:28 +0000] "POST /ajaxBuildQueue HTTP/1.1" 403 1004
91.215.65.18 - - [30/Jun/2017:10:46:28 +0000] "POST /ajaxExecutors HTTP/1.1" 403 1004
91.215.65.18 - - [30/Jun/2017:10:46:33 +0000] "POST /ajaxBuildQueue HTTP/1.1" 403 1004
91.215.65.18 - - [30/Jun/2017:10:46:33 +0000] "POST /ajaxExecutors HTTP/1.1" 403 1004
91.215.65.18 - - [30/Jun/2017:10:46:38 +0000] "POST /ajaxBuildQueue HTTP/1.1" 403 1004
91.215.65.18 - - [30/Jun/2017:10:46:38 +0000] "POST /ajaxExecutors HTTP/1.1" 403 1004
91.215.65.18 - - [30/Jun/2017:10:46:43 +0000] "POST /ajaxBuildQueue HTTP/1.1" 403 1004
91.215.65.18 - - [30/Jun/2017:10:46:43 +0000] "POST /ajaxExecutors HTTP/1.1" 403 1004
91.215.65.18 - - [30/Jun/2017:10:46:48 +0000] "POST /ajaxExecutors HTTP/1.1" 403 1004
91.215.65.18 - - [30/Jun/2017:10:46:48 +0000] "POST /ajaxBuildQueue HTTP/1.1" 403 1004
91.215.65.18 - - [30/Jun/2017:10:46:53 +0000] "POST /ajaxBuildQueue HTTP/1.1" 403 1004
91.215.65.18 - - [30/Jun/2017:10:46:53 +0000] "POST /ajaxExecutors HTTP/1.1" 403 1004
91.215.65.18 - - [30/Jun/2017:10:46:58 +0000] "POST /ajaxExecutors HTTP/1.1" 403 1004
91.215.65.18 - - [30/Jun/2017:10:46:58 +0000] "POST /ajaxBuildQueue HTTP/1.1" 403 1004
91.215.65.18 - - [30/Jun/2017:10:47:03 +0000] "POST /ajaxBuildQueue HTTP/1.1" 403 1004
91.215.65.18 - - [30/Jun/2017:10:47:03 +0000] "POST /ajaxExecutors HTTP/1.1" 403 1004
91.215.65.18 - - [30/Jun/2017:10:47:08 +0000] "POST /ajaxBuildQueue HTTP/1.1" 403 1004
91.215.65.18 - - [30/Jun/2017:10:47:08 +0000] "POST /ajaxExecutors HTTP/1.1" 403 1004
91.215.65.18 - - [30/Jun/2017:10:47:13 +0000] "POST /ajaxBuildQueue HTTP/1.1" 403 1004
91.215.65.18 - - [30/Jun/2017:10:47:13 +0000] "POST /ajaxExecutors HTTP/1.1" 403 1004
91.215.65.18 - - [30/Jun/2017:10:47:18 +0000] "POST /ajaxBuildQueue HTTP/1.1" 403 1004
91.215.65.18 - - [30/Jun/2017:10:47:18 +0000] "POST /ajaxExecutors HTTP/1.1" 403 1004
91.215.65.18 - - [30/Jun/2017:10:47:23 +0000] "POST /ajaxBuildQueue HTTP/1.1" 403 1004
91.215.65.18 - - [30/Jun/2017:10:47:23 +0000] "POST /ajaxExecutors HTTP/1.1" 403 1004
91.215.65.18 - - [30/Jun/2017:10:47:28 +0000] "POST /ajaxBuildQueue HTTP/1.1" 403 1004
91.215.65.18 - - [30/Jun/2017:10:47:28 +0000] "POST /ajaxExecutors HTTP/1.1" 403 1004
91.215.65.18 - - [30/Jun/2017:10:47:33 +0000] "POST /ajaxBuildQueue HTTP/1.1" 403 1004
91.215.65.18 - - [30/Jun/2017:10:47:33 +0000] "POST /ajaxExecutors HTTP/1.1" 403 1004
91.215.65.18 - - [30/Jun/2017:10:47:38 +0000] "POST /ajaxBuildQueue HTTP/1.1" 403 1004
91.215.65.18 - - [30/Jun/2017:10:47:38 +0000] "POST /ajaxExecutors HTTP/1.1" 403 1004
91.215.65.18 - - [30/Jun/2017:10:47:43 +0000] "POST /ajaxBuildQueue HTTP/1.1" 403 1004
91.215.65.18 - - [30/Jun/2017:10:47:43 +0000] "POST /ajaxExecutors HTTP/1.1" 403 1004
91.215.65.18 - - [30/Jun/2017:10:47:48 +0000] "POST /ajaxBuildQueue HTTP/1.1" 403 1004
91.215.65.18 - - [30/Jun/2017:10:47:48 +0000] "POST /ajaxExecutors HTTP/1.1" 403 1004
91.215.65.18 - - [30/Jun/2017:10:47:53 +0000] "POST /ajaxBuildQueue HTTP/1.1" 403 1004
91.215.65.18 - - [30/Jun/2017:10:47:53 +0000] "POST /ajaxExecutors HTTP/1.1" 403 1004
91.215.65.18 - - [30/Jun/2017:10:47:58 +0000] "POST /ajaxBuildQueue HTTP/1.1" 403 1004
91.215.65.18 - - [30/Jun/2017:10:47:58 +0000] "POST /ajaxExecutors HTTP/1.1" 403 1004
91.215.65.18 - - [30/Jun/2017:10:48:03 +0000] "POST /ajaxBuildQueue HTTP/1.1" 403 1004
91.215.65.18 - - [30/Jun/2017:10:48:03 +0000] "POST /ajaxExecutors HTTP/1.1" 403 1004
91.215.65.18 - - [30/Jun/2017:10:48:08 +0000] "POST /ajaxBuildQueue HTTP/1.1" 403 1004
91.215.65.18 - - [30/Jun/2017:10:48:08 +0000] "POST /ajaxExecutors HTTP/1.1" 403 1004
91.215.65.18 - - [30/Jun/2017:10:48:13 +0000] "POST /ajaxBuildQueue HTTP/1.1" 403 1004
91.215.65.18 - - [30/Jun/2017:10:48:13 +0000] "POST /ajaxExecutors HTTP/1.1" 403 1004
91.215.65.18 - - [30/Jun/2017:10:48:18 +0000] "POST /ajaxExecutors HTTP/1.1" 403 1004
91.215.65.18 - - [30/Jun/2017:10:48:18 +0000] "POST /ajaxBuildQueue HTTP/1.1" 403 1004
91.215.65.18 - - [30/Jun/2017:10:48:23 +0000] "POST /ajaxExecutors HTTP/1.1" 403 1004
91.215.65.18 - - [30/Jun/2017:10:48:23 +0000] "POST /ajaxBuildQueue HTTP/1.1" 403 1004
91.215.65.18 - - [30/Jun/2017:10:48:28 +0000] "POST /ajaxBuildQueue HTTP/1.1" 403 1004
91.215.65.18 - - [30/Jun/2017:10:48:28 +0000] "POST /ajaxExecutors HTTP/1.1" 403 1004
91.215.65.18 - - [30/Jun/2017:10:48:33 +0000] "POST /ajaxBuildQueue HTTP/1.1" 403 1004
91.215.65.18 - - [30/Jun/2017:10:48:33 +0000] "POST /ajaxExecutors HTTP/1.1" 403 1004
91.215.65.18 - - [30/Jun/2017:10:48:38 +0000] "POST /ajaxExecutors HTTP/1.1" 403 1004
91.215.65.18 - - [30/Jun/2017:10:48:38 +0000] "POST /ajaxBuildQueue HTTP/1.1" 403 1004
91.215.65.18 - - [30/Jun/2017:10:48:43 +0000] "POST /ajaxBuildQueue HTTP/1.1" 403 1004
91.215.65.18 - - [30/Jun/2017:10:48:43 +0000] "POST /ajaxExecutors HTTP/1.1" 403 1004
91.215.65.18 - - [30/Jun/2017:10:48:48 +0000] "POST /ajaxExecutors HTTP/1.1" 403 1004
91.215.65.18 - - [30/Jun/2017:10:48:48 +0000] "POST /ajaxBuildQueue HTTP/1.1" 403 1004
91.215.65.18 - - [30/Jun/2017:10:48:53 +0000] "POST /ajaxExecutors HTTP/1.1" 403 1004
91.215.65.18 - - [30/Jun/2017:10:48:53 +0000] "POST /ajaxBuildQueue HTTP/1.1" 403 1004
91.215.65.18 - - [30/Jun/2017:10:48:58 +0000] "POST /ajaxExecutors HTTP/1.1" 403 1004
91.215.65.18 - - [30/Jun/2017:10:48:58 +0000] "POST /ajaxBuildQueue HTTP/1.1" 403 1004
91.215.65.18 - - [30/Jun/2017:10:49:03 +0000] "POST /ajaxExecutors HTTP/1.1" 403 1004
91.215.65.18 - - [30/Jun/2017:10:49:03 +0000] "POST /ajaxBuildQueue HTTP/1.1" 403 1004
91.215.65.18 - - [30/Jun/2017:10:49:08 +0000] "POST /ajaxExecutors HTTP/1.1" 403 1004
91.215.65.18 - - [30/Jun/2017:10:49:08 +0000] "POST /ajaxBuildQueue HTTP/1.1" 403 1004
91.215.65.18 - - [30/Jun/2017:10:49:13 +0000] "POST /ajaxBuildQueue HTTP/1.1" 403 1004
91.215.65.18 - - [30/Jun/2017:10:49:13 +0000] "POST /ajaxExecutors HTTP/1.1" 403 1004
91.215.65.18 - - [30/Jun/2017:10:49:18 +0000] "POST /ajaxExecutors HTTP/1.1" 403 1004
91.215.65.18 - - [30/Jun/2017:10:49:18 +0000] "POST /ajaxBuildQueue HTTP/1.1" 403 1004
91.215.65.18 - - [30/Jun/2017:10:49:23 +0000] "POST /ajaxExecutors HTTP/1.1" 403 1004
91.215.65.18 - - [30/Jun/2017:10:49:23 +0000] "POST /ajaxBuildQueue HTTP/1.1" 403 1004
91.215.65.18 - - [30/Jun/2017:10:49:28 +0000] "POST /ajaxExecutors HTTP/1.1" 403 1004
91.215.65.18 - - [30/Jun/2017:10:49:28 +0000] "POST /ajaxBuildQueue HTTP/1.1" 403 1004
91.215.65.18 - - [30/Jun/2017:10:49:33 +0000] "POST /ajaxBuildQueue HTTP/1.1" 403 1004
91.215.65.18 - - [30/Jun/2017:10:49:33 +0000] "POST /ajaxExecutors HTTP/1.1" 403 1004
91.215.65.18 - - [30/Jun/2017:10:49:38 +0000] "POST /ajaxExecutors HTTP/1.1" 403 1004
91.215.65.18 - - [30/Jun/2017:10:49:38 +0000] "POST /ajaxBuildQueue HTTP/1.1" 403 1004
91.215.65.18 - - [30/Jun/2017:10:49:43 +0000] "POST /ajaxExecutors HTTP/1.1" 403 1004
91.215.65.18 - - [30/Jun/2017:10:49:43 +0000] "POST /ajaxBuildQueue HTTP/1.1" 403 1004
91.215.65.18 - - [30/Jun/2017:10:49:48 +0000] "POST /ajaxExecutors HTTP/1.1" 403 1004
91.215.65.18 - - [30/Jun/2017:10:49:48 +0000] "POST /ajaxBuildQueue HTTP/1.1" 403 1004
91.215.65.18 - - [30/Jun/2017:10:49:53 +0000] "POST /ajaxExecutors HTTP/1.1" 403 1004
91.215.65.18 - - [30/Jun/2017:10:49:53 +0000] "POST /ajaxBuildQueue HTTP/1.1" 403 1004
91.215.65.18 - - [30/Jun/2017:10:49:58 +0000] "POST /ajaxBuildQueue HTTP/1.1" 403 1004
91.215.65.18 - - [30/Jun/2017:10:49:58 +0000] "POST /ajaxExecutors HTTP/1.1" 403 1004
91.215.65.18 - - [30/Jun/2017:10:50:03 +0000] "POST /ajaxBuildQueue HTTP/1.1" 403 1004
91.215.65.18 - - [30/Jun/2017:10:50:03 +0000] "POST /ajaxExecutors HTTP/1.1" 403 1004
91.215.65.18 - - [30/Jun/2017:10:50:08 +0000] "POST /ajaxBuildQueue HTTP/1.1" 403 1004
91.215.65.18 - - [30/Jun/2017:10:50:08 +0000] "POST /ajaxExecutors HTTP/1.1" 403 1004
91.215.65.18 - - [30/Jun/2017:10:50:13 +0000] "POST /ajaxBuildQueue HTTP/1.1" 403 1004
91.215.65.18 - - [30/Jun/2017:10:50:13 +0000] "POST /ajaxExecutors HTTP/1.1" 403 1004
91.215.65.18 - - [30/Jun/2017:10:50:18 +0000] "POST /ajaxBuildQueue HTTP/1.1" 403 1004
91.215.65.18 - - [30/Jun/2017:10:50:18 +0000] "POST /ajaxExecutors HTTP/1.1" 403 1004
91.215.65.18 - - [30/Jun/2017:10:50:23 +0000] "POST /ajaxExecutors HTTP/1.1" 403 1004
91.215.65.18 - - [30/Jun/2017:10:50:23 +0000] "POST /ajaxBuildQueue HTTP/1.1" 403 1004
91.215.65.18 - - [30/Jun/2017:10:50:28 +0000] "POST /ajaxBuildQueue HTTP/1.1" 403 1004
91.215.65.18 - - [30/Jun/2017:10:50:28 +0000] "POST /ajaxExecutors HTTP/1.1" 403 1004
91.215.65.18 - - [30/Jun/2017:10:50:33 +0000] "POST /ajaxBuildQueue HTTP/1.1" 403 1004
91.215.65.18 - - [30/Jun/2017:10:50:33 +0000] "POST /ajaxExecutors HTTP/1.1" 403 1004
91.215.65.18 - - [30/Jun/2017:10:50:38 +0000] "POST /ajaxExecutors HTTP/1.1" 403 1004
91.215.65.18 - - [30/Jun/2017:10:50:38 +0000] "POST /ajaxBuildQueue HTTP/1.1" 403 1004
91.215.65.18 - - [30/Jun/2017:10:50:43 +0000] "POST /ajaxExecutors HTTP/1.1" 403 1004
91.215.65.18 - - [30/Jun/2017:10:50:43 +0000] "POST /ajaxBuildQueue HTTP/1.1" 403 1004
91.215.65.18 - - [30/Jun/2017:10:50:48 +0000] "POST /ajaxExecutors HTTP/1.1" 403 1004
91.215.65.18 - - [30/Jun/2017:10:50:48 +0000] "POST /ajaxBuildQueue HTTP/1.1" 403 1004
91.215.65.18 - - [30/Jun/2017:10:50:53 +0000] "POST /ajaxBuildQueue HTTP/1.1" 403 1004
91.215.65.18 - - [30/Jun/2017:10:50:53 +0000] "POST /ajaxExecutors HTTP/1.1" 403 1004
91.215.65.18 - - [30/Jun/2017:10:50:58 +0000] "POST /ajaxBuildQueue HTTP/1.1" 403 1004
91.215.65.18 - - [30/Jun/2017:10:50:58 +0000] "POST /ajaxExecutors HTTP/1.1" 403 1004
91.215.65.18 - - [30/Jun/2017:10:51:03 +0000] "POST /ajaxExecutors HTTP/1.1" 403 1004
91.215.65.18 - - [30/Jun/2017:10:51:03 +0000] "POST /ajaxBuildQueue HTTP/1.1" 403 1004
91.215.65.18 - - [30/Jun/2017:10:51:08 +0000] "POST /ajaxBuildQueue HTTP/1.1" 403 1004
91.215.65.18 - - [30/Jun/2017:10:51:08 +0000] "POST /ajaxExecutors HTTP/1.1" 403 1004
91.215.65.18 - - [30/Jun/2017:10:51:13 +0000] "POST /ajaxExecutors HTTP/1.1" 403 1004
91.215.65.18 - - [30/Jun/2017:10:51:13 +0000] "POST /ajaxBuildQueue HTTP/1.1" 403 1004
91.215.65.18 - - [30/Jun/2017:10:51:18 +0000] "POST /ajaxBuildQueue HTTP/1.1" 403 1004
91.215.65.18 - - [30/Jun/2017:10:51:18 +0000] "POST /ajaxExecutors HTTP/1.1" 403 1004
91.215.65.18 - - [30/Jun/2017:10:51:23 +0000] "POST /ajaxBuildQueue HTTP/1.1" 403 1004
91.215.65.18 - - [30/Jun/2017:10:51:23 +0000] "POST /ajaxExecutors HTTP/1.1" 403 1004
91.215.65.18 - - [30/Jun/2017:10:51:28 +0000] "POST /ajaxBuildQueue HTTP/1.1" 403 1004
91.215.65.18 - - [30/Jun/2017:10:51:28 +0000] "POST /ajaxExecutors HTTP/1.1" 403 1004
91.215.65.18 - - [30/Jun/2017:10:51:33 +0000] "POST /ajaxBuildQueue HTTP/1.1" 403 1004
91.215.65.18 - - [30/Jun/2017:10:51:33 +0000] "POST /ajaxExecutors HTTP/1.1" 403 1004
91.215.65.18 - - [30/Jun/2017:10:51:38 +0000] "POST /ajaxBuildQueue HTTP/1.1" 403 1004
91.215.65.18 - - [30/Jun/2017:10:51:38 +0000] "POST /ajaxExecutors HTTP/1.1" 403 1004
91.215.65.18 - - [30/Jun/2017:10:51:43 +0000] "POST /ajaxBuildQueue HTTP/1.1" 403 1004
91.215.65.18 - - [30/Jun/2017:10:51:43 +0000] "POST /ajaxExecutors HTTP/1.1" 403 1004
91.215.65.18 - - [30/Jun/2017:10:51:48 +0000] "POST /ajaxBuildQueue HTTP/1.1" 403 1004
91.215.65.18 - - [30/Jun/2017:10:51:48 +0000] "POST /ajaxExecutors HTTP/1.1" 403 1004
91.215.65.18 - - [30/Jun/2017:10:51:53 +0000] "POST /ajaxExecutors HTTP/1.1" 403 1004
91.215.65.18 - - [30/Jun/2017:10:51:53 +0000] "POST /ajaxBuildQueue HTTP/1.1" 403 1004
91.215.65.18 - - [30/Jun/2017:10:51:58 +0000] "POST /ajaxBuildQueue HTTP/1.1" 403 1004
91.215.65.18 - - [30/Jun/2017:10:51:58 +0000] "POST /ajaxExecutors HTTP/1.1" 403 1004
91.215.65.18 - - [30/Jun/2017:10:52:03 +0000] "POST /ajaxExecutors HTTP/1.1" 403 1004
91.215.65.18 - - [30/Jun/2017:10:52:03 +0000] "POST /ajaxBuildQueue HTTP/1.1" 403 1004
91.215.65.18 - - [30/Jun/2017:10:52:08 +0000] "POST /ajaxExecutors HTTP/1.1" 403 1004
91.215.65.18 - - [30/Jun/2017:10:52:08 +0000] "POST /ajaxBuildQueue HTTP/1.1" 403 1004
91.215.65.18 - - [30/Jun/2017:10:52:13 +0000] "POST /ajaxExecutors HTTP/1.1" 403 1004
91.215.65.18 - - [30/Jun/2017:10:52:15 +0000] "POST /ajaxBuildQueue HTTP/1.1" 403 1004
91.215.65.18 - - [30/Jun/2017:10:52:18 +0000] "POST /ajaxExecutors HTTP/1.1" 403 1004
91.215.65.18 - - [30/Jun/2017:10:52:18 +0000] "POST /ajaxBuildQueue HTTP/1.1" 403 1004
91.215.65.18 - - [30/Jun/2017:10:52:23 +0000] "POST /ajaxExecutors HTTP/1.1" 403 1004
91.215.65.18 - - [30/Jun/2017:10:52:23 +0000] "POST /ajaxBuildQueue HTTP/1.1" 403 1004
91.215.65.18 - - [30/Jun/2017:10:52:28 +0000] "POST /ajaxExecutors HTTP/1.1" 403 1004
91.215.65.18 - - [30/Jun/2017:10:52:28 +0000] "POST /ajaxBuildQueue HTTP/1.1" 403 1004
91.215.65.18 - - [30/Jun/2017:10:52:33 +0000] "POST /ajaxExecutors HTTP/1.1" 403 1004
91.215.65.18 - - [30/Jun/2017:10:52:33 +0000] "POST /ajaxBuildQueue HTTP/1.1" 403 1004
91.215.65.18 - - [30/Jun/2017:10:52:38 +0000] "POST /ajaxExecutors HTTP/1.1" 403 1004
91.215.65.18 - - [30/Jun/2017:10:52:38 +0000] "POST /ajaxBuildQueue HTTP/1.1" 403 1004
91.215.65.18 - - [30/Jun/2017:10:52:43 +0000] "POST /ajaxExecutors HTTP/1.1" 403 1004
91.215.65.18 - - [30/Jun/2017:10:52:43 +0000] "POST /ajaxBuildQueue HTTP/1.1" 403 1004
91.215.65.18 - - [30/Jun/2017:10:52:48 +0000] "POST /ajaxExecutors HTTP/1.1" 403 1004
91.215.65.18 - - [30/Jun/2017:10:52:48 +0000] "POST /ajaxBuildQueue HTTP/1.1" 403 1004
91.215.65.18 - - [30/Jun/2017:10:52:53 +0000] "POST /ajaxBuildQueue HTTP/1.1" 403 1004
91.215.65.18 - - [30/Jun/2017:10:52:53 +0000] "POST /ajaxExecutors HTTP/1.1" 403 1004
91.215.65.18 - - [30/Jun/2017:10:52:58 +0000] "POST /ajaxExecutors HTTP/1.1" 403 1004
91.215.65.18 - - [30/Jun/2017:10:52:58 +0000] "POST /ajaxBuildQueue HTTP/1.1" 403 1004
91.215.65.18 - - [30/Jun/2017:10:53:03 +0000] "POST /ajaxExecutors HTTP/1.1" 403 1004
91.215.65.18 - - [30/Jun/2017:10:53:03 +0000] "POST /ajaxBuildQueue HTTP/1.1" 403 1004
91.215.65.18 - - [30/Jun/2017:10:53:08 +0000] "POST /ajaxBuildQueue HTTP/1.1" 403 1004
91.215.65.18 - - [30/Jun/2017:10:53:08 +0000] "POST /ajaxExecutors HTTP/1.1" 403 1004
91.215.65.18 - - [30/Jun/2017:10:53:13 +0000] "POST /ajaxExecutors HTTP/1.1" 403 1004
91.215.65.18 - - [30/Jun/2017:10:53:13 +0000] "POST /ajaxBuildQueue HTTP/1.1" 403 1004
91.215.65.18 - - [30/Jun/2017:10:53:18 +0000] "POST /ajaxExecutors HTTP/1.1" 403 1004
91.215.65.18 - - [30/Jun/2017:10:53:18 +0000] "POST /ajaxBuildQueue HTTP/1.1" 403 1004
91.215.65.18 - - [30/Jun/2017:10:53:23 +0000] "POST /ajaxExecutors HTTP/1.1" 403 1004
91.215.65.18 - - [30/Jun/2017:10:53:23 +0000] "POST /ajaxBuildQueue HTTP/1.1" 403 1004
91.215.65.18 - - [30/Jun/2017:10:53:28 +0000] "POST /ajaxExecutors HTTP/1.1" 403 1004
91.215.65.18 - - [30/Jun/2017:10:53:28 +0000] "POST /ajaxBuildQueue HTTP/1.1" 403 1004
91.215.65.18 - - [30/Jun/2017:10:53:33 +0000] "POST /ajaxExecutors HTTP/1.1" 403 1004
91.215.65.18 - - [30/Jun/2017:10:53:33 +0000] "POST /ajaxBuildQueue HTTP/1.1" 403 1004
91.215.65.18 - - [30/Jun/2017:10:53:38 +0000] "POST /ajaxExecutors HTTP/1.1" 403 1004
91.215.65.18 - - [30/Jun/2017:10:53:38 +0000] "POST /ajaxBuildQueue HTTP/1.1" 403 1004
91.215.65.18 - - [30/Jun/2017:10:53:43 +0000] "POST /ajaxExecutors HTTP/1.1" 403 1004
91.215.65.18 - - [30/Jun/2017:10:53:43 +0000] "POST /ajaxBuildQueue HTTP/1.1" 403 1004
91.215.65.18 - - [30/Jun/2017:10:53:48 +0000] "POST /ajaxExecutors HTTP/1.1" 403 1004
91.215.65.18 - - [30/Jun/2017:10:53:48 +0000] "POST /ajaxBuildQueue HTTP/1.1" 403 1004
91.215.65.18 - - [30/Jun/2017:10:53:53 +0000] "POST /ajaxBuildQueue HTTP/1.1" 403 1004
91.215.65.18 - - [30/Jun/2017:10:53:53 +0000] "POST /ajaxExecutors HTTP/1.1" 403 1004
91.215.65.18 - - [30/Jun/2017:10:53:58 +0000] "POST /ajaxBuildQueue HTTP/1.1" 403 1004
91.215.65.18 - - [30/Jun/2017:10:53:58 +0000] "POST /ajaxExecutors HTTP/1.1" 403 1004
91.215.65.18 - - [30/Jun/2017:10:54:03 +0000] "POST /ajaxExecutors HTTP/1.1" 403 1004
91.215.65.18 - - [30/Jun/2017:10:54:03 +0000] "POST /ajaxBuildQueue HTTP/1.1" 403 1004
91.215.65.18 - - [30/Jun/2017:10:54:08 +0000] "POST /ajaxExecutors HTTP/1.1" 403 1004
91.215.65.18 - - [30/Jun/2017:10:54:08 +0000] "POST /ajaxBuildQueue HTTP/1.1" 403 1004
91.215.65.18 - - [30/Jun/2017:10:54:13 +0000] "POST /ajaxExecutors HTTP/1.1" 403 1004
91.215.65.18 - - [30/Jun/2017:10:54:13 +0000] "POST /ajaxBuildQueue HTTP/1.1" 403 1004
91.215.65.18 - - [30/Jun/2017:10:54:18 +0000] "POST /ajaxBuildQueue HTTP/1.1" 403 1004
91.215.65.18 - - [30/Jun/2017:10:54:18 +0000] "POST /ajaxExecutors HTTP/1.1" 403 1004
91.215.65.18 - - [30/Jun/2017:10:54:23 +0000] "POST /ajaxExecutors HTTP/1.1" 403 1004
91.215.65.18 - - [30/Jun/2017:10:54:23 +0000] "POST /ajaxBuildQueue HTTP/1.1" 403 1004
91.215.65.18 - - [30/Jun/2017:10:54:28 +0000] "POST /ajaxExecutors HTTP/1.1" 403 1004
91.215.65.18 - - [30/Jun/2017:10:54:28 +0000] "POST /ajaxBuildQueue HTTP/1.1" 403 1004
91.215.65.18 - - [30/Jun/2017:10:54:33 +0000] "POST /ajaxBuildQueue HTTP/1.1" 403 1004
91.215.65.18 - - [30/Jun/2017:10:54:33 +0000] "POST /ajaxExecutors HTTP/1.1" 403 1004
91.215.65.18 - - [30/Jun/2017:10:54:38 +0000] "POST /ajaxExecutors HTTP/1.1" 403 1004
91.215.65.18 - - [30/Jun/2017:10:54:38 +0000] "POST /ajaxBuildQueue HTTP/1.1" 403 1004
91.215.65.18 - - [30/Jun/2017:10:54:43 +0000] "POST /ajaxBuildQueue HTTP/1.1" 403 1004
91.215.65.18 - - [30/Jun/2017:10:54:43 +0000] "POST /ajaxExecutors HTTP/1.1" 403 1004
91.215.65.18 - - [30/Jun/2017:10:54:48 +0000] "POST /ajaxExecutors HTTP/1.1" 403 1004
91.215.65.18 - - [30/Jun/2017:10:54:48 +0000] "POST /ajaxBuildQueue HTTP/1.1" 403 1004
91.215.65.18 - - [30/Jun/2017:10:54:53 +0000] "POST /ajaxBuildQueue HTTP/1.1" 403 1004
91.215.65.18 - - [30/Jun/2017:10:54:53 +0000] "POST /ajaxExecutors HTTP/1.1" 403 1004
91.215.65.18 - - [30/Jun/2017:10:54:58 +0000] "POST /ajaxBuildQueue HTTP/1.1" 403 1004
91.215.65.18 - - [30/Jun/2017:10:54:58 +0000] "POST /ajaxExecutors HTTP/1.1" 403 1004
91.215.65.18 - - [30/Jun/2017:10:55:03 +0000] "POST /ajaxBuildQueue HTTP/1.1" 403 1004
91.215.65.18 - - [30/Jun/2017:10:55:03 +0000] "POST /ajaxExecutors HTTP/1.1" 403 1004
91.215.65.18 - - [30/Jun/2017:10:55:08 +0000] "POST /ajaxExecutors HTTP/1.1" 403 1004
91.215.65.18 - - [30/Jun/2017:10:55:08 +0000] "POST /ajaxBuildQueue HTTP/1.1" 403 1004
91.215.65.18 - - [30/Jun/2017:10:55:13 +0000] "POST /ajaxExecutors HTTP/1.1" 403 1004
91.215.65.18 - - [30/Jun/2017:10:55:13 +0000] "POST /ajaxBuildQueue HTTP/1.1" 403 1004
91.215.65.18 - - [30/Jun/2017:10:55:18 +0000] "POST /ajaxBuildQueue HTTP/1.1" 403 1004
91.215.65.18 - - [30/Jun/2017:10:55:18 +0000] "POST /ajaxExecutors HTTP/1.1" 403 1004
91.215.65.18 - - [30/Jun/2017:10:55:23 +0000] "POST /ajaxBuildQueue HTTP/1.1" 403 1004
91.215.65.18 - - [30/Jun/2017:10:55:23 +0000] "POST /ajaxExecutors HTTP/1.1" 403 1004
91.215.65.18 - - [30/Jun/2017:10:55:28 +0000] "POST /ajaxExecutors HTTP/1.1" 403 1004
91.215.65.18 - - [30/Jun/2017:10:55:28 +0000] "POST /ajaxBuildQueue HTTP/1.1" 403 1004
91.215.65.18 - - [30/Jun/2017:10:55:33 +0000] "POST /ajaxBuildQueue HTTP/1.1" 403 1004
91.215.65.18 - - [30/Jun/2017:10:55:33 +0000] "POST /ajaxExecutors HTTP/1.1" 403 1004
91.215.65.18 - - [30/Jun/2017:10:55:38 +0000] "POST /ajaxBuildQueue HTTP/1.1" 403 1004
91.215.65.18 - - [30/Jun/2017:10:55:38 +0000] "POST /ajaxExecutors HTTP/1.1" 403 1004
91.215.65.18 - - [30/Jun/2017:10:55:43 +0000] "POST /ajaxBuildQueue HTTP/1.1" 403 1004
91.215.65.18 - - [30/Jun/2017:10:55:43 +0000] "POST /ajaxExecutors HTTP/1.1" 403 1004
91.215.65.18 - - [30/Jun/2017:10:55:48 +0000] "POST /ajaxBuildQueue HTTP/1.1" 403 1004
91.215.65.18 - - [30/Jun/2017:10:55:48 +0000] "POST /ajaxExecutors HTTP/1.1" 403 1004
91.215.65.18 - - [30/Jun/2017:10:55:53 +0000] "POST /ajaxExecutors HTTP/1.1" 403 1004
91.215.65.18 - - [30/Jun/2017:10:55:53 +0000] "POST /ajaxBuildQueue HTTP/1.1" 403 1004
91.215.65.18 - - [30/Jun/2017:10:55:58 +0000] "POST /ajaxExecutors HTTP/1.1" 403 1004
91.215.65.18 - - [30/Jun/2017:10:55:58 +0000] "POST /ajaxBuildQueue HTTP/1.1" 403 1004
91.215.65.18 - - [30/Jun/2017:10:56:03 +0000] "POST /ajaxExecutors HTTP/1.1" 403 1004
91.215.65.18 - - [30/Jun/2017:10:56:03 +0000] "POST /ajaxBuildQueue HTTP/1.1" 403 1004
91.215.65.18 - - [30/Jun/2017:10:56:08 +0000] "POST /ajaxExecutors HTTP/1.1" 403 1004
91.215.65.18 - - [30/Jun/2017:10:56:08 +0000] "POST /ajaxBuildQueue HTTP/1.1" 403 1004
91.215.65.18 - - [30/Jun/2017:10:56:13 +0000] "POST /ajaxBuildQueue HTTP/1.1" 403 1004
91.215.65.18 - - [30/Jun/2017:10:56:13 +0000] "POST /ajaxExecutors HTTP/1.1" 403 1004
91.215.65.18 - - [30/Jun/2017:10:56:18 +0000] "POST /ajaxBuildQueue HTTP/1.1" 403 1004
91.215.65.18 - - [30/Jun/2017:10:56:18 +0000] "POST /ajaxExecutors HTTP/1.1" 403 1004
91.215.65.18 - - [30/Jun/2017:10:56:23 +0000] "POST /ajaxBuildQueue HTTP/1.1" 403 1004
91.215.65.18 - - [30/Jun/2017:10:56:23 +0000] "POST /ajaxExecutors HTTP/1.1" 403 1004
91.215.65.18 - - [30/Jun/2017:10:56:28 +0000] "POST /ajaxExecutors HTTP/1.1" 403 1004
91.215.65.18 - - [30/Jun/2017:10:56:28 +0000] "POST /ajaxBuildQueue HTTP/1.1" 403 1004
91.215.65.18 - - [30/Jun/2017:10:56:33 +0000] "POST /ajaxBuildQueue HTTP/1.1" 403 1004
91.215.65.18 - - [30/Jun/2017:10:56:33 +0000] "POST /ajaxExecutors HTTP/1.1" 403 1004
91.215.65.18 - - [30/Jun/2017:10:56:38 +0000] "POST /ajaxBuildQueue HTTP/1.1" 403 1004
91.215.65.18 - - [30/Jun/2017:10:56:38 +0000] "POST /ajaxExecutors HTTP/1.1" 403 1004
91.215.65.18 - - [30/Jun/2017:10:56:43 +0000] "POST /ajaxBuildQueue HTTP/1.1" 403 1004
91.215.65.18 - - [30/Jun/2017:10:56:43 +0000] "POST /ajaxExecutors HTTP/1.1" 403 1004
91.215.65.18 - - [30/Jun/2017:10:56:48 +0000] "POST /ajaxBuildQueue HTTP/1.1" 403 1004
91.215.65.18 - - [30/Jun/2017:10:56:48 +0000] "POST /ajaxExecutors HTTP/1.1" 403 1004
91.215.65.18 - - [30/Jun/2017:10:56:53 +0000] "POST /ajaxBuildQueue HTTP/1.1" 403 1004
91.215.65.18 - - [30/Jun/2017:10:56:53 +0000] "POST /ajaxExecutors HTTP/1.1" 403 1004
91.215.65.18 - - [30/Jun/2017:10:56:58 +0000] "POST /ajaxBuildQueue HTTP/1.1" 403 1004
91.215.65.18 - - [30/Jun/2017:10:56:58 +0000] "POST /ajaxExecutors HTTP/1.1" 403 1004
91.215.65.18 - - [30/Jun/2017:10:57:03 +0000] "POST /ajaxExecutors HTTP/1.1" 403 1004
91.215.65.18 - - [30/Jun/2017:10:57:03 +0000] "POST /ajaxBuildQueue HTTP/1.1" 403 1004
91.215.65.18 - - [30/Jun/2017:10:57:08 +0000] "POST /ajaxBuildQueue HTTP/1.1" 403 1004
91.215.65.18 - - [30/Jun/2017:10:57:08 +0000] "POST /ajaxExecutors HTTP/1.1" 403 1004
91.215.65.18 - - [30/Jun/2017:10:57:13 +0000] "POST /ajaxBuildQueue HTTP/1.1" 403 1004
91.215.65.18 - - [30/Jun/2017:10:57:13 +0000] "POST /ajaxExecutors HTTP/1.1" 403 1004
91.215.65.18 - - [30/Jun/2017:10:57:18 +0000] "POST /ajaxExecutors HTTP/1.1" 403 1004
91.215.65.18 - - [30/Jun/2017:10:57:18 +0000] "POST /ajaxBuildQueue HTTP/1.1" 403 1004
91.215.65.18 - - [30/Jun/2017:10:57:23 +0000] "POST /ajaxExecutors HTTP/1.1" 403 1004
91.215.65.18 - - [30/Jun/2017:10:57:23 +0000] "POST /ajaxBuildQueue HTTP/1.1" 403 1004
91.215.65.18 - - [30/Jun/2017:10:57:28 +0000] "POST /ajaxExecutors HTTP/1.1" 403 1004
91.215.65.18 - - [30/Jun/2017:10:57:28 +0000] "POST /ajaxBuildQueue HTTP/1.1" 403 1004
91.215.65.18 - - [30/Jun/2017:10:57:33 +0000] "POST /ajaxBuildQueue HTTP/1.1" 403 1004
91.215.65.18 - - [30/Jun/2017:10:57:33 +0000] "POST /ajaxExecutors HTTP/1.1" 403 1004
91.215.65.18 - - [30/Jun/2017:10:57:38 +0000] "POST /ajaxBuildQueue HTTP/1.1" 403 1004
91.215.65.18 - - [30/Jun/2017:10:57:38 +0000] "POST /ajaxExecutors HTTP/1.1" 403 1004
91.215.65.18 - - [30/Jun/2017:10:57:43 +0000] "POST /ajaxExecutors HTTP/1.1" 403 1004
91.215.65.18 - - [30/Jun/2017:10:57:43 +0000] "POST /ajaxBuildQueue HTTP/1.1" 403 1004
91.215.65.18 - - [30/Jun/2017:10:57:48 +0000] "POST /ajaxBuildQueue HTTP/1.1" 403 1004
91.215.65.18 - - [30/Jun/2017:10:57:48 +0000] "POST /ajaxExecutors HTTP/1.1" 403 1004
91.215.65.18 - - [30/Jun/2017:10:57:53 +0000] "POST /ajaxBuildQueue HTTP/1.1" 403 1004
91.215.65.18 - - [30/Jun/2017:10:57:53 +0000] "POST /ajaxExecutors HTTP/1.1" 403 1004
91.215.65.18 - - [30/Jun/2017:10:57:58 +0000] "POST /ajaxBuildQueue HTTP/1.1" 403 1004
91.215.65.18 - - [30/Jun/2017:10:57:58 +0000] "POST /ajaxExecutors HTTP/1.1" 403 1004
91.215.65.18 - - [30/Jun/2017:10:58:03 +0000] "POST /ajaxBuildQueue HTTP/1.1" 403 1004
91.215.65.18 - - [30/Jun/2017:10:58:03 +0000] "POST /ajaxExecutors HTTP/1.1" 403 1004
91.215.65.18 - - [30/Jun/2017:10:58:08 +0000] "POST /ajaxBuildQueue HTTP/1.1" 403 1004
91.215.65.18 - - [30/Jun/2017:10:58:08 +0000] "POST /ajaxExecutors HTTP/1.1" 403 1004
91.215.65.18 - - [30/Jun/2017:10:58:13 +0000] "POST /ajaxBuildQueue HTTP/1.1" 403 1004
91.215.65.18 - - [30/Jun/2017:10:58:13 +0000] "POST /ajaxExecutors HTTP/1.1" 403 1004
91.215.65.18 - - [30/Jun/2017:10:58:37 +0000] "POST /ajaxBuildQueue HTTP/1.1" 403 1004
91.215.65.18 - - [30/Jun/2017:10:58:37 +0000] "POST /ajaxExecutors HTTP/1.1" 403 1004
91.215.65.18 - - [30/Jun/2017:10:58:38 +0000] "POST /ajaxBuildQueue HTTP/1.1" 403 1004
91.215.65.18 - - [30/Jun/2017:10:58:38 +0000] "POST /ajaxExecutors HTTP/1.1" 403 1004
91.215.65.18 - - [30/Jun/2017:10:58:38 +0000] "POST /ajaxBuildQueue HTTP/1.1" 403 1004
91.215.65.18 - - [30/Jun/2017:10:58:38 +0000] "POST /ajaxExecutors HTTP/1.1" 403 1004
91.215.65.18 - - [30/Jun/2017:10:58:38 +0000] "POST /ajaxBuildQueue HTTP/1.1" 403 1004
91.215.65.18 - - [30/Jun/2017:10:58:38 +0000] "POST /ajaxExecutors HTTP/1.1" 403 1004
91.215.65.18 - - [30/Jun/2017:10:58:38 +0000] "POST /ajaxBuildQueue HTTP/1.1" 403 1004
91.215.65.18 - - [30/Jun/2017:10:58:38 +0000] "POST /ajaxExecutors HTTP/1.1" 403 1004
91.215.65.18 - - [30/Jun/2017:10:58:43 +0000] "POST /ajaxBuildQueue HTTP/1.1" 403 1004
91.215.65.18 - - [30/Jun/2017:10:58:43 +0000] "POST /ajaxExecutors HTTP/1.1" 403 1004
91.215.65.18 - - [30/Jun/2017:10:58:48 +0000] "POST /ajaxBuildQueue HTTP/1.1" 403 1004
91.215.65.18 - - [30/Jun/2017:10:58:48 +0000] "POST /ajaxExecutors HTTP/1.1" 403 1004
91.215.65.18 - - [30/Jun/2017:10:58:57 +0000] "POST /ajaxBuildQueue HTTP/1.1" 403 1004
91.215.65.18 - - [30/Jun/2017:10:58:58 +0000] "POST /ajaxBuildQueue HTTP/1.1" 403 1004
91.215.65.18 - - [30/Jun/2017:10:58:58 +0000] "POST /ajaxExecutors HTTP/1.1" 403 1004
91.215.65.18 - - [30/Jun/2017:10:58:59 +0000] "POST /ajaxExecutors HTTP/1.1" 403 1004
91.215.65.18 - - [30/Jun/2017:10:59:03 +0000] "POST /ajaxBuildQueue HTTP/1.1" 403 1004
91.215.65.18 - - [30/Jun/2017:10:59:03 +0000] "POST /ajaxExecutors HTTP/1.1" 403 1004
91.215.65.18 - - [30/Jun/2017:10:59:08 +0000] "POST /ajaxBuildQueue HTTP/1.1" 403 1004
91.215.65.18 - - [30/Jun/2017:10:59:08 +0000] "POST /ajaxExecutors HTTP/1.1" 403 1004
91.215.65.18 - - [30/Jun/2017:10:59:13 +0000] "POST /ajaxBuildQueue HTTP/1.1" 403 1004
91.215.65.18 - - [30/Jun/2017:10:59:13 +0000] "POST /ajaxExecutors HTTP/1.1" 403 1004
91.215.65.18 - - [30/Jun/2017:10:59:18 +0000] "POST /ajaxExecutors HTTP/1.1" 403 1004
91.215.65.18 - - [30/Jun/2017:10:59:18 +0000] "POST /ajaxBuildQueue HTTP/1.1" 403 1004
91.215.65.18 - - [30/Jun/2017:10:59:23 +0000] "POST /ajaxBuildQueue HTTP/1.1" 403 1004
91.215.65.18 - - [30/Jun/2017:10:59:23 +0000] "POST /ajaxExecutors HTTP/1.1" 403 1004
91.215.65.18 - - [30/Jun/2017:10:59:28 +0000] "POST /ajaxBuildQueue HTTP/1.1" 403 1004
91.215.65.18 - - [30/Jun/2017:10:59:28 +0000] "POST /ajaxExecutors HTTP/1.1" 403 1004
91.215.65.18 - - [30/Jun/2017:10:59:33 +0000] "POST /ajaxExecutors HTTP/1.1" 403 1004
91.215.65.18 - - [30/Jun/2017:10:59:33 +0000] "POST /ajaxBuildQueue HTTP/1.1" 403 1004
91.215.65.18 - - [30/Jun/2017:10:59:38 +0000] "POST /ajaxBuildQueue HTTP/1.1" 403 1004
91.215.65.18 - - [30/Jun/2017:10:59:38 +0000] "POST /ajaxExecutors HTTP/1.1" 403 1004
91.215.65.18 - - [30/Jun/2017:10:59:43 +0000] "POST /ajaxExecutors HTTP/1.1" 403 1004
91.215.65.18 - - [30/Jun/2017:10:59:43 +0000] "POST /ajaxBuildQueue HTTP/1.1" 403 1004
91.215.65.18 - - [30/Jun/2017:10:59:48 +0000] "POST /ajaxBuildQueue HTTP/1.1" 403 1004
91.215.65.18 - - [30/Jun/2017:10:59:48 +0000] "POST /ajaxExecutors HTTP/1.1" 403 1004
91.215.65.18 - - [30/Jun/2017:10:59:53 +0000] "POST /ajaxBuildQueue HTTP/1.1" 403 1004
91.215.65.18 - - [30/Jun/2017:10:59:53 +0000] "POST /ajaxExecutors HTTP/1.1" 403 1004
91.215.65.18 - - [30/Jun/2017:10:59:58 +0000] "POST /ajaxBuildQueue HTTP/1.1" 403 1004
91.215.65.18 - - [30/Jun/2017:10:59:58 +0000] "POST /ajaxExecutors HTTP/1.1" 403 1004
91.215.65.18 - - [30/Jun/2017:11:00:03 +0000] "POST /ajaxExecutors HTTP/1.1" 403 1004
91.215.65.18 - - [30/Jun/2017:11:00:03 +0000] "POST /ajaxBuildQueue HTTP/1.1" 403 1004
91.215.65.18 - - [30/Jun/2017:11:00:08 +0000] "POST /ajaxBuildQueue HTTP/1.1" 403 1004
91.215.65.18 - - [30/Jun/2017:11:00:08 +0000] "POST /ajaxExecutors HTTP/1.1" 403 1004
91.215.65.18 - - [30/Jun/2017:11:00:13 +0000] "POST /ajaxBuildQueue HTTP/1.1" 403 1004
91.215.65.18 - - [30/Jun/2017:11:00:13 +0000] "POST /ajaxExecutors HTTP/1.1" 403 1004
91.215.65.18 - - [30/Jun/2017:11:00:18 +0000] "POST /ajaxBuildQueue HTTP/1.1" 403 1004
91.215.65.18 - - [30/Jun/2017:11:00:18 +0000] "POST /ajaxExecutors HTTP/1.1" 403 1004
91.215.65.18 - - [30/Jun/2017:11:00:23 +0000] "POST /ajaxBuildQueue HTTP/1.1" 403 1004
91.215.65.18 - - [30/Jun/2017:11:00:23 +0000] "POST /ajaxExecutors HTTP/1.1" 403 1004
91.215.65.18 - - [30/Jun/2017:11:00:28 +0000] "POST /ajaxBuildQueue HTTP/1.1" 403 1004
91.215.65.18 - - [30/Jun/2017:11:00:28 +0000] "POST /ajaxExecutors HTTP/1.1" 403 1004
91.215.65.18 - - [30/Jun/2017:11:00:33 +0000] "POST /ajaxBuildQueue HTTP/1.1" 403 1004
91.215.65.18 - - [30/Jun/2017:11:00:33 +0000] "POST /ajaxExecutors HTTP/1.1" 403 1004
91.215.65.18 - - [30/Jun/2017:11:00:38 +0000] "POST /ajaxExecutors HTTP/1.1" 403 1004
91.215.65.18 - - [30/Jun/2017:11:00:38 +0000] "POST /ajaxBuildQueue HTTP/1.1" 403 1004
91.215.65.18 - - [30/Jun/2017:11:00:43 +0000] "POST /ajaxBuildQueue HTTP/1.1" 403 1004
91.215.65.18 - - [30/Jun/2017:11:00:43 +0000] "POST /ajaxExecutors HTTP/1.1" 403 1004
91.215.65.18 - - [30/Jun/2017:11:00:48 +0000] "POST /ajaxBuildQueue HTTP/1.1" 403 1004
91.215.65.18 - - [30/Jun/2017:11:00:48 +0000] "POST /ajaxExecutors HTTP/1.1" 403 1004
91.215.65.18 - - [30/Jun/2017:11:00:53 +0000] "POST /ajaxBuildQueue HTTP/1.1" 403 1004
91.215.65.18 - - [30/Jun/2017:11:00:53 +0000] "POST /ajaxExecutors HTTP/1.1" 403 1004
91.215.65.18 - - [30/Jun/2017:11:00:58 +0000] "POST /ajaxBuildQueue HTTP/1.1" 403 1004
91.215.65.18 - - [30/Jun/2017:11:00:58 +0000] "POST /ajaxExecutors HTTP/1.1" 403 1004
91.215.65.18 - - [30/Jun/2017:11:01:03 +0000] "POST /ajaxBuildQueue HTTP/1.1" 403 1004
91.215.65.18 - - [30/Jun/2017:11:01:03 +0000] "POST /ajaxExecutors HTTP/1.1" 403 1004
91.215.65.18 - - [30/Jun/2017:11:01:08 +0000] "POST /ajaxBuildQueue HTTP/1.1" 403 1004
91.215.65.18 - - [30/Jun/2017:11:01:08 +0000] "POST /ajaxExecutors HTTP/1.1" 403 1004
91.215.65.18 - - [30/Jun/2017:11:01:13 +0000] "POST /ajaxExecutors HTTP/1.1" 403 1004
91.215.65.18 - - [30/Jun/2017:11:01:13 +0000] "POST /ajaxBuildQueue HTTP/1.1" 403 1004
91.215.65.18 - - [30/Jun/2017:11:01:18 +0000] "POST /ajaxExecutors HTTP/1.1" 403 1004
91.215.65.18 - - [30/Jun/2017:11:01:18 +0000] "POST /ajaxBuildQueue HTTP/1.1" 403 1004
91.215.65.18 - - [30/Jun/2017:11:01:23 +0000] "POST /ajaxBuildQueue HTTP/1.1" 403 1004
91.215.65.18 - - [30/Jun/2017:11:01:23 +0000] "POST /ajaxExecutors HTTP/1.1" 403 1004
91.215.65.18 - - [30/Jun/2017:11:01:28 +0000] "POST /ajaxBuildQueue HTTP/1.1" 403 1004
91.215.65.18 - - [30/Jun/2017:11:01:28 +0000] "POST /ajaxExecutors HTTP/1.1" 403 1004
91.215.65.18 - - [30/Jun/2017:11:01:33 +0000] "POST /ajaxExecutors HTTP/1.1" 403 1004
91.215.65.18 - - [30/Jun/2017:11:01:33 +0000] "POST /ajaxBuildQueue HTTP/1.1" 403 1004
91.215.65.18 - - [30/Jun/2017:11:01:38 +0000] "POST /ajaxBuildQueue HTTP/1.1" 403 1004
91.215.65.18 - - [30/Jun/2017:11:01:38 +0000] "POST /ajaxExecutors HTTP/1.1" 403 1004
91.215.65.18 - - [30/Jun/2017:11:01:43 +0000] "POST /ajaxExecutors HTTP/1.1" 403 1004
91.215.65.18 - - [30/Jun/2017:11:01:43 +0000] "POST /ajaxBuildQueue HTTP/1.1" 403 1004
91.215.65.18 - - [30/Jun/2017:11:01:48 +0000] "POST /ajaxBuildQueue HTTP/1.1" 403 1004
91.215.65.18 - - [30/Jun/2017:11:01:48 +0000] "POST /ajaxExecutors HTTP/1.1" 403 1004
91.215.65.18 - - [30/Jun/2017:11:01:53 +0000] "POST /ajaxBuildQueue HTTP/1.1" 403 1004
91.215.65.18 - - [30/Jun/2017:11:01:53 +0000] "POST /ajaxExecutors HTTP/1.1" 403 1004
91.215.65.18 - - [30/Jun/2017:11:01:58 +0000] "POST /ajaxBuildQueue HTTP/1.1" 403 1004
91.215.65.18 - - [30/Jun/2017:11:01:58 +0000] "POST /ajaxExecutors HTTP/1.1" 403 1004
91.215.65.18 - - [30/Jun/2017:11:02:03 +0000] "POST /ajaxBuildQueue HTTP/1.1" 403 1004
91.215.65.18 - - [30/Jun/2017:11:02:03 +0000] "POST /ajaxExecutors HTTP/1.1" 403 1004
91.215.65.18 - - [30/Jun/2017:11:02:08 +0000] "POST /ajaxBuildQueue HTTP/1.1" 403 1004
91.215.65.18 - - [30/Jun/2017:11:02:08 +0000] "POST /ajaxExecutors HTTP/1.1" 403 1004
91.215.65.18 - - [30/Jun/2017:11:02:13 +0000] "POST /ajaxBuildQueue HTTP/1.1" 403 1004
91.215.65.18 - - [30/Jun/2017:11:02:13 +0000] "POST /ajaxExecutors HTTP/1.1" 403 1004
91.215.65.18 - - [30/Jun/2017:11:02:18 +0000] "POST /ajaxBuildQueue HTTP/1.1" 403 1004
91.215.65.18 - - [30/Jun/2017:11:02:18 +0000] "POST /ajaxExecutors HTTP/1.1" 403 1004
91.215.65.18 - - [30/Jun/2017:11:02:23 +0000] "POST /ajaxExecutors HTTP/1.1" 403 1004
91.215.65.18 - - [30/Jun/2017:11:02:23 +0000] "POST /ajaxBuildQueue HTTP/1.1" 403 1004
91.215.65.18 - - [30/Jun/2017:11:02:28 +0000] "POST /ajaxBuildQueue HTTP/1.1" 403 1004
91.215.65.18 - - [30/Jun/2017:11:02:28 +0000] "POST /ajaxExecutors HTTP/1.1" 403 1004
91.215.65.18 - - [30/Jun/2017:11:02:33 +0000] "POST /ajaxBuildQueue HTTP/1.1" 403 1004
91.215.65.18 - - [30/Jun/2017:11:02:33 +0000] "POST /ajaxExecutors HTTP/1.1" 403 1004
91.215.65.18 - - [30/Jun/2017:11:27:53 +0000] "POST /ajaxBuildQueue HTTP/1.1" 403 1004
91.215.65.18 - - [30/Jun/2017:11:27:54 +0000] "POST /ajaxExecutors HTTP/1.1" 403 1004
91.215.65.18 - - [30/Jun/2017:11:38:08 +0000] "POST /ajaxExecutors HTTP/1.1" 403 1004
91.215.65.18 - - [30/Jun/2017:11:38:08 +0000] "POST /ajaxBuildQueue HTTP/1.1" 403 1004
91.215.65.18 - - [30/Jun/2017:11:38:28 +0000] "POST /ajaxExecutors HTTP/1.1" 403 1004
91.215.65.18 - - [30/Jun/2017:11:38:28 +0000] "POST /ajaxBuildQueue HTTP/1.1" 403 1004
91.215.65.18 - - [30/Jun/2017:12:08:33 +0000] "POST /ajaxBuildQueue HTTP/1.1" 403 1004
91.215.65.18 - - [30/Jun/2017:12:08:33 +0000] "POST /ajaxExecutors HTTP/1.1" 403 1004
91.215.65.18 - - [30/Jun/2017:12:14:03 +0000] "POST /ajaxBuildQueue HTTP/1.1" 403 1004
91.215.65.18 - - [30/Jun/2017:12:14:03 +0000] "POST /ajaxExecutors HTTP/1.1" 403 1004
