91.215.65.18 - - [22/May/2017:15:50:16 +0000] "GET /api/json?callback=jQuery21109706933670504467_1495468199294&_=1495468199295 HTTP/1.1" 403 961
91.215.65.18 - - [22/May/2017:15:52:19 +0000] "GET /api/json?callback=jQuery21109075551591463731_1495468328065&_=1495468328066 HTTP/1.1" 403 961
91.215.65.18 - - [22/May/2017:15:54:11 +0000] "GET /api/json?callback=jQuery211016159804802959177_1495468445819&_=1495468445820 HTTP/1.1" 403 963
91.215.65.18 - - [22/May/2017:15:55:59 +0000] "GET / HTTP/1.1" 403 793
91.215.65.18 - - [22/May/2017:15:56:02 +0000] "GET /login?from=%2F HTTP/1.1" 200 3574
91.215.65.18 - - [22/May/2017:15:56:02 +0000] "GET /static/d0cbd182/css/layout-common.css HTTP/1.1" 200 1245
91.215.65.18 - - [22/May/2017:15:56:02 +0000] "GET /static/d0cbd182/css/style.css HTTP/1.1" 200 9036
91.215.65.18 - - [22/May/2017:15:56:02 +0000] "GET /static/d0cbd182/scripts/behavior.js HTTP/1.1" 200 2360
91.215.65.18 - - [22/May/2017:15:56:02 +0000] "GET /static/d0cbd182/css/responsive-grid.css HTTP/1.1" 200 4051
91.215.65.18 - - [22/May/2017:15:56:02 +0000] "GET /static/d0cbd182/css/color.css HTTP/1.1" 200 763
91.215.65.18 - - [22/May/2017:15:56:02 +0000] "GET /static/d0cbd182/scripts/yui/container/assets/skins/sam/container.css HTTP/1.1" 200 1277
91.215.65.18 - - [22/May/2017:15:56:02 +0000] "GET /static/d0cbd182/scripts/yui/assets/skins/sam/skin.css HTTP/1.1" 200 16551
91.215.65.18 - - [22/May/2017:15:56:02 +0000] "GET /static/d0cbd182/scripts/yui/container/assets/container.css HTTP/1.1" 200 2306
91.215.65.18 - - [22/May/2017:15:56:02 +0000] "GET /adjuncts/d0cbd182/lib/layout/breadcrumbs.css HTTP/1.1" 200 717
91.215.65.18 - - [22/May/2017:15:56:02 +0000] "GET /adjuncts/d0cbd182/org/kohsuke/stapler/bind.js HTTP/1.1" 200 936
91.215.65.18 - - [22/May/2017:15:56:02 +0000] "GET /static/d0cbd182/scripts/prototype.js HTTP/1.1" 200 37879
91.215.65.18 - - [22/May/2017:15:56:02 +0000] "GET /static/d0cbd182/scripts/yui/yahoo/yahoo-min.js HTTP/1.1" 200 3038
91.215.65.18 - - [22/May/2017:15:56:02 +0000] "GET /static/d0cbd182/scripts/yui/dom/dom-min.js HTTP/1.1" 200 5739
91.215.65.18 - - [22/May/2017:15:56:02 +0000] "GET /static/d0cbd182/scripts/yui/event/event-min.js HTTP/1.1" 200 5146
91.215.65.18 - - [22/May/2017:15:56:02 +0000] "GET /static/d0cbd182/scripts/yui/animation/animation-min.js HTTP/1.1" 200 4877
91.215.65.18 - - [22/May/2017:15:56:02 +0000] "GET /static/d0cbd182/scripts/yui/dragdrop/dragdrop-min.js HTTP/1.1" 200 6974
91.215.65.18 - - [22/May/2017:15:56:02 +0000] "GET /static/d0cbd182/scripts/yui/connection/connection-min.js HTTP/1.1" 200 4442
91.215.65.18 - - [22/May/2017:15:56:02 +0000] "GET /static/d0cbd182/scripts/yui/button/assets/skins/sam/button.css HTTP/1.1" 200 810
91.215.65.18 - - [22/May/2017:15:56:02 +0000] "GET /static/d0cbd182/scripts/yui/datasource/datasource-min.js HTTP/1.1" 200 8248
91.215.65.18 - - [22/May/2017:15:56:02 +0000] "GET /static/d0cbd182/scripts/yui/menu/assets/skins/sam/menu.css HTTP/1.1" 200 1301
91.215.65.18 - - [22/May/2017:15:56:02 +0000] "GET /static/d0cbd182/scripts/yui/menu/menu-min.js HTTP/1.1" 200 15901
91.215.65.18 - - [22/May/2017:15:56:02 +0000] "GET /static/d0cbd182/scripts/yui/element/element-min.js HTTP/1.1" 200 2698
91.215.65.18 - - [22/May/2017:15:56:02 +0000] "GET /static/d0cbd182/scripts/yui/button/button-min.js HTTP/1.1" 200 8305
91.215.65.18 - - [22/May/2017:15:56:02 +0000] "GET /static/d0cbd182/scripts/yui/storage/storage-min.js HTTP/1.1" 200 4048
91.215.65.18 - - [22/May/2017:15:56:03 +0000] "GET /static/d0cbd182/scripts/hudson-behavior.js HTTP/1.1" 200 28684
91.215.65.18 - - [22/May/2017:15:56:03 +0000] "GET /static/d0cbd182/scripts/sortable.js HTTP/1.1" 200 3999
91.215.65.18 - - [22/May/2017:15:56:03 +0000] "GET /static/d0cbd182/jsbundles/page-init.js HTTP/1.1" 200 9291
91.215.65.18 - - [22/May/2017:15:56:03 +0000] "GET /static/d0cbd182/scripts/yui/container/container-min.js HTTP/1.1" 200 19888
91.215.65.18 - - [22/May/2017:15:56:03 +0000] "GET /static/d0cbd182/scripts/yui/autocomplete/autocomplete-min.js HTTP/1.1" 200 7254
91.215.65.18 - - [22/May/2017:15:56:03 +0000] "GET /adjuncts/d0cbd182/lib/layout/breadcrumbs.js HTTP/1.1" 200 3019
91.215.65.18 - - [22/May/2017:15:56:03 +0000] "GET /static/d0cbd182/images/headshot.png HTTP/1.1" 200 2409
91.215.65.18 - - [22/May/2017:15:56:03 +0000] "GET /static/d0cbd182/images/title.png HTTP/1.1" 200 2510
91.215.65.18 - - [22/May/2017:15:56:03 +0000] "GET /static/d0cbd182/assets/jquery-detached/jsmodules/jquery2.js HTTP/1.1" 200 39262
91.215.65.18 - - [22/May/2017:15:56:03 +0000] "GET /adjuncts/d0cbd182/lib/layout/menu_down_arrow.png HTTP/1.1" 200 2767
91.215.65.18 - - [22/May/2017:15:56:03 +0000] "GET /static/d0cbd182/images/16x16/help.png HTTP/1.1" 200 763
91.215.65.18 - - [22/May/2017:15:56:03 +0000] "GET /static/d0cbd182/images/16x16/search.png HTTP/1.1" 200 774
91.215.65.18 - - [22/May/2017:15:56:03 +0000] "GET /adjuncts/d0cbd182/lib/layout/menu_right_arrow2.png HTTP/1.1" 200 2764
91.215.65.18 - - [22/May/2017:15:56:03 +0000] "GET /static/d0cbd182/favicon.ico HTTP/1.1" 200 17542
91.215.65.18 - - [22/May/2017:15:56:03 +0000] "GET /static/d0cbd182/images/top-sticker-bottom-edge.png HTTP/1.1" 200 331
91.215.65.18 - - [22/May/2017:15:56:05 +0000] "POST /j_acegi_security_check HTTP/1.1" 302 -
91.215.65.18 - - [22/May/2017:15:56:14 +0000] "GET / HTTP/1.1" 200 7224
91.215.65.18 - - [22/May/2017:15:56:14 +0000] "GET /static/d0cbd182/scripts/yui/cookie/cookie-min.js HTTP/1.1" 200 1430
91.215.65.18 - - [22/May/2017:15:56:14 +0000] "GET /static/d0cbd182/images/24x24/new-package.png HTTP/1.1" 200 922
91.215.65.18 - - [22/May/2017:15:56:14 +0000] "GET /adjuncts/d0cbd182/jenkins/management/AdministrativeMonitorsDecorator/resources.css HTTP/1.1" 200 593
91.215.65.18 - - [22/May/2017:15:56:14 +0000] "GET /adjuncts/d0cbd182/jenkins/management/AdministrativeMonitorsDecorator/resources.js HTTP/1.1" 200 376
91.215.65.18 - - [22/May/2017:15:56:14 +0000] "GET /static/d0cbd182/images/24x24/user.png HTTP/1.1" 200 1242
91.215.65.18 - - [22/May/2017:15:56:14 +0000] "GET /static/d0cbd182/images/24x24/notepad.png HTTP/1.1" 200 955
91.215.65.18 - - [22/May/2017:15:56:14 +0000] "GET /static/d0cbd182/images/24x24/search.png HTTP/1.1" 200 1309
91.215.65.18 - - [22/May/2017:15:56:14 +0000] "GET /static/d0cbd182/images/16x16/warning.png HTTP/1.1" 200 487
91.215.65.18 - - [22/May/2017:15:56:14 +0000] "GET /static/d0cbd182/images/24x24/fingerprint.png HTTP/1.1" 200 739
91.215.65.18 - - [22/May/2017:15:56:14 +0000] "GET /static/d0cbd182/images/24x24/gear2.png HTTP/1.1" 200 1460
91.215.65.18 - - [22/May/2017:15:56:14 +0000] "GET /static/d0cbd182/images/16x16/error.png HTTP/1.1" 200 543
91.215.65.18 - - [22/May/2017:15:56:14 +0000] "GET /static/d0cbd182/plugin/credentials/images/24x24/credentials.png HTTP/1.1" 200 1572
91.215.65.18 - - [22/May/2017:15:56:14 +0000] "GET /static/d0cbd182/images/32x32/blue.png HTTP/1.1" 200 1656
91.215.65.18 - - [22/May/2017:15:56:14 +0000] "GET /static/d0cbd182/images/32x32/aborted.png HTTP/1.1" 200 1245
91.215.65.18 - - [22/May/2017:15:56:14 +0000] "GET /static/d0cbd182/images/16x16/notepad.png HTTP/1.1" 200 383
91.215.65.18 - - [22/May/2017:15:56:14 +0000] "GET /static/d0cbd182/images/24x24/clock.png HTTP/1.1" 200 1528
91.215.65.18 - - [22/May/2017:15:56:14 +0000] "GET /static/d0cbd182/images/32x32/health-20to39.png HTTP/1.1" 200 1808
91.215.65.18 - - [22/May/2017:15:56:14 +0000] "GET /static/d0cbd182/images/32x32/disabled.png HTTP/1.1" 200 1245
91.215.65.18 - - [22/May/2017:15:56:14 +0000] "GET /static/d0cbd182/images/16x16/expand.png HTTP/1.1" 200 183
91.215.65.18 - - [22/May/2017:15:56:14 +0000] "GET /static/d0cbd182/images/16x16/health-60to79.png HTTP/1.1" 200 652
91.215.65.18 - - [22/May/2017:15:56:14 +0000] "GET /static/d0cbd182/images/16x16/health-20to39.png HTTP/1.1" 200 762
91.215.65.18 - - [22/May/2017:15:56:14 +0000] "GET /static/d0cbd182/images/16x16/health-80plus.png HTTP/1.1" 200 481
91.215.65.18 - - [22/May/2017:15:56:14 +0000] "GET /static/d0cbd182/images/32x32/health-00to19.png HTTP/1.1" 200 1937
91.215.65.18 - - [22/May/2017:15:56:15 +0000] "GET /static/d0cbd182/images/16x16/health-00to19.png HTTP/1.1" 200 643
91.215.65.18 - - [22/May/2017:15:56:15 +0000] "GET /static/d0cbd182/images/atom.gif HTTP/1.1" 200 644
91.215.65.18 - - [22/May/2017:15:56:15 +0000] "GET /static/d0cbd182/images/32x32/health-80plus.png HTTP/1.1" 200 1270
91.215.65.18 - - [22/May/2017:15:56:15 +0000] "GET /static/d0cbd182/images/32x32/red.png HTTP/1.1" 200 1527
91.215.65.18 - - [22/May/2017:15:56:15 +0000] "GET /static/d0cbd182/images/32x32/health-60to79.png HTTP/1.1" 200 1743
91.215.65.18 - - [22/May/2017:15:56:15 +0000] "GET /static/d0cbd182/images/32x32/nobuilt.png HTTP/1.1" 200 1245
91.215.65.18 - - [22/May/2017:15:56:15 +0000] "GET /opensearch.xml HTTP/1.1" 403 821
91.215.65.18 - - [22/May/2017:16:01:13 +0000] "GET /adjuncts/d0cbd182/lib/layout/menu_right_arrow.png HTTP/1.1" 200 2769
91.215.65.18 - - [22/May/2017:16:01:14 +0000] "POST /ajaxBuildQueue HTTP/1.1" 200 276
91.215.65.18 - - [22/May/2017:16:01:14 +0000] "POST /ajaxExecutors HTTP/1.1" 200 300
91.215.65.18 - - [22/May/2017:16:01:15 +0000] "GET /manage HTTP/1.1" 200 5369
91.215.65.18 - - [22/May/2017:16:01:15 +0000] "GET /adjuncts/d0cbd182/lib/form/link/link.js HTTP/1.1" 200 293
91.215.65.18 - - [22/May/2017:16:01:15 +0000] "GET /static/d0cbd182/images/48x48/gear2.png HTTP/1.1" 200 3804
91.215.65.18 - - [22/May/2017:16:01:15 +0000] "GET /static/d0cbd182/images/48x48/secure.png HTTP/1.1" 200 1908
91.215.65.18 - - [22/May/2017:16:01:15 +0000] "GET /static/d0cbd182/images/48x48/setting.png HTTP/1.1" 200 3368
91.215.65.18 - - [22/May/2017:16:01:15 +0000] "GET /static/d0cbd182/images/48x48/refresh.png HTTP/1.1" 200 3387
91.215.65.18 - - [22/May/2017:16:01:15 +0000] "GET /static/d0cbd182/images/48x48/plugin.png HTTP/1.1" 200 1859
91.215.65.18 - - [22/May/2017:16:01:15 +0000] "GET /static/d0cbd182/plugin/credentials/images/48x48/credentials.png HTTP/1.1" 200 4008
91.215.65.18 - - [22/May/2017:16:01:15 +0000] "POST /administrativeMonitor/hudson.diagnosis.ReverseProxySetupMonitor/test HTTP/1.1" 302 -
91.215.65.18 - - [22/May/2017:16:01:15 +0000] "GET /checkURIEncoding?value=%E5%9F%B7%E4%BA%8B HTTP/1.1" 200 6
91.215.65.18 - - [22/May/2017:16:01:15 +0000] "GET /administrativeMonitor/hudson.diagnosis.ReverseProxySetupMonitor/testForReverseProxySetup/http%3A%2F%2F40.69.74.208%3A18080%2Fmanage/ HTTP/1.1" 400 -
91.215.65.18 - - [22/May/2017:16:01:15 +0000] "GET /static/d0cbd182/images/48x48/monitor.png HTTP/1.1" 200 3270
91.215.65.18 - - [22/May/2017:16:01:15 +0000] "GET /static/d0cbd182/images/48x48/clipboard.png HTTP/1.1" 200 1501
91.215.65.18 - - [22/May/2017:16:01:15 +0000] "GET /static/d0cbd182/images/48x48/computer.png HTTP/1.1" 200 3000
91.215.65.18 - - [22/May/2017:16:01:15 +0000] "GET /static/d0cbd182/images/48x48/terminal.png HTTP/1.1" 200 2433
91.215.65.18 - - [22/May/2017:16:01:15 +0000] "GET /static/d0cbd182/images/48x48/notepad.png HTTP/1.1" 200 2282
91.215.65.18 - - [22/May/2017:16:01:15 +0000] "GET /static/d0cbd182/images/48x48/help.png HTTP/1.1" 200 3287
91.215.65.18 - - [22/May/2017:16:01:15 +0000] "GET /static/d0cbd182/images/48x48/document.png HTTP/1.1" 200 745
91.215.65.18 - - [22/May/2017:16:01:15 +0000] "GET /static/d0cbd182/images/48x48/user.png HTTP/1.1" 200 3373
91.215.65.18 - - [22/May/2017:16:01:15 +0000] "GET /static/d0cbd182/images/48x48/system-log-out.png HTTP/1.1" 200 1814
91.215.65.18 - - [22/May/2017:16:01:15 +0000] "GET /static/d0cbd182/images/48x48/network.png HTTP/1.1" 200 3244
91.215.65.18 - - [22/May/2017:16:01:20 +0000] "POST /ajaxBuildQueue HTTP/1.1" 200 276
91.215.65.18 - - [22/May/2017:16:01:20 +0000] "POST /ajaxExecutors HTTP/1.1" 200 300
91.215.65.18 - - [22/May/2017:16:01:25 +0000] "POST /ajaxExecutors HTTP/1.1" 200 300
91.215.65.18 - - [22/May/2017:16:01:25 +0000] "POST /ajaxBuildQueue HTTP/1.1" 200 276
91.215.65.18 - - [22/May/2017:16:01:27 +0000] "GET /configure HTTP/1.1" 200 27095
91.215.65.18 - - [22/May/2017:16:01:27 +0000] "GET /adjuncts/d0cbd182/lib/form/breadcrumb-config-outline/init.css HTTP/1.1" 200 119
91.215.65.18 - - [22/May/2017:16:01:27 +0000] "GET /adjuncts/d0cbd182/lib/form/textarea/textarea.css HTTP/1.1" 200 99
91.215.65.18 - - [22/May/2017:16:01:27 +0000] "GET /adjuncts/d0cbd182/lib/form/breadcrumb-config-outline/init.js HTTP/1.1" 200 397
91.215.65.18 - - [22/May/2017:16:01:27 +0000] "GET /adjuncts/d0cbd182/org/jenkinsci/plugins/github_branch_source/form/select/select.css HTTP/1.1" 200 197
91.215.65.18 - - [22/May/2017:16:01:27 +0000] "GET /adjuncts/d0cbd182/lib/form/section_.css HTTP/1.1" 200 127
91.215.65.18 - - [22/May/2017:16:01:27 +0000] "GET /adjuncts/d0cbd182/lib/form/advanced/advanced.js HTTP/1.1" 200 527
91.215.65.18 - - [22/May/2017:16:01:27 +0000] "GET /adjuncts/d0cbd182/lib/form/section_.js HTTP/1.1" 200 712
91.215.65.18 - - [22/May/2017:16:01:27 +0000] "GET /adjuncts/d0cbd182/lib/form/textarea/textarea.js HTTP/1.1" 200 1134
91.215.65.18 - - [22/May/2017:16:01:27 +0000] "GET /adjuncts/d0cbd182/lib/form/radioBlock/radioBlock.js HTTP/1.1" 200 947
91.215.65.18 - - [22/May/2017:16:01:27 +0000] "GET /adjuncts/d0cbd182/lib/form/dragdrop/dragdrop.js HTTP/1.1" 200 1243
91.215.65.18 - - [22/May/2017:16:01:27 +0000] "GET /adjuncts/d0cbd182/lib/form/hetero-list/hetero-list.js HTTP/1.1" 200 2033
91.215.65.18 - - [22/May/2017:16:01:27 +0000] "GET /adjuncts/d0cbd182/lib/form/repeatable/repeatable.js HTTP/1.1" 200 1815
91.215.65.18 - - [22/May/2017:16:01:27 +0000] "GET /adjuncts/d0cbd182/org/jenkinsci/plugins/github_branch_source/form/select/select.js HTTP/1.1" 200 1551
91.215.65.18 - - [22/May/2017:16:01:27 +0000] "GET /adjuncts/d0cbd182/lib/form/select/select.js HTTP/1.1" 200 1323
91.215.65.18 - - [22/May/2017:16:01:27 +0000] "GET /adjuncts/d0cbd182/lib/form/apply/apply.js HTTP/1.1" 200 1245
91.215.65.18 - - [22/May/2017:16:01:27 +0000] "GET /adjuncts/d0cbd182/lib/form/confirm.js HTTP/1.1" 200 730
91.215.65.18 - - [22/May/2017:16:01:27 +0000] "GET /static/d0cbd182/images/textarea-handle.gif HTTP/1.1" 200 52
91.215.65.18 - - [22/May/2017:16:01:27 +0000] "GET /static/d0cbd182/images/spinner.gif HTTP/1.1" 200 1659
91.215.65.18 - - [22/May/2017:16:01:27 +0000] "GET /static/d0cbd182/plugin/credentials/images/16x16/new-credential.png HTTP/1.1" 200 755
91.215.65.18 - - [22/May/2017:16:01:27 +0000] "GET /static/d0cbd182/plugin/credentials/images/16x16/system-store.png HTTP/1.1" 200 1010
91.215.65.18 - - [22/May/2017:16:01:27 +0000] "GET /adjuncts/d0cbd182/lib/credentials/select/select.css HTTP/1.1" 200 266
91.215.65.18 - - [22/May/2017:16:01:27 +0000] "GET /adjuncts/d0cbd182/lib/credentials/select/select.js HTTP/1.1" 200 3606
91.215.65.18 - - [22/May/2017:16:01:28 +0000] "GET /static/d0cbd182/scripts/yui/button/assets/skins/sam/menu-button-arrow.png HTTP/1.1" 200 91
91.215.65.18 - - [22/May/2017:16:01:28 +0000] "GET /static/d0cbd182/scripts/yui/assets/skins/sam/sprite.png HTTP/1.1" 200 3128
91.215.65.18 - - [22/May/2017:16:01:28 +0000] "GET /descriptorByName/jenkins.model.Jenkins/checkRawBuildsDir?value=%24%7BITEM_ROOTDIR%7D%2Fbuilds HTTP/1.1" 200 6
91.215.65.18 - - [22/May/2017:16:01:28 +0000] "GET /descriptorByName/hudson.triggers.SCMTrigger/checkPollingThreadCount?value= HTTP/1.1" 200 6
91.215.65.18 - - [22/May/2017:16:01:28 +0000] "POST /descriptorByName/org.jenkinsci.plugins.docker.commons.credentials.DockerRegistryEndpoint/fillCredentialsIdItems HTTP/1.1" 200 176
91.215.65.18 - - [22/May/2017:16:01:28 +0000] "POST /descriptorByName/org.jenkinsci.plugins.github.config.HookSecretConfig/fillCredentialsIdItems HTTP/1.1" 200 131
91.215.65.18 - - [22/May/2017:16:01:28 +0000] "POST /descriptorByName/org.jenkinsci.plugins.github.config.HookSecretConfig/fillCredentialsIdItems HTTP/1.1" 200 131
91.215.65.18 - - [22/May/2017:16:01:28 +0000] "POST /descriptorByName/org.jenkinsci.plugins.docker.commons.credentials.DockerRegistryEndpoint/fillCredentialsIdItems HTTP/1.1" 200 176
91.215.65.18 - - [22/May/2017:16:01:28 +0000] "GET /static/d0cbd182/images/bottom-sticker-top-edge.png HTTP/1.1" 200 331
91.215.65.18 - - [22/May/2017:16:01:28 +0000] "GET /descriptorByName/jenkins.model.ProjectNamingStrategy$PatternProjectNamingStrategy/checkNamePattern?value=.* HTTP/1.1" 200 6
91.215.65.18 - - [22/May/2017:16:01:28 +0000] "GET /descriptorByName/jenkins.model.JenkinsLocationConfiguration/checkUrl?value=http%3A%2F%2F40.69.74.208%3A18080%2F HTTP/1.1" 200 6
91.215.65.18 - - [22/May/2017:16:01:28 +0000] "GET /descriptorByName/jenkins.model.JenkinsLocationConfiguration/checkAdminAddress?value=Direcci%C3%B3n%20no%20configurada%20todav%C3%ADa%20%3Cnobody%40nowhere%3E HTTP/1.1" 200 6
40.69.74.208 - - [22/May/2017:16:01:28 +0000] "POST /github-webhook/ HTTP/1.1" 200 -
91.215.65.18 - - [22/May/2017:16:01:28 +0000] "GET /descriptorByName/github-plugin-configuration/checkHookUrl?value=http%3A%2F%2F40.69.74.208%3A18080%2Fgithub-webhook%2F HTTP/1.1" 200 6
91.215.65.18 - - [22/May/2017:16:01:28 +0000] "GET /descriptorByName/hudson.tasks.Shell/checkShell?value= HTTP/1.1" 200 6
91.215.65.18 - - [22/May/2017:16:01:28 +0000] "GET /descriptorByName/hudson.tasks.Mailer/checkSmtpServer?value=smtp.gmail.com HTTP/1.1" 200 6
91.215.65.18 - - [22/May/2017:16:01:29 +0000] "GET /descriptorByName/hudson.tasks.Mailer/checkDefaultSuffix?value=%40everis.com HTTP/1.1" 200 6
91.215.65.18 - - [22/May/2017:16:01:29 +0000] "GET /descriptorByName/hudson.triggers.SCMTrigger/checkPollingThreadCount?value= HTTP/1.1" 200 6
91.215.65.18 - - [22/May/2017:16:01:32 +0000] "POST /ajaxBuildQueue HTTP/1.1" 200 276
91.215.65.18 - - [22/May/2017:16:01:32 +0000] "POST /ajaxExecutors HTTP/1.1" 200 300
91.215.65.18 - - [22/May/2017:16:01:47 +0000] "POST /ajaxBuildQueue HTTP/1.1" 200 276
91.215.65.18 - - [22/May/2017:16:01:47 +0000] "POST /ajaxExecutors HTTP/1.1" 200 300
91.215.65.18 - - [22/May/2017:16:01:52 +0000] "POST /ajaxBuildQueue HTTP/1.1" 200 276
91.215.65.18 - - [22/May/2017:16:01:52 +0000] "POST /ajaxExecutors HTTP/1.1" 200 300
91.215.65.18 - - [22/May/2017:16:01:56 +0000] "GET /descriptor/org.jenkinsci.plugins.corsfilter.AccessControlsFilter/help/allowedHeaders HTTP/1.1" 200 203
91.215.65.18 - - [22/May/2017:16:01:57 +0000] "POST /ajaxBuildQueue HTTP/1.1" 200 276
91.215.65.18 - - [22/May/2017:16:01:57 +0000] "POST /ajaxExecutors HTTP/1.1" 200 300
91.215.65.18 - - [22/May/2017:16:02:02 +0000] "POST /ajaxExecutors HTTP/1.1" 200 300
91.215.65.18 - - [22/May/2017:16:02:02 +0000] "POST /ajaxBuildQueue HTTP/1.1" 200 276
91.215.65.18 - - [22/May/2017:16:02:06 +0000] "POST /configSubmit HTTP/1.1" 302 -
91.215.65.18 - - [22/May/2017:16:02:06 +0000] "GET / HTTP/1.1" 200 7224
91.215.65.18 - - [22/May/2017:16:02:23 +0000] "GET /api/json?callback=jQuery211021864913481444392_1495468939603&_=1495468939604 HTTP/1.1" 200 685
91.215.65.18 - - [22/May/2017:16:06:32 +0000] "GET /api/json&callback=jQuery211037515195120811473_1495469182375?_=1495469182376 HTTP/1.1" 404 1002
91.215.65.18 - - [22/May/2017:16:09:40 +0000] "GET /api HTTP/1.1" 302 -
91.215.65.18 - - [22/May/2017:16:09:40 +0000] "GET /api/ HTTP/1.1" 200 5221
91.215.65.18 - - [22/May/2017:16:09:46 +0000] "GET /api/json HTTP/1.1" 200 685
91.215.65.18 - - [22/May/2017:16:09:49 +0000] "GET /api/ HTTP/1.1" 200 5221
91.215.65.18 - - [22/May/2017:16:09:56 +0000] "GET /api/json?pretty=true HTTP/1.1" 200 736
91.215.65.18 - - [22/May/2017:16:10:01 +0000] "GET /api/ HTTP/1.1" 200 5221
91.215.65.18 - - [22/May/2017:16:11:45 +0000] "GET /api/json&callback=jQuery211023007351751083616_1495469500655?_=1495469500656 HTTP/1.1" 404 1002
91.215.65.18 - - [22/May/2017:16:12:09 +0000] "GET /api/json&callback=? HTTP/1.1" 404 1002
91.215.65.18 - - [22/May/2017:16:12:14 +0000] "GET /api/json HTTP/1.1" 200 685
91.215.65.18 - - [22/May/2017:16:12:26 +0000] "GET /api/json?callback=jQuery21108073954433514561_1495469542106&_=1495469542107 HTTP/1.1" 200 685
91.215.65.18 - - [22/May/2017:16:12:43 +0000] "GET /api/json HTTP/1.1" 200 685
91.215.65.18 - - [22/May/2017:16:13:22 +0000] "GET /api/json?callback=jQuery21108682516126929236_1495469598978&_=1495469598979 HTTP/1.1" 200 685
91.215.65.18 - - [22/May/2017:16:13:49 +0000] "GET /api/json?callback=jQuery2110688124263603737_1495469627118&_=1495469627119 HTTP/1.1" 200 685
91.215.65.18 - - [22/May/2017:16:14:20 +0000] "GET /api/json?callback=jQuery21108581642677472863_1495469657521&_=1495469657522 HTTP/1.1" 200 685
91.215.65.18 - - [22/May/2017:16:14:24 +0000] "GET /api/json?callback=jQuery21108581642677472863_1495469657521&_=1495469657523 HTTP/1.1" 200 685
91.215.65.18 - - [22/May/2017:16:14:30 +0000] "GET /api/json?callback=jQuery21108581642677472863_1495469657521&_=1495469657524 HTTP/1.1" 200 685
91.215.65.18 - - [22/May/2017:16:14:49 +0000] "GET /api/json?callback=jQuery21104560476241518039_1495469686774&_=1495469686775 HTTP/1.1" 200 685
91.215.65.18 - - [22/May/2017:16:15:43 +0000] "GET /api/xml HTTP/1.1" 200 701
91.215.65.18 - - [22/May/2017:16:20:38 +0000] "GET /api/json?jsonp=jQuery21106159342971136419_1495470036108&_=1495470036109 HTTP/1.1" 403 1131
91.215.65.18 - - [22/May/2017:16:21:39 +0000] "GET /api/json?jsonp=jQuery21106118964655062706_1495470097691&param1=admin&param2=fc03d77d7837844af48b10c8b45b3eb6&_=1495470097692 HTTP/1.1" 403 1131
91.215.65.18 - - [22/May/2017:16:22:03 +0000] "GET /api/json?jsonp=jQuery21108226884382520705_1495470121325&param1=admin&param2=fc03d77d7837844af48b10c8b45b3eb6&_=1495470121326 HTTP/1.1" 403 1131
91.215.65.18 - - [22/May/2017:16:24:36 +0000] "OPTIONS /api/json HTTP/1.1" 200 -
91.215.65.18 - - [22/May/2017:16:24:55 +0000] "OPTIONS /api/json HTTP/1.1" 200 -
91.215.65.18 - - [22/May/2017:16:28:06 +0000] "GET / HTTP/1.1" 200 7213
91.215.65.18 - - [22/May/2017:16:28:06 +0000] "GET /static/d0cbd182/favicon.ico HTTP/1.1" 200 17542
91.215.65.18 - - [22/May/2017:16:29:08 +0000] "OPTIONS /api/json HTTP/1.1" 200 -
91.215.65.18 - - [22/May/2017:16:29:37 +0000] "OPTIONS /api/json HTTP/1.1" 200 -
91.215.65.18 - - [22/May/2017:16:31:27 +0000] "OPTIONS /api/json HTTP/1.1" 200 -
91.215.65.18 - - [22/May/2017:16:33:56 +0000] "POST /ajaxBuildQueue HTTP/1.1" 200 276
91.215.65.18 - - [22/May/2017:16:33:56 +0000] "POST /ajaxExecutors HTTP/1.1" 200 300
91.215.65.18 - - [22/May/2017:16:34:01 +0000] "POST /ajaxBuildQueue HTTP/1.1" 200 276
91.215.65.18 - - [22/May/2017:16:34:01 +0000] "POST /ajaxExecutors HTTP/1.1" 200 300
91.215.65.18 - - [22/May/2017:16:34:06 +0000] "GET /manage HTTP/1.1" 200 5371
91.215.65.18 - - [22/May/2017:16:34:06 +0000] "POST /administrativeMonitor/hudson.diagnosis.ReverseProxySetupMonitor/test HTTP/1.1" 302 -
91.215.65.18 - - [22/May/2017:16:34:06 +0000] "GET /checkURIEncoding?value=%E5%9F%B7%E4%BA%8B HTTP/1.1" 200 6
91.215.65.18 - - [22/May/2017:16:34:06 +0000] "GET /administrativeMonitor/hudson.diagnosis.ReverseProxySetupMonitor/testForReverseProxySetup/http%3A%2F%2F40.69.74.208%3A18080%2Fmanage/ HTTP/1.1" 400 -
91.215.65.18 - - [22/May/2017:16:34:09 +0000] "GET /configure HTTP/1.1" 200 27109
91.215.65.18 - - [22/May/2017:16:34:09 +0000] "POST /descriptorByName/org.jenkinsci.plugins.github.config.HookSecretConfig/fillCredentialsIdItems HTTP/1.1" 200 131
91.215.65.18 - - [22/May/2017:16:34:09 +0000] "POST /descriptorByName/org.jenkinsci.plugins.docker.commons.credentials.DockerRegistryEndpoint/fillCredentialsIdItems HTTP/1.1" 200 176
91.215.65.18 - - [22/May/2017:16:34:09 +0000] "GET /descriptorByName/jenkins.plugins.git.GitSCMSource/checkCredentialsId?value= HTTP/1.1" 200 6
91.215.65.18 - - [22/May/2017:16:34:09 +0000] "POST /descriptorByName/jenkins.plugins.git.GitSCMSource/fillCredentialsIdItems HTTP/1.1" 200 176
91.215.65.18 - - [22/May/2017:16:34:09 +0000] "POST /descriptorByName/org.jenkinsci.plugins.github_branch_source.GitHubSCMSource/fillScanCredentialsIdItems HTTP/1.1" 200 176
91.215.65.18 - - [22/May/2017:16:34:09 +0000] "POST /descriptorByName/org.jenkinsci.plugins.github_branch_source.GitHubSCMSource/fillCheckoutCredentialsIdItems HTTP/1.1" 200 219
91.215.65.18 - - [22/May/2017:16:34:09 +0000] "GET /descriptorByName/hudson.triggers.SCMTrigger/checkPollingThreadCount?value= HTTP/1.1" 200 6
91.215.65.18 - - [22/May/2017:16:34:09 +0000] "POST /descriptorByName/org.jenkinsci.plugins.github.config.HookSecretConfig/fillCredentialsIdItems HTTP/1.1" 200 131
91.215.65.18 - - [22/May/2017:16:34:09 +0000] "POST /descriptorByName/org.jenkinsci.plugins.docker.commons.credentials.DockerRegistryEndpoint/fillCredentialsIdItems HTTP/1.1" 200 176
91.215.65.18 - - [22/May/2017:16:34:09 +0000] "GET /descriptorByName/org.jenkinsci.plugins.github_branch_source.GitHubSCMSource/checkScanCredentialsId?value=&apiUri=&scanCredentialsId= HTTP/1.1" 200 114
91.215.65.18 - - [22/May/2017:16:34:09 +0000] "GET /descriptorByName/jenkins.model.Jenkins/checkRawBuildsDir?value=%24%7BITEM_ROOTDIR%7D%2Fbuilds HTTP/1.1" 200 6
91.215.65.18 - - [22/May/2017:16:34:09 +0000] "GET /static/d0cbd182/images/none.gif HTTP/1.1" 200 115
91.215.65.18 - - [22/May/2017:16:34:09 +0000] "GET /descriptorByName/jenkins.model.ProjectNamingStrategy$PatternProjectNamingStrategy/checkNamePattern?value=.* HTTP/1.1" 200 6
91.215.65.18 - - [22/May/2017:16:34:10 +0000] "GET /descriptorByName/jenkins.model.JenkinsLocationConfiguration/checkUrl?value=http%3A%2F%2F40.69.74.208%3A18080%2F HTTP/1.1" 200 6
91.215.65.18 - - [22/May/2017:16:34:10 +0000] "GET /descriptorByName/jenkins.model.JenkinsLocationConfiguration/checkAdminAddress?value=Direcci%C3%B3n%20no%20configurada%20todav%C3%ADa%20%3Cnobody%40nowhere%3E HTTP/1.1" 200 6
40.69.74.208 - - [22/May/2017:16:34:10 +0000] "POST /github-webhook/ HTTP/1.1" 200 -
91.215.65.18 - - [22/May/2017:16:34:10 +0000] "GET /descriptorByName/github-plugin-configuration/checkHookUrl?value=http%3A%2F%2F40.69.74.208%3A18080%2Fgithub-webhook%2F HTTP/1.1" 200 6
91.215.65.18 - - [22/May/2017:16:34:10 +0000] "GET /descriptorByName/hudson.tasks.Shell/checkShell?value= HTTP/1.1" 200 6
91.215.65.18 - - [22/May/2017:16:34:10 +0000] "GET /descriptorByName/hudson.tasks.Mailer/checkSmtpServer?value=smtp.gmail.com HTTP/1.1" 200 6
91.215.65.18 - - [22/May/2017:16:34:10 +0000] "GET /descriptorByName/hudson.tasks.Mailer/checkDefaultSuffix?value=%40everis.com HTTP/1.1" 200 6
91.215.65.18 - - [22/May/2017:16:34:10 +0000] "GET /descriptorByName/hudson.triggers.SCMTrigger/checkPollingThreadCount?value= HTTP/1.1" 200 6
91.215.65.18 - - [22/May/2017:16:34:14 +0000] "POST /ajaxBuildQueue HTTP/1.1" 200 276
91.215.65.18 - - [22/May/2017:16:34:14 +0000] "POST /ajaxExecutors HTTP/1.1" 200 300
91.215.65.18 - - [22/May/2017:16:34:16 +0000] "GET /descriptor/org.jenkinsci.plugins.corsfilter.AccessControlsFilter/help/allowedHeaders HTTP/1.1" 200 203
91.215.65.18 - - [22/May/2017:16:34:19 +0000] "POST /ajaxBuildQueue HTTP/1.1" 200 276
91.215.65.18 - - [22/May/2017:16:34:19 +0000] "POST /ajaxExecutors HTTP/1.1" 200 300
91.215.65.18 - - [22/May/2017:16:34:24 +0000] "POST /ajaxBuildQueue HTTP/1.1" 200 276
91.215.65.18 - - [22/May/2017:16:34:24 +0000] "POST /ajaxExecutors HTTP/1.1" 200 300
91.215.65.18 - - [22/May/2017:16:34:28 +0000] "POST /configSubmit HTTP/1.1" 302 -
91.215.65.18 - - [22/May/2017:16:34:29 +0000] "GET / HTTP/1.1" 200 7212
91.215.65.18 - - [22/May/2017:16:34:32 +0000] "GET /configure HTTP/1.1" 200 27104
91.215.65.18 - - [22/May/2017:16:34:33 +0000] "POST /descriptorByName/org.jenkinsci.plugins.github.config.HookSecretConfig/fillCredentialsIdItems HTTP/1.1" 200 131
91.215.65.18 - - [22/May/2017:16:34:33 +0000] "POST /descriptorByName/org.jenkinsci.plugins.docker.commons.credentials.DockerRegistryEndpoint/fillCredentialsIdItems HTTP/1.1" 200 176
91.215.65.18 - - [22/May/2017:16:34:33 +0000] "POST /descriptorByName/jenkins.plugins.git.GitSCMSource/fillCredentialsIdItems HTTP/1.1" 200 176
91.215.65.18 - - [22/May/2017:16:34:33 +0000] "POST /descriptorByName/org.jenkinsci.plugins.github_branch_source.GitHubSCMSource/fillScanCredentialsIdItems HTTP/1.1" 200 176
91.215.65.18 - - [22/May/2017:16:34:33 +0000] "POST /descriptorByName/org.jenkinsci.plugins.github_branch_source.GitHubSCMSource/fillCheckoutCredentialsIdItems HTTP/1.1" 200 219
91.215.65.18 - - [22/May/2017:16:34:33 +0000] "POST /descriptorByName/org.jenkinsci.plugins.github.config.HookSecretConfig/fillCredentialsIdItems HTTP/1.1" 200 131
91.215.65.18 - - [22/May/2017:16:34:33 +0000] "POST /descriptorByName/org.jenkinsci.plugins.docker.commons.credentials.DockerRegistryEndpoint/fillCredentialsIdItems HTTP/1.1" 200 176
91.215.65.18 - - [22/May/2017:16:34:33 +0000] "GET /descriptorByName/jenkins.model.ProjectNamingStrategy$PatternProjectNamingStrategy/checkNamePattern?value=.* HTTP/1.1" 200 6
91.215.65.18 - - [22/May/2017:16:34:33 +0000] "GET /descriptorByName/jenkins.model.JenkinsLocationConfiguration/checkUrl?value=http%3A%2F%2F40.69.74.208%3A18080%2F HTTP/1.1" 200 6
91.215.65.18 - - [22/May/2017:16:34:33 +0000] "GET /descriptorByName/jenkins.model.JenkinsLocationConfiguration/checkAdminAddress?value=Direcci%C3%B3n%20no%20configurada%20todav%C3%ADa%20%3Cnobody%40nowhere%3E HTTP/1.1" 200 6
40.69.74.208 - - [22/May/2017:16:34:33 +0000] "POST /github-webhook/ HTTP/1.1" 200 -
91.215.65.18 - - [22/May/2017:16:34:33 +0000] "GET /descriptorByName/github-plugin-configuration/checkHookUrl?value=http%3A%2F%2F40.69.74.208%3A18080%2Fgithub-webhook%2F HTTP/1.1" 200 6
91.215.65.18 - - [22/May/2017:16:34:33 +0000] "GET /descriptorByName/hudson.tasks.Shell/checkShell?value= HTTP/1.1" 200 6
91.215.65.18 - - [22/May/2017:16:34:33 +0000] "GET /descriptorByName/hudson.tasks.Mailer/checkSmtpServer?value=smtp.gmail.com HTTP/1.1" 200 6
91.215.65.18 - - [22/May/2017:16:34:33 +0000] "GET /descriptorByName/hudson.tasks.Mailer/checkDefaultSuffix?value=%40everis.com HTTP/1.1" 200 6
91.215.65.18 - - [22/May/2017:16:34:33 +0000] "GET /descriptorByName/hudson.triggers.SCMTrigger/checkPollingThreadCount?value= HTTP/1.1" 200 6
91.215.65.18 - - [22/May/2017:16:34:35 +0000] "GET /descriptor/org.jenkinsci.plugins.corsfilter.AccessControlsFilter/help/exposedHeaders HTTP/1.1" 200 278
91.215.65.18 - - [22/May/2017:16:34:38 +0000] "POST /ajaxBuildQueue HTTP/1.1" 200 276
91.215.65.18 - - [22/May/2017:16:34:38 +0000] "POST /ajaxExecutors HTTP/1.1" 200 300
91.215.65.18 - - [22/May/2017:16:34:44 +0000] "OPTIONS /api/json HTTP/1.1" 200 -
91.215.65.18 - - [22/May/2017:16:34:44 +0000] "GET /api/json HTTP/1.1" 200 685
91.215.65.18 - - [22/May/2017:16:35:33 +0000] "POST /ajaxBuildQueue HTTP/1.1" 200 276
91.215.65.18 - - [22/May/2017:16:35:33 +0000] "POST /ajaxExecutors HTTP/1.1" 200 300
91.215.65.18 - - [22/May/2017:16:35:38 +0000] "POST /ajaxBuildQueue HTTP/1.1" 200 276
91.215.65.18 - - [22/May/2017:16:35:38 +0000] "POST /ajaxExecutors HTTP/1.1" 200 300
91.215.65.18 - - [22/May/2017:16:35:43 +0000] "POST /ajaxBuildQueue HTTP/1.1" 200 276
91.215.65.18 - - [22/May/2017:16:35:43 +0000] "POST /ajaxExecutors HTTP/1.1" 200 300
91.215.65.18 - - [22/May/2017:16:35:48 +0000] "POST /ajaxBuildQueue HTTP/1.1" 200 276
91.215.65.18 - - [22/May/2017:16:35:48 +0000] "POST /ajaxExecutors HTTP/1.1" 200 300
91.215.65.18 - - [22/May/2017:16:35:53 +0000] "POST /ajaxBuildQueue HTTP/1.1" 200 276
91.215.65.18 - - [22/May/2017:16:35:53 +0000] "POST /ajaxExecutors HTTP/1.1" 200 300
91.215.65.18 - - [22/May/2017:16:35:58 +0000] "POST /ajaxBuildQueue HTTP/1.1" 200 276
91.215.65.18 - - [22/May/2017:16:35:58 +0000] "POST /ajaxExecutors HTTP/1.1" 200 300
91.215.65.18 - - [22/May/2017:16:36:03 +0000] "POST /ajaxBuildQueue HTTP/1.1" 200 276
91.215.65.18 - - [22/May/2017:16:36:03 +0000] "POST /ajaxExecutors HTTP/1.1" 200 300
91.215.65.18 - - [22/May/2017:16:36:10 +0000] "GET /api/json HTTP/1.1" 200 685
91.215.65.18 - - [22/May/2017:16:38:33 +0000] "POST /ajaxBuildQueue HTTP/1.1" 200 276
91.215.65.18 - - [22/May/2017:16:38:33 +0000] "POST /ajaxExecutors HTTP/1.1" 200 300
91.215.65.18 - - [22/May/2017:16:38:38 +0000] "POST /ajaxBuildQueue HTTP/1.1" 200 276
91.215.65.18 - - [22/May/2017:16:38:38 +0000] "POST /ajaxExecutors HTTP/1.1" 200 300
91.215.65.18 - - [22/May/2017:16:38:40 +0000] "GET / HTTP/1.1" 200 7216
91.215.65.18 - - [22/May/2017:16:38:40 +0000] "GET /opensearch.xml HTTP/1.1" 403 821
91.215.65.18 - - [22/May/2017:16:38:45 +0000] "POST /ajaxBuildQueue HTTP/1.1" 200 276
91.215.65.18 - - [22/May/2017:16:38:45 +0000] "POST /ajaxExecutors HTTP/1.1" 200 300
91.215.65.18 - - [22/May/2017:16:38:45 +0000] "GET /api/json HTTP/1.1" 200 685
91.215.65.18 - - [22/May/2017:16:38:53 +0000] "POST /ajaxBuildQueue HTTP/1.1" 200 276
91.215.65.18 - - [22/May/2017:16:38:53 +0000] "POST /ajaxExecutors HTTP/1.1" 200 300
91.215.65.18 - - [22/May/2017:16:39:06 +0000] "GET /api/json HTTP/1.1" 200 685
91.215.65.18 - - [22/May/2017:16:39:07 +0000] "GET /api/json HTTP/1.1" 200 685
91.215.65.18 - - [22/May/2017:16:39:07 +0000] "GET /api/json HTTP/1.1" 200 685
91.215.65.18 - - [22/May/2017:16:39:08 +0000] "GET /api/json HTTP/1.1" 200 685
91.215.65.18 - - [22/May/2017:16:39:11 +0000] "GET /api/json HTTP/1.1" 200 685
91.215.65.18 - - [22/May/2017:16:39:11 +0000] "GET /api/json HTTP/1.1" 200 685
91.215.65.18 - - [22/May/2017:16:39:11 +0000] "GET /api/json HTTP/1.1" 200 685
91.215.65.18 - - [22/May/2017:16:39:12 +0000] "GET /api/json HTTP/1.1" 200 685
91.215.65.18 - - [22/May/2017:16:39:12 +0000] "GET /api/json HTTP/1.1" 200 685
91.215.65.18 - - [22/May/2017:16:39:44 +0000] "GET /api/json HTTP/1.1" 200 685
91.215.65.18 - - [22/May/2017:16:44:12 +0000] "GET /api/json HTTP/1.1" 200 685
91.215.65.18 - - [22/May/2017:16:44:33 +0000] "GET /api/json HTTP/1.1" 200 685
91.215.65.18 - - [22/May/2017:16:44:41 +0000] "GET /api/json HTTP/1.1" 200 685
91.215.65.18 - - [22/May/2017:16:45:57 +0000] "OPTIONS /api/json HTTP/1.1" 200 -
91.215.65.18 - - [22/May/2017:16:45:58 +0000] "GET /api/json HTTP/1.1" 200 685
91.215.65.18 - - [22/May/2017:16:46:19 +0000] "GET /api/json HTTP/1.1" 200 685
91.215.65.18 - - [22/May/2017:16:47:40 +0000] "GET /api/json HTTP/1.1" 200 685
91.215.65.18 - - [22/May/2017:16:47:51 +0000] "GET /api/json HTTP/1.1" 200 685
91.215.65.18 - - [22/May/2017:16:49:51 +0000] "GET /api/json HTTP/1.1" 200 685
91.215.65.18 - - [22/May/2017:16:49:51 +0000] "GET /favicon.ico HTTP/1.1" 200 17542
91.215.65.18 - - [22/May/2017:16:49:54 +0000] "GET /api/json HTTP/1.1" 200 685
91.215.65.18 - - [22/May/2017:16:50:06 +0000] "GET /api/json HTTP/1.1" 200 685
91.215.65.18 - - [22/May/2017:16:50:06 +0000] "GET /api/json HTTP/1.1" 200 685
91.215.65.18 - - [22/May/2017:16:50:50 +0000] "GET /api/json HTTP/1.1" 200 685
91.215.65.18 - - [22/May/2017:16:51:01 +0000] "GET /api/json HTTP/1.1" 200 685
91.215.65.18 - - [22/May/2017:16:51:03 +0000] "GET /api/json HTTP/1.1" 200 685
91.215.65.18 - - [22/May/2017:16:51:19 +0000] "GET /api/json HTTP/1.1" 200 685
91.215.65.18 - - [22/May/2017:16:51:26 +0000] "GET /api/json HTTP/1.1" 200 685
91.215.65.18 - - [22/May/2017:16:52:05 +0000] "GET /api/json HTTP/1.1" 200 685
91.215.65.18 - - [22/May/2017:16:53:04 +0000] "GET /api/json HTTP/1.1" 200 685
91.215.65.18 - - [22/May/2017:16:53:10 +0000] "GET /api/json HTTP/1.1" 200 685
91.215.65.18 - - [22/May/2017:16:53:11 +0000] "GET /api/json HTTP/1.1" 200 685
91.215.65.18 - - [22/May/2017:16:53:11 +0000] "GET /api/json HTTP/1.1" 200 685
91.215.65.18 - - [22/May/2017:16:53:11 +0000] "GET /api/json HTTP/1.1" 200 685
91.215.65.18 - - [22/May/2017:16:53:11 +0000] "GET /api/json HTTP/1.1" 200 685
91.215.65.18 - - [22/May/2017:16:53:12 +0000] "GET /api/json HTTP/1.1" 200 685
91.215.65.18 - - [22/May/2017:16:53:37 +0000] "GET /api/json HTTP/1.1" 200 685
91.215.65.18 - - [22/May/2017:16:53:52 +0000] "GET /api/json HTTP/1.1" 200 685
91.215.65.18 - - [22/May/2017:16:56:28 +0000] "OPTIONS /api/json HTTP/1.1" 200 -
91.215.65.18 - - [22/May/2017:16:56:28 +0000] "GET /api/json HTTP/1.1" 200 685
91.215.65.18 - - [22/May/2017:16:57:51 +0000] "GET /api/json HTTP/1.1" 200 685
91.215.65.18 - - [22/May/2017:16:57:55 +0000] "GET /api/json HTTP/1.1" 200 685
91.215.65.18 - - [22/May/2017:16:57:59 +0000] "GET /api/json HTTP/1.1" 200 685
91.215.65.18 - - [22/May/2017:16:58:50 +0000] "OPTIONS /api/json HTTP/1.1" 200 -
91.215.65.18 - - [22/May/2017:16:58:50 +0000] "GET /api/json HTTP/1.1" 200 685
91.215.65.18 - - [22/May/2017:17:01:48 +0000] "POST /ajaxExecutors HTTP/1.1" 200 300
91.215.65.18 - - [22/May/2017:17:01:48 +0000] "POST /ajaxBuildQueue HTTP/1.1" 200 276
91.215.65.18 - - [22/May/2017:17:01:49 +0000] "GET / HTTP/1.1" 200 7217
91.215.65.18 - - [22/May/2017:17:01:49 +0000] "GET /opensearch.xml HTTP/1.1" 403 821
91.215.65.18 - - [22/May/2017:17:01:54 +0000] "POST /ajaxBuildQueue HTTP/1.1" 200 276
91.215.65.18 - - [22/May/2017:17:01:54 +0000] "POST /ajaxExecutors HTTP/1.1" 200 300
91.215.65.18 - - [22/May/2017:17:01:54 +0000] "GET /job/generar-paquete-endesa-release/ HTTP/1.1" 200 5599
91.215.65.18 - - [22/May/2017:17:01:54 +0000] "GET /static/d0cbd182/images/24x24/up.png HTTP/1.1" 200 769
91.215.65.18 - - [22/May/2017:17:01:54 +0000] "GET /static/d0cbd182/images/24x24/edit-delete.png HTTP/1.1" 200 1236
91.215.65.18 - - [22/May/2017:17:01:54 +0000] "GET /static/d0cbd182/plugin/cloudbees-folder/images/24x24/folder.png HTTP/1.1" 200 1007
91.215.65.18 - - [22/May/2017:17:01:54 +0000] "GET /static/d0cbd182/images/16x16/blue.png HTTP/1.1" 200 656
91.215.65.18 - - [22/May/2017:17:01:54 +0000] "GET /static/d0cbd182/images/16x16/aborted.png HTTP/1.1" 200 572
91.215.65.18 - - [22/May/2017:17:01:54 +0000] "GET /static/d0cbd182/images/24x24/clipboard.png HTTP/1.1" 200 819
91.215.65.18 - - [22/May/2017:17:01:54 +0000] "GET /static/d0cbd182/images/16x16/collapse.png HTTP/1.1" 200 168
91.215.65.18 - - [22/May/2017:17:01:54 +0000] "GET /static/d0cbd182/images/16x16/go_top.png HTTP/1.1" 200 211
91.215.65.18 - - [22/May/2017:17:01:54 +0000] "GET /static/d0cbd182/plugin/email-ext/images/template-debugger.png HTTP/1.1" 200 818
91.215.65.18 - - [22/May/2017:17:01:54 +0000] "GET /static/d0cbd182/images/16x16/go_up.png HTTP/1.1" 200 192
91.215.65.18 - - [22/May/2017:17:01:54 +0000] "GET /static/d0cbd182/images/16x16/go_down.png HTTP/1.1" 200 193
91.215.65.18 - - [22/May/2017:17:01:54 +0000] "GET /static/d0cbd182/plugin/cloudbees-folder/images/48x48/folder.png HTTP/1.1" 200 1873
91.215.65.18 - - [22/May/2017:17:01:59 +0000] "POST /job/generar-paquete-endesa-release/buildHistory/ajax HTTP/1.1" 200 51
91.215.65.18 - - [22/May/2017:17:02:04 +0000] "POST /job/generar-paquete-endesa-release/buildHistory/ajax HTTP/1.1" 200 51
91.215.65.18 - - [22/May/2017:17:02:09 +0000] "POST /job/generar-paquete-endesa-release/buildHistory/ajax HTTP/1.1" 200 51
91.215.65.18 - - [22/May/2017:17:02:14 +0000] "POST /job/generar-paquete-endesa-release/buildHistory/ajax HTTP/1.1" 200 51
91.215.65.18 - - [22/May/2017:17:02:19 +0000] "POST /job/generar-paquete-endesa-release/buildHistory/ajax HTTP/1.1" 200 51
91.215.65.18 - - [22/May/2017:17:02:25 +0000] "POST /job/generar-paquete-endesa-release/buildHistory/ajax HTTP/1.1" 200 51
91.215.65.18 - - [22/May/2017:17:02:36 +0000] "POST /job/generar-paquete-endesa-release/buildHistory/ajax HTTP/1.1" 200 51
91.215.65.18 - - [22/May/2017:17:02:50 +0000] "OPTIONS /job/generar-paquete-endesa-release/build HTTP/1.1" 200 -
91.215.65.18 - - [22/May/2017:17:02:50 +0000] "POST /job/generar-paquete-endesa-release/build HTTP/1.1" 201 -
91.215.65.18 - - [22/May/2017:17:02:58 +0000] "POST /job/generar-paquete-endesa-release/buildHistory/ajax HTTP/1.1" 200 452
91.215.65.18 - - [22/May/2017:17:02:58 +0000] "GET /job/generar-paquete-endesa-release/ HTTP/1.1" 200 5767
91.215.65.18 - - [22/May/2017:17:02:58 +0000] "GET /static/d0cbd182/images/16x16/grey.png HTTP/1.1" 200 397
91.215.65.18 - - [22/May/2017:17:02:58 +0000] "GET /static/d0cbd182/images/16x16/stop.png HTTP/1.1" 200 486
91.215.65.18 - - [22/May/2017:17:02:58 +0000] "GET /static/d0cbd182/favicon.ico HTTP/1.1" 200 17542
91.215.65.18 - - [22/May/2017:17:03:03 +0000] "POST /job/generar-paquete-endesa-release/buildHistory/ajax HTTP/1.1" 200 731
91.215.65.18 - - [22/May/2017:17:03:03 +0000] "GET /static/d0cbd182/images/16x16/blue_anime.gif HTTP/1.1" 200 3435
91.215.65.18 - - [22/May/2017:17:03:05 +0000] "POST /job/generar-paquete-endesa-release/5/stop HTTP/1.1" 302 -
91.215.65.18 - - [22/May/2017:17:03:05 +0000] "GET /job/generar-paquete-endesa-release/ HTTP/1.1" 200 5952
91.215.65.18 - - [22/May/2017:17:03:09 +0000] "POST /job/generar-paquete-endesa-release/buildHistory/ajax HTTP/1.1" 200 477
91.215.65.18 - - [22/May/2017:17:03:14 +0000] "POST /job/generar-paquete-endesa-release/buildHistory/ajax HTTP/1.1" 200 51
91.215.65.18 - - [22/May/2017:17:03:19 +0000] "POST /job/generar-paquete-endesa-release/buildHistory/ajax HTTP/1.1" 200 51
91.215.65.18 - - [22/May/2017:17:03:26 +0000] "POST /job/generar-paquete-endesa-release/build HTTP/1.1" 201 -
91.215.65.18 - - [22/May/2017:17:03:30 +0000] "POST /job/generar-paquete-endesa-release/buildHistory/ajax HTTP/1.1" 200 477
91.215.65.18 - - [22/May/2017:17:03:31 +0000] "POST /queue/cancelItem?id=191 HTTP/1.1" 302 -
91.215.65.18 - - [22/May/2017:17:03:31 +0000] "GET /job/generar-paquete-endesa-release/ HTTP/1.1" 200 5656
91.215.65.18 - - [22/May/2017:17:03:32 +0000] "POST /queue/cancelItem?id=191 HTTP/1.1" 302 -
91.215.65.18 - - [22/May/2017:17:03:32 +0000] "GET /job/generar-paquete-endesa-release/ HTTP/1.1" 200 5655
91.215.65.18 - - [22/May/2017:17:03:35 +0000] "POST /job/generar-paquete-endesa-release/buildHistory/ajax HTTP/1.1" 200 51
91.215.65.18 - - [22/May/2017:17:03:40 +0000] "POST /job/generar-paquete-endesa-release/buildHistory/ajax HTTP/1.1" 200 51
91.215.65.18 - - [22/May/2017:17:03:45 +0000] "POST /job/generar-paquete-endesa-release/buildHistory/ajax HTTP/1.1" 200 51
91.215.65.18 - - [22/May/2017:17:08:09 +0000] "OPTIONS /api/json HTTP/1.1" 200 -
91.215.65.18 - - [22/May/2017:17:08:09 +0000] "GET /api/json HTTP/1.1" 200 685
