91.215.65.18 - - [26/Jun/2017:09:01:40 +0000] "GET / HTTP/1.1" 503 1638
91.215.65.18 - - [26/Jun/2017:09:01:40 +0000] "GET /static/f4615a68/css/layout-common.css HTTP/1.1" 200 1245
91.215.65.18 - - [26/Jun/2017:09:01:40 +0000] "GET /static/f4615a68/css/style.css HTTP/1.1" 200 9036
91.215.65.18 - - [26/Jun/2017:09:01:41 +0000] "GET /static/f4615a68/css/color.css HTTP/1.1" 200 763
91.215.65.18 - - [26/Jun/2017:09:01:41 +0000] "GET /static/f4615a68/css/responsive-grid.css HTTP/1.1" 200 4051
91.215.65.18 - - [26/Jun/2017:09:01:41 +0000] "GET /static/f4615a68/scripts/yui/container/assets/container.css HTTP/1.1" 200 2306
91.215.65.18 - - [26/Jun/2017:09:01:41 +0000] "GET /static/f4615a68/scripts/yui/assets/skins/sam/skin.css HTTP/1.1" 200 16551
91.215.65.18 - - [26/Jun/2017:09:01:41 +0000] "GET /static/f4615a68/scripts/yui/container/assets/skins/sam/container.css HTTP/1.1" 200 1277
91.215.65.18 - - [26/Jun/2017:09:01:41 +0000] "GET /adjuncts/f4615a68/lib/layout/breadcrumbs.css HTTP/1.1" 503 1637
91.215.65.18 - - [26/Jun/2017:09:01:41 +0000] "GET /static/f4615a68/scripts/yui/menu/assets/skins/sam/menu.css HTTP/1.1" 200 1301
91.215.65.18 - - [26/Jun/2017:09:01:41 +0000] "GET /static/f4615a68/scripts/yui/button/assets/skins/sam/button.css HTTP/1.1" 200 810
91.215.65.18 - - [26/Jun/2017:09:01:42 +0000] "GET /static/f4615a68/scripts/behavior.js HTTP/1.1" 200 2360
91.215.65.18 - - [26/Jun/2017:09:01:42 +0000] "GET /adjuncts/f4615a68/org/kohsuke/stapler/bind.js HTTP/1.1" 503 1638
91.215.65.18 - - [26/Jun/2017:09:01:42 +0000] "GET /static/f4615a68/scripts/yui/event/event-min.js HTTP/1.1" 200 5146
91.215.65.18 - - [26/Jun/2017:09:01:42 +0000] "GET /static/f4615a68/scripts/prototype.js HTTP/1.1" 200 37879
91.215.65.18 - - [26/Jun/2017:09:01:42 +0000] "GET /static/f4615a68/scripts/yui/dom/dom-min.js HTTP/1.1" 200 5739
91.215.65.18 - - [26/Jun/2017:09:01:42 +0000] "GET /static/f4615a68/scripts/yui/yahoo/yahoo-min.js HTTP/1.1" 200 3038
91.215.65.18 - - [26/Jun/2017:09:01:42 +0000] "GET /static/f4615a68/scripts/yui/animation/animation-min.js HTTP/1.1" 200 4877
91.215.65.18 - - [26/Jun/2017:09:01:42 +0000] "GET /static/f4615a68/scripts/yui/dragdrop/dragdrop-min.js HTTP/1.1" 200 6974
91.215.65.18 - - [26/Jun/2017:09:01:42 +0000] "GET /static/f4615a68/scripts/yui/connection/connection-min.js HTTP/1.1" 200 4442
91.215.65.18 - - [26/Jun/2017:09:01:42 +0000] "GET /static/f4615a68/scripts/yui/datasource/datasource-min.js HTTP/1.1" 200 8248
91.215.65.18 - - [26/Jun/2017:09:01:42 +0000] "GET /static/f4615a68/scripts/yui/button/button-min.js HTTP/1.1" 200 8305
91.215.65.18 - - [26/Jun/2017:09:01:42 +0000] "GET /static/f4615a68/scripts/yui/storage/storage-min.js HTTP/1.1" 200 4048
91.215.65.18 - - [26/Jun/2017:09:01:42 +0000] "GET /static/f4615a68/scripts/yui/element/element-min.js HTTP/1.1" 200 2698
91.215.65.18 - - [26/Jun/2017:09:01:42 +0000] "GET /static/f4615a68/scripts/yui/menu/menu-min.js HTTP/1.1" 200 15901
91.215.65.18 - - [26/Jun/2017:09:01:42 +0000] "GET /static/f4615a68/scripts/yui/container/container-min.js HTTP/1.1" 200 19888
91.215.65.18 - - [26/Jun/2017:09:01:42 +0000] "GET /static/f4615a68/scripts/yui/autocomplete/autocomplete-min.js HTTP/1.1" 200 7254
91.215.65.18 - - [26/Jun/2017:09:01:42 +0000] "GET /static/f4615a68/scripts/sortable.js HTTP/1.1" 200 3999
91.215.65.18 - - [26/Jun/2017:09:01:42 +0000] "GET /static/f4615a68/scripts/hudson-behavior.js HTTP/1.1" 200 28684
91.215.65.18 - - [26/Jun/2017:09:01:43 +0000] "GET /adjuncts/f4615a68/org/kohsuke/stapler/bind.js HTTP/1.1" 503 1638
91.215.65.18 - - [26/Jun/2017:09:01:43 +0000] "GET /static/f4615a68/jsbundles/page-init.js HTTP/1.1" 200 9291
91.215.65.18 - - [26/Jun/2017:09:01:43 +0000] "GET /adjuncts/f4615a68/lib/layout/breadcrumbs.js HTTP/1.1" 503 1638
91.215.65.18 - - [26/Jun/2017:09:01:43 +0000] "GET /static/f4615a68/assets/jquery-detached/jsmodules/jquery2.js HTTP/1.1" 503 1638
91.215.65.18 - - [26/Jun/2017:09:01:43 +0000] "GET /static/f4615a68/images/headshot.png HTTP/1.1" 200 2409
91.215.65.18 - - [26/Jun/2017:09:01:43 +0000] "GET /static/f4615a68/images/title.png HTTP/1.1" 200 2510
91.215.65.18 - - [26/Jun/2017:09:01:43 +0000] "GET /static/f4615a68/images/16x16/help.png HTTP/1.1" 200 763
91.215.65.18 - - [26/Jun/2017:09:01:43 +0000] "GET /adjuncts/f4615a68/lib/layout/breadcrumbs.css HTTP/1.1" 503 1638
91.215.65.18 - - [26/Jun/2017:09:01:43 +0000] "GET /static/f4615a68/images/16x16/search.png HTTP/1.1" 200 774
91.215.65.18 - - [26/Jun/2017:09:01:43 +0000] "GET /static/f4615a68/images/top-sticker-bottom-edge.png HTTP/1.1" 200 331
91.215.65.18 - - [26/Jun/2017:09:01:43 +0000] "GET /static/f4615a68/favicon.ico HTTP/1.1" 200 17542
91.215.65.18 - - [26/Jun/2017:09:01:48 +0000] "GET / HTTP/1.1" 503 1638
91.215.65.18 - - [26/Jun/2017:09:01:53 +0000] "GET / HTTP/1.1" 503 1638
91.215.65.18 - - [26/Jun/2017:09:01:58 +0000] "GET / HTTP/1.1" 503 1638
91.215.65.18 - - [26/Jun/2017:09:02:04 +0000] "GET / HTTP/1.1" 503 1637
91.215.65.18 - - [26/Jun/2017:09:02:09 +0000] "GET / HTTP/1.1" 503 1638
91.215.65.18 - - [26/Jun/2017:09:02:14 +0000] "GET / HTTP/1.1" 403 1004
91.215.65.18 - - [26/Jun/2017:09:02:14 +0000] "GET / HTTP/1.1" 403 793
91.215.65.18 - - [26/Jun/2017:09:02:14 +0000] "GET /favicon.ico HTTP/1.1" 200 17542
91.215.65.18 - - [26/Jun/2017:09:02:18 +0000] "GET /login?from=%2F HTTP/1.1" 200 3502
91.215.65.18 - - [26/Jun/2017:09:02:18 +0000] "GET /adjuncts/f4615a68/org/kohsuke/stapler/bind.js HTTP/1.1" 200 936
91.215.65.18 - - [26/Jun/2017:09:02:18 +0000] "GET /adjuncts/f4615a68/lib/layout/breadcrumbs.css HTTP/1.1" 200 717
91.215.65.18 - - [26/Jun/2017:09:02:18 +0000] "GET /adjuncts/f4615a68/lib/layout/breadcrumbs.js HTTP/1.1" 200 3019
91.215.65.18 - - [26/Jun/2017:09:02:18 +0000] "GET /adjuncts/f4615a68/lib/layout/menu_down_arrow.png HTTP/1.1" 200 2767
91.215.65.18 - - [26/Jun/2017:09:02:18 +0000] "GET /static/f4615a68/assets/jquery-detached/jsmodules/jquery2.js HTTP/1.1" 200 39262
91.215.65.18 - - [26/Jun/2017:09:02:18 +0000] "GET /adjuncts/f4615a68/lib/layout/menu_right_arrow2.png HTTP/1.1" 200 2764
91.215.65.18 - - [26/Jun/2017:09:04:46 +0000] "POST /j_acegi_security_check HTTP/1.1" 302 -
91.215.65.18 - - [26/Jun/2017:09:05:01 +0000] "GET / HTTP/1.1" 200 7466
91.215.65.18 - - [26/Jun/2017:09:05:01 +0000] "GET /static/f4615a68/scripts/yui/cookie/cookie-min.js HTTP/1.1" 200 1430
91.215.65.18 - - [26/Jun/2017:09:05:01 +0000] "GET /adjuncts/f4615a68/jenkins/management/AdministrativeMonitorsDecorator/resources.css HTTP/1.1" 200 593
91.215.65.18 - - [26/Jun/2017:09:05:01 +0000] "GET /adjuncts/f4615a68/jenkins/management/AdministrativeMonitorsDecorator/resources.js HTTP/1.1" 200 376
91.215.65.18 - - [26/Jun/2017:09:05:01 +0000] "GET /static/f4615a68/plugin/credentials/images/24x24/credentials.png HTTP/1.1" 200 1572
91.215.65.18 - - [26/Jun/2017:09:05:01 +0000] "GET /static/f4615a68/images/24x24/gear2.png HTTP/1.1" 200 1460
91.215.65.18 - - [26/Jun/2017:09:05:01 +0000] "GET /static/f4615a68/images/24x24/new-package.png HTTP/1.1" 200 922
91.215.65.18 - - [26/Jun/2017:09:05:01 +0000] "GET /static/f4615a68/images/24x24/notepad.png HTTP/1.1" 200 955
91.215.65.18 - - [26/Jun/2017:09:05:01 +0000] "GET /static/f4615a68/images/24x24/user.png HTTP/1.1" 200 1242
91.215.65.18 - - [26/Jun/2017:09:05:02 +0000] "GET /static/f4615a68/images/24x24/fingerprint.png HTTP/1.1" 200 739
91.215.65.18 - - [26/Jun/2017:09:05:02 +0000] "GET /static/f4615a68/images/24x24/search.png HTTP/1.1" 200 1309
91.215.65.18 - - [26/Jun/2017:09:05:02 +0000] "GET /static/f4615a68/images/16x16/collapse.png HTTP/1.1" 200 168
91.215.65.18 - - [26/Jun/2017:09:05:02 +0000] "GET /static/f4615a68/images/32x32/health-00to19.png HTTP/1.1" 200 1937
91.215.65.18 - - [26/Jun/2017:09:05:02 +0000] "GET /static/f4615a68/images/24x24/clock.png HTTP/1.1" 200 1528
91.215.65.18 - - [26/Jun/2017:09:05:02 +0000] "GET /static/f4615a68/images/32x32/red.png HTTP/1.1" 200 1527
91.215.65.18 - - [26/Jun/2017:09:05:02 +0000] "GET /static/f4615a68/images/32x32/blue.png HTTP/1.1" 200 1656
91.215.65.18 - - [26/Jun/2017:09:05:02 +0000] "GET /static/f4615a68/images/32x32/health-80plus.png HTTP/1.1" 200 1270
91.215.65.18 - - [26/Jun/2017:09:05:02 +0000] "GET /static/f4615a68/images/32x32/disabled.png HTTP/1.1" 200 1245
91.215.65.18 - - [26/Jun/2017:09:05:02 +0000] "GET /static/f4615a68/images/32x32/nobuilt.png HTTP/1.1" 200 1245
91.215.65.18 - - [26/Jun/2017:09:05:02 +0000] "GET /static/f4615a68/images/32x32/health-40to59.png HTTP/1.1" 200 1320
91.215.65.18 - - [26/Jun/2017:09:05:02 +0000] "GET /static/f4615a68/images/32x32/health-60to79.png HTTP/1.1" 200 1743
91.215.65.18 - - [26/Jun/2017:09:05:02 +0000] "GET /static/f4615a68/images/32x32/health-20to39.png HTTP/1.1" 200 1808
91.215.65.18 - - [26/Jun/2017:09:05:02 +0000] "GET /static/f4615a68/images/16x16/health-00to19.png HTTP/1.1" 200 643
91.215.65.18 - - [26/Jun/2017:09:05:02 +0000] "GET /static/f4615a68/images/16x16/warning.png HTTP/1.1" 200 487
91.215.65.18 - - [26/Jun/2017:09:05:02 +0000] "GET /static/f4615a68/images/16x16/error.png HTTP/1.1" 200 543
91.215.65.18 - - [26/Jun/2017:09:05:02 +0000] "GET /static/f4615a68/images/16x16/health-60to79.png HTTP/1.1" 200 652
91.215.65.18 - - [26/Jun/2017:09:05:02 +0000] "GET /static/f4615a68/images/32x32/aborted.png HTTP/1.1" 200 1245
91.215.65.18 - - [26/Jun/2017:09:05:02 +0000] "GET /static/f4615a68/images/16x16/health-80plus.png HTTP/1.1" 200 481
91.215.65.18 - - [26/Jun/2017:09:05:02 +0000] "GET /static/f4615a68/images/16x16/health-20to39.png HTTP/1.1" 200 762
91.215.65.18 - - [26/Jun/2017:09:05:02 +0000] "GET /static/f4615a68/images/atom.gif HTTP/1.1" 200 644
91.215.65.18 - - [26/Jun/2017:09:05:02 +0000] "GET /static/f4615a68/images/16x16/health-40to59.png HTTP/1.1" 200 518
91.215.65.18 - - [26/Jun/2017:09:05:02 +0000] "GET /static/f4615a68/images/16x16/notepad.png HTTP/1.1" 200 383
91.215.65.18 - - [26/Jun/2017:09:05:07 +0000] "POST /ajaxBuildQueue HTTP/1.1" 200 308
91.215.65.18 - - [26/Jun/2017:09:05:07 +0000] "POST /ajaxExecutors HTTP/1.1" 200 375
91.215.65.18 - - [26/Jun/2017:09:05:11 +0000] "POST /ajaxBuildQueue HTTP/1.1" 200 308
91.215.65.18 - - [26/Jun/2017:09:05:11 +0000] "POST /ajaxExecutors HTTP/1.1" 200 375
91.215.65.18 - - [26/Jun/2017:09:05:16 +0000] "POST /ajaxBuildQueue HTTP/1.1" 200 308
91.215.65.18 - - [26/Jun/2017:09:05:16 +0000] "POST /ajaxExecutors HTTP/1.1" 200 375
91.215.65.18 - - [26/Jun/2017:09:06:26 +0000] "POST /ajaxBuildQueue HTTP/1.1" 200 308
91.215.65.18 - - [26/Jun/2017:09:06:27 +0000] "POST /ajaxExecutors HTTP/1.1" 200 375
91.215.65.18 - - [26/Jun/2017:09:07:12 +0000] "POST /ajaxExecutors HTTP/1.1" 200 375
91.215.65.18 - - [26/Jun/2017:09:07:12 +0000] "POST /ajaxBuildQueue HTTP/1.1" 200 308
91.215.65.18 - - [26/Jun/2017:09:07:16 +0000] "POST /ajaxBuildQueue HTTP/1.1" 200 308
91.215.65.18 - - [26/Jun/2017:09:07:16 +0000] "POST /ajaxExecutors HTTP/1.1" 200 375
91.215.65.18 - - [26/Jun/2017:09:07:21 +0000] "POST /ajaxExecutors HTTP/1.1" 200 375
91.215.65.18 - - [26/Jun/2017:09:07:21 +0000] "POST /ajaxBuildQueue HTTP/1.1" 200 308
91.215.65.18 - - [26/Jun/2017:09:07:26 +0000] "POST /ajaxExecutors HTTP/1.1" 200 375
91.215.65.18 - - [26/Jun/2017:09:07:26 +0000] "POST /ajaxBuildQueue HTTP/1.1" 200 308
91.215.65.18 - - [26/Jun/2017:09:07:31 +0000] "POST /ajaxBuildQueue HTTP/1.1" 200 308
91.215.65.18 - - [26/Jun/2017:09:07:31 +0000] "POST /ajaxExecutors HTTP/1.1" 200 375
91.215.65.18 - - [26/Jun/2017:09:07:36 +0000] "POST /ajaxBuildQueue HTTP/1.1" 200 308
91.215.65.18 - - [26/Jun/2017:09:07:36 +0000] "POST /ajaxExecutors HTTP/1.1" 200 375
91.215.65.18 - - [26/Jun/2017:09:07:41 +0000] "POST /ajaxBuildQueue HTTP/1.1" 200 308
91.215.65.18 - - [26/Jun/2017:09:07:41 +0000] "POST /ajaxExecutors HTTP/1.1" 200 375
91.215.65.18 - - [26/Jun/2017:09:07:46 +0000] "POST /ajaxBuildQueue HTTP/1.1" 200 308
91.215.65.18 - - [26/Jun/2017:09:07:46 +0000] "POST /ajaxExecutors HTTP/1.1" 200 375
91.215.65.18 - - [26/Jun/2017:09:07:51 +0000] "POST /ajaxBuildQueue HTTP/1.1" 200 308
91.215.65.18 - - [26/Jun/2017:09:07:51 +0000] "POST /ajaxExecutors HTTP/1.1" 200 375
91.215.65.18 - - [26/Jun/2017:09:07:56 +0000] "POST /ajaxBuildQueue HTTP/1.1" 200 308
91.215.65.18 - - [26/Jun/2017:09:07:56 +0000] "POST /ajaxExecutors HTTP/1.1" 200 375
91.215.65.18 - - [26/Jun/2017:09:08:01 +0000] "POST /ajaxBuildQueue HTTP/1.1" 200 308
91.215.65.18 - - [26/Jun/2017:09:08:01 +0000] "POST /ajaxExecutors HTTP/1.1" 200 375
91.215.65.18 - - [26/Jun/2017:09:08:06 +0000] "POST /ajaxBuildQueue HTTP/1.1" 200 308
91.215.65.18 - - [26/Jun/2017:09:08:06 +0000] "POST /ajaxExecutors HTTP/1.1" 200 375
91.215.65.18 - - [26/Jun/2017:09:08:11 +0000] "POST /ajaxBuildQueue HTTP/1.1" 200 308
91.215.65.18 - - [26/Jun/2017:09:08:11 +0000] "POST /ajaxExecutors HTTP/1.1" 200 375
91.215.65.18 - - [26/Jun/2017:09:08:16 +0000] "POST /ajaxBuildQueue HTTP/1.1" 200 308
91.215.65.18 - - [26/Jun/2017:09:08:16 +0000] "POST /ajaxExecutors HTTP/1.1" 200 375
91.215.65.18 - - [26/Jun/2017:09:08:21 +0000] "POST /ajaxBuildQueue HTTP/1.1" 200 308
91.215.65.18 - - [26/Jun/2017:09:08:21 +0000] "POST /ajaxExecutors HTTP/1.1" 200 375
91.215.65.18 - - [26/Jun/2017:09:08:26 +0000] "POST /ajaxBuildQueue HTTP/1.1" 200 308
91.215.65.18 - - [26/Jun/2017:09:08:27 +0000] "POST /ajaxExecutors HTTP/1.1" 200 375
91.215.65.18 - - [26/Jun/2017:09:08:31 +0000] "POST /ajaxBuildQueue HTTP/1.1" 200 308
91.215.65.18 - - [26/Jun/2017:09:08:31 +0000] "POST /ajaxExecutors HTTP/1.1" 200 375
91.215.65.18 - - [26/Jun/2017:09:08:36 +0000] "POST /ajaxBuildQueue HTTP/1.1" 200 308
91.215.65.18 - - [26/Jun/2017:09:08:36 +0000] "POST /ajaxExecutors HTTP/1.1" 200 375
91.215.65.18 - - [26/Jun/2017:09:08:41 +0000] "POST /ajaxBuildQueue HTTP/1.1" 200 308
91.215.65.18 - - [26/Jun/2017:09:08:41 +0000] "POST /ajaxExecutors HTTP/1.1" 200 375
91.215.65.18 - - [26/Jun/2017:09:08:46 +0000] "POST /ajaxBuildQueue HTTP/1.1" 200 308
91.215.65.18 - - [26/Jun/2017:09:08:46 +0000] "POST /ajaxExecutors HTTP/1.1" 200 375
91.215.65.18 - - [26/Jun/2017:09:08:51 +0000] "POST /ajaxBuildQueue HTTP/1.1" 200 308
91.215.65.18 - - [26/Jun/2017:09:08:51 +0000] "POST /ajaxExecutors HTTP/1.1" 200 375
91.215.65.18 - - [26/Jun/2017:09:08:56 +0000] "POST /ajaxBuildQueue HTTP/1.1" 200 308
91.215.65.18 - - [26/Jun/2017:09:08:56 +0000] "POST /ajaxExecutors HTTP/1.1" 200 375
91.215.65.18 - - [26/Jun/2017:09:09:01 +0000] "POST /ajaxBuildQueue HTTP/1.1" 200 308
91.215.65.18 - - [26/Jun/2017:09:09:01 +0000] "POST /ajaxExecutors HTTP/1.1" 200 375
91.215.65.18 - - [26/Jun/2017:09:09:06 +0000] "POST /ajaxExecutors HTTP/1.1" 200 375
91.215.65.18 - - [26/Jun/2017:09:09:06 +0000] "POST /ajaxBuildQueue HTTP/1.1" 200 308
91.215.65.18 - - [26/Jun/2017:09:09:11 +0000] "POST /ajaxBuildQueue HTTP/1.1" 200 308
91.215.65.18 - - [26/Jun/2017:09:09:11 +0000] "POST /ajaxExecutors HTTP/1.1" 200 375
91.215.65.18 - - [26/Jun/2017:09:09:16 +0000] "POST /ajaxBuildQueue HTTP/1.1" 200 308
91.215.65.18 - - [26/Jun/2017:09:09:16 +0000] "POST /ajaxExecutors HTTP/1.1" 200 375
91.215.65.18 - - [26/Jun/2017:09:09:21 +0000] "POST /ajaxBuildQueue HTTP/1.1" 200 308
91.215.65.18 - - [26/Jun/2017:09:09:21 +0000] "POST /ajaxExecutors HTTP/1.1" 200 375
91.215.65.18 - - [26/Jun/2017:09:09:26 +0000] "POST /ajaxBuildQueue HTTP/1.1" 200 308
91.215.65.18 - - [26/Jun/2017:09:09:27 +0000] "POST /ajaxExecutors HTTP/1.1" 200 375
91.215.65.18 - - [26/Jun/2017:09:09:31 +0000] "POST /ajaxBuildQueue HTTP/1.1" 200 308
91.215.65.18 - - [26/Jun/2017:09:09:31 +0000] "POST /ajaxExecutors HTTP/1.1" 200 375
91.215.65.18 - - [26/Jun/2017:09:09:36 +0000] "POST /ajaxExecutors HTTP/1.1" 200 375
91.215.65.18 - - [26/Jun/2017:09:09:36 +0000] "POST /ajaxBuildQueue HTTP/1.1" 200 308
91.215.65.18 - - [26/Jun/2017:09:09:41 +0000] "POST /ajaxBuildQueue HTTP/1.1" 200 308
91.215.65.18 - - [26/Jun/2017:09:09:41 +0000] "POST /ajaxExecutors HTTP/1.1" 200 375
91.215.65.18 - - [26/Jun/2017:09:09:46 +0000] "POST /ajaxExecutors HTTP/1.1" 200 375
91.215.65.18 - - [26/Jun/2017:09:09:47 +0000] "POST /ajaxBuildQueue HTTP/1.1" 200 308
91.215.65.18 - - [26/Jun/2017:09:09:51 +0000] "POST /ajaxExecutors HTTP/1.1" 200 375
91.215.65.18 - - [26/Jun/2017:09:09:51 +0000] "POST /ajaxBuildQueue HTTP/1.1" 200 308
91.215.65.18 - - [26/Jun/2017:09:09:56 +0000] "POST /ajaxExecutors HTTP/1.1" 200 375
91.215.65.18 - - [26/Jun/2017:09:09:56 +0000] "POST /ajaxBuildQueue HTTP/1.1" 200 308
91.215.65.18 - - [26/Jun/2017:09:10:01 +0000] "POST /ajaxBuildQueue HTTP/1.1" 200 308
91.215.65.18 - - [26/Jun/2017:09:10:01 +0000] "POST /ajaxExecutors HTTP/1.1" 200 375
91.215.65.18 - - [26/Jun/2017:09:10:06 +0000] "POST /ajaxBuildQueue HTTP/1.1" 200 308
91.215.65.18 - - [26/Jun/2017:09:10:06 +0000] "POST /ajaxExecutors HTTP/1.1" 200 375
91.215.65.18 - - [26/Jun/2017:09:10:11 +0000] "POST /ajaxBuildQueue HTTP/1.1" 200 308
91.215.65.18 - - [26/Jun/2017:09:10:11 +0000] "POST /ajaxExecutors HTTP/1.1" 200 375
91.215.65.18 - - [26/Jun/2017:09:10:16 +0000] "POST /ajaxBuildQueue HTTP/1.1" 200 308
91.215.65.18 - - [26/Jun/2017:09:10:16 +0000] "POST /ajaxExecutors HTTP/1.1" 200 375
91.215.65.18 - - [26/Jun/2017:09:10:21 +0000] "POST /ajaxBuildQueue HTTP/1.1" 200 308
91.215.65.18 - - [26/Jun/2017:09:10:21 +0000] "POST /ajaxExecutors HTTP/1.1" 200 375
91.215.65.18 - - [26/Jun/2017:09:10:26 +0000] "GET /job/generar-paquete-demo-pro/ HTTP/1.1" 200 5387
91.215.65.18 - - [26/Jun/2017:09:10:27 +0000] "GET /static/f4615a68/images/24x24/up.png HTTP/1.1" 200 769
91.215.65.18 - - [26/Jun/2017:09:10:27 +0000] "GET /static/f4615a68/plugin/cloudbees-folder/images/24x24/folder.png HTTP/1.1" 200 1007
91.215.65.18 - - [26/Jun/2017:09:10:27 +0000] "GET /static/f4615a68/images/24x24/edit-delete.png HTTP/1.1" 200 1236
91.215.65.18 - - [26/Jun/2017:09:10:27 +0000] "GET /static/f4615a68/images/16x16/go_up.png HTTP/1.1" 200 192
91.215.65.18 - - [26/Jun/2017:09:10:27 +0000] "GET /static/f4615a68/images/16x16/go_down.png HTTP/1.1" 200 193
91.215.65.18 - - [26/Jun/2017:09:10:27 +0000] "GET /static/f4615a68/images/48x48/notepad.png HTTP/1.1" 200 2282
91.215.65.18 - - [26/Jun/2017:09:10:27 +0000] "GET /static/f4615a68/images/16x16/go_top.png HTTP/1.1" 200 211
91.215.65.18 - - [26/Jun/2017:09:10:27 +0000] "GET /static/f4615a68/images/16x16/red.png HTTP/1.1" 200 639
91.215.65.18 - - [26/Jun/2017:09:10:27 +0000] "GET /static/f4615a68/plugin/cloudbees-folder/images/48x48/folder.png HTTP/1.1" 200 1873
91.215.65.18 - - [26/Jun/2017:09:10:27 +0000] "GET /static/f4615a68/images/16x16/blue.png HTTP/1.1" 200 656
91.215.65.18 - - [26/Jun/2017:09:10:27 +0000] "GET /static/f4615a68/images/24x24/clipboard.png HTTP/1.1" 200 819
91.215.65.18 - - [26/Jun/2017:09:10:27 +0000] "GET /static/f4615a68/plugin/email-ext/images/template-debugger.png HTTP/1.1" 200 818
91.215.65.18 - - [26/Jun/2017:09:10:32 +0000] "POST /job/generar-paquete-demo-pro/buildHistory/ajax HTTP/1.1" 200 51
91.215.65.18 - - [26/Jun/2017:09:10:34 +0000] "GET /resources/f4615a68/hudson/security/table.css HTTP/1.1" 200 976
91.215.65.18 - - [26/Jun/2017:09:10:34 +0000] "GET /adjuncts/f4615a68/lib/form/textarea/textarea.js HTTP/1.1" 200 1134
91.215.65.18 - - [26/Jun/2017:09:10:34 +0000] "GET /adjuncts/f4615a68/lib/form/section_.css HTTP/1.1" 200 127
91.215.65.18 - - [26/Jun/2017:09:10:34 +0000] "GET /adjuncts/f4615a68/lib/form/textarea/textarea.css HTTP/1.1" 200 99
91.215.65.18 - - [26/Jun/2017:09:10:34 +0000] "GET /adjuncts/f4615a68/lib/form/hetero-list/hetero-list.js HTTP/1.1" 200 2033
91.215.65.18 - - [26/Jun/2017:09:10:34 +0000] "GET /adjuncts/f4615a68/lib/form/section_.js HTTP/1.1" 200 712
91.215.65.18 - - [26/Jun/2017:09:10:34 +0000] "GET /adjuncts/f4615a68/lib/form/advanced/advanced.js HTTP/1.1" 200 527
91.215.65.18 - - [26/Jun/2017:09:10:34 +0000] "GET /adjuncts/f4615a68/lib/form/dragdrop/dragdrop.js HTTP/1.1" 200 1243
91.215.65.18 - - [26/Jun/2017:09:10:34 +0000] "GET /adjuncts/f4615a68/lib/form/repeatable/repeatable.js HTTP/1.1" 200 1815
91.215.65.18 - - [26/Jun/2017:09:10:34 +0000] "GET /static/f4615a68/images/textarea-handle.gif HTTP/1.1" 200 52
91.215.65.18 - - [26/Jun/2017:09:10:34 +0000] "GET /static/f4615a68/images/16x16/stop.png HTTP/1.1" 200 486
91.215.65.18 - - [26/Jun/2017:09:10:34 +0000] "GET /adjuncts/f4615a68/lib/form/radioBlock/radioBlock.js HTTP/1.1" 200 947
91.215.65.18 - - [26/Jun/2017:09:10:34 +0000] "GET /adjuncts/f4615a68/lib/form/select/select.js HTTP/1.1" 200 1323
91.215.65.18 - - [26/Jun/2017:09:10:34 +0000] "GET /static/f4615a68/images/16x16/edit-select-all.png HTTP/1.1" 200 329
91.215.65.18 - - [26/Jun/2017:09:10:36 +0000] "GET /static/f4615a68/plugin/credentials/images/16x16/system-store.png HTTP/1.1" 200 1010
91.215.65.18 - - [26/Jun/2017:09:10:36 +0000] "GET /static/f4615a68/plugin/credentials/images/16x16/new-credential.png HTTP/1.1" 200 755
91.215.65.18 - - [26/Jun/2017:09:10:36 +0000] "GET /adjuncts/f4615a68/lib/credentials/select/select.css HTTP/1.1" 200 266
91.215.65.18 - - [26/Jun/2017:09:10:36 +0000] "GET /static/f4615a68/images/grip.png HTTP/1.1" 200 92
91.215.65.18 - - [26/Jun/2017:09:10:36 +0000] "GET /adjuncts/f4615a68/lib/credentials/select/select.js HTTP/1.1" 200 3606
91.215.65.18 - - [26/Jun/2017:09:10:37 +0000] "GET /job/generar-paquete-demo-pro/descriptorByName/hudson.plugins.git.UserRemoteConfig/checkCredentialsId?value=&url= HTTP/1.1" 200 6
91.215.65.18 - - [26/Jun/2017:09:10:37 +0000] "POST /job/generar-paquete-demo-pro/descriptorByName/hudson.plugins.git.UserRemoteConfig/fillCredentialsIdItems HTTP/1.1" 200 265
91.215.65.18 - - [26/Jun/2017:09:10:37 +0000] "GET /static/f4615a68/scripts/yui/button/assets/skins/sam/menu-button-arrow.png HTTP/1.1" 200 91
91.215.65.18 - - [26/Jun/2017:09:10:37 +0000] "GET /job/generar-paquete-demo-pro/configure HTTP/1.1" 200 27889
91.215.65.18 - - [26/Jun/2017:09:10:37 +0000] "POST /job/generar-paquete-demo-pro/descriptorByName/hudson.plugins.git.UserRemoteConfig/fillCredentialsIdItems HTTP/1.1" 200 265
91.215.65.18 - - [26/Jun/2017:09:10:37 +0000] "POST /job/generar-paquete-demo-pro/descriptorByName/hudson.scm.SubversionSCM$ModuleLocation/fillCredentialsIdItems HTTP/1.1" 200 265
91.215.65.18 - - [26/Jun/2017:09:10:37 +0000] "POST /job/generar-paquete-demo-pro/descriptorByName/hudson.scm.SubversionSCM$AdditionalCredentials/fillCredentialsIdItems HTTP/1.1" 200 265
91.215.65.18 - - [26/Jun/2017:09:10:37 +0000] "GET /job/generar-paquete-demo-pro/descriptorByName/hudson.plugins.git.UserRemoteConfig/checkCredentialsId?value=f29a8542-0f32-43bf-ad46-f14f250b2b1c&url=http%3A%2F%2F40.69.74.208%3A8081%2Fscm%2Fdem%2Fdemoessentials.git HTTP/1.1" 200 6
91.215.65.18 - - [26/Jun/2017:09:10:37 +0000] "POST /job/generar-paquete-demo-pro/descriptorByName/hudson.scm.SubversionSCM$ModuleLocation/fillCredentialsIdItems HTTP/1.1" 200 265
91.215.65.18 - - [26/Jun/2017:09:10:37 +0000] "GET /adjuncts/f4615a68/org/kohsuke/stapler/codemirror/lib/codemirror.css HTTP/1.1" 200 1524
91.215.65.18 - - [26/Jun/2017:09:10:37 +0000] "GET /adjuncts/f4615a68/org/kohsuke/stapler/codemirror/theme/default.css HTTP/1.1" 200 20
91.215.65.18 - - [26/Jun/2017:09:10:37 +0000] "GET /static/f4615a68/plugin/github/js/warning.js HTTP/1.1" 200 340
91.215.65.18 - - [26/Jun/2017:09:10:37 +0000] "GET /adjuncts/f4615a68/hudson/plugins/build_timeout/nestedHelp.js HTTP/1.1" 200 1136
91.215.65.18 - - [26/Jun/2017:09:10:37 +0000] "GET /adjuncts/f4615a68/org/kohsuke/stapler/codemirror/lib/codemirror.js HTTP/1.1" 200 35283
91.215.65.18 - - [26/Jun/2017:09:10:37 +0000] "GET /job/generar-paquete-demo-pro/descriptorByName/hudson.scm.SubversionSCM$ModuleLocation/checkCredentialsId?value=&remote= HTTP/1.1" 200 6
91.215.65.18 - - [26/Jun/2017:09:10:37 +0000] "GET /adjuncts/f4615a68/org/kohsuke/stapler/codemirror/mode/shell/shell.js HTTP/1.1" 200 1200
91.215.65.18 - - [26/Jun/2017:09:10:37 +0000] "GET /adjuncts/f4615a68/lib/form/apply/apply.js HTTP/1.1" 200 1245
91.215.65.18 - - [26/Jun/2017:09:10:37 +0000] "GET /adjuncts/f4615a68/lib/form/confirm.js HTTP/1.1" 200 730
91.215.65.18 - - [26/Jun/2017:09:10:37 +0000] "GET /job/generar-paquete-demo-pro/descriptorByName/hudson.scm.SubversionSCM$ModuleLocation/checkCredentialsId?value=&remote= HTTP/1.1" 200 6
91.215.65.18 - - [26/Jun/2017:09:10:37 +0000] "GET /static/f4615a68/jsbundles/config-scrollspy.js HTTP/1.1" 200 18495
91.215.65.18 - - [26/Jun/2017:09:10:37 +0000] "GET /static/f4615a68/jsbundles/config-scrollspy.css HTTP/1.1" 200 2226
91.215.65.18 - - [26/Jun/2017:09:10:38 +0000] "GET /job/generar-paquete-demo-pro/descriptorByName/hudson.security.AuthorizationMatrixProperty/checkName?value=%5Bdemo%5D HTTP/1.1" 200 96
91.215.65.18 - - [26/Jun/2017:09:10:38 +0000] "GET /static/f4615a68/scripts/yui/assets/skins/sam/sprite.png HTTP/1.1" 200 3128
91.215.65.18 - - [26/Jun/2017:09:10:38 +0000] "GET /job/generar-paquete-demo-pro/descriptorByName/jenkins.branch.RateLimitBranchProperty$JobPropertyImpl/checkCount?value=1&durationName= HTTP/1.1" 200 121
91.215.65.18 - - [26/Jun/2017:09:10:38 +0000] "GET /job/generar-paquete-demo-pro/descriptorByName/hudson.tasks.Shell/checkUnstableReturn?value= HTTP/1.1" 200 6
91.215.65.18 - - [26/Jun/2017:09:10:38 +0000] "POST /job/generar-paquete-demo-pro/descriptorByName/jenkins.branch.RateLimitBranchProperty$JobPropertyImpl/fillDurationNameItems HTTP/1.1" 200 146
91.215.65.18 - - [26/Jun/2017:09:10:38 +0000] "POST /job/generar-paquete-demo-pro/descriptorByName/hudson.scm.SubversionSCM$ModuleLocation/fillCredentialsIdItems HTTP/1.1" 200 265
91.215.65.18 - - [26/Jun/2017:09:10:38 +0000] "POST /job/generar-paquete-demo-pro/descriptorByName/hudson.plugins.git.UserRemoteConfig/fillCredentialsIdItems HTTP/1.1" 200 265
91.215.65.18 - - [26/Jun/2017:09:10:38 +0000] "POST /$stapler/bound/abce0bd4-1d37-4e90-bd99-6a5a7be5d905/render HTTP/1.1" 200 394
91.215.65.18 - - [26/Jun/2017:09:10:38 +0000] "POST /$stapler/bound/81d620c0-699f-49e5-a828-7ea2bedd0fcd/render HTTP/1.1" 200 180
91.215.65.18 - - [26/Jun/2017:09:10:38 +0000] "GET /job/generar-paquete-demo-pro/descriptorByName/hudson.plugins.copyartifact.CopyArtifactPermissionProperty/checkProjectNames?value=&projectNames= HTTP/1.1" 200 6
91.215.65.18 - - [26/Jun/2017:09:10:38 +0000] "GET /job/generar-paquete-demo-pro/descriptorByName/hudson.tasks.Shell/checkUnstableReturn?value= HTTP/1.1" 200 6
91.215.65.18 - - [26/Jun/2017:09:10:38 +0000] "GET /static/f4615a68/images/16x16/person.png HTTP/1.1" 200 474
91.215.65.18 - - [26/Jun/2017:09:10:38 +0000] "POST /$stapler/bound/c4cec60a-5280-4f06-9e4d-a71eb943226d/render HTTP/1.1" 200 695
91.215.65.18 - - [26/Jun/2017:09:10:38 +0000] "GET /job/generar-paquete-demo-pro/descriptorByName/jenkins.branch.RateLimitBranchProperty$JobPropertyImpl/checkCount?value=1&durationName= HTTP/1.1" 200 121
91.215.65.18 - - [26/Jun/2017:09:10:38 +0000] "GET /job/generar-paquete-demo-pro/descriptorByName/hudson.tasks.Shell/checkUnstableReturn?value= HTTP/1.1" 200 6
91.215.65.18 - - [26/Jun/2017:09:10:38 +0000] "GET /job/generar-paquete-demo-pro/descriptorByName/hudson.model.FreeStyleProject/checkCustomWorkspace?value=&customWorkspace= HTTP/1.1" 200 111
91.215.65.18 - - [26/Jun/2017:09:10:38 +0000] "GET /static/f4615a68/images/bottom-sticker-top-edge.png HTTP/1.1" 200 331
91.215.65.18 - - [26/Jun/2017:09:10:38 +0000] "GET /static/f4615a68/images/none.gif HTTP/1.1" 200 115
91.215.65.18 - - [26/Jun/2017:09:10:38 +0000] "GET /checkDisplayName?displayName=&jobName=generar-paquete-demo-pro HTTP/1.1" 200 6
91.215.65.18 - - [26/Jun/2017:09:10:38 +0000] "GET /job/generar-paquete-demo-pro/descriptorByName/hudson.plugins.git.UserRemoteConfig/checkUrl?value=http%3A%2F%2F40.69.74.208%3A8081%2Fscm%2Fdem%2Fdemoessentials.git&credentialsId=f29a8542-0f32-43bf-ad46-f14f250b2b1c HTTP/1.1" 200 411
91.215.65.18 - - [26/Jun/2017:09:10:38 +0000] "GET /job/generar-paquete-demo-pro/descriptorByName/hudson.scm.SubversionSCM$ModuleLocation/checkRemote?value=&remote= HTTP/1.1" 200 112
91.215.65.18 - - [26/Jun/2017:09:10:38 +0000] "GET /job/generar-paquete-demo-pro/descriptorByName/hudson.scm.SubversionSCM$ModuleLocation/checkLocal?value=. HTTP/1.1" 200 6
91.215.65.18 - - [26/Jun/2017:09:10:38 +0000] "GET /job/generar-paquete-demo-pro/descriptorByName/hudson.scm.SubversionSCM/checkRevisionPropertiesSupported?value=&credentialsId=null&excludedRevprop= HTTP/1.1" 200 6
91.215.65.18 - - [26/Jun/2017:09:10:38 +0000] "GET /job/generar-paquete-demo-pro/descriptorByName/jenkins.triggers.ReverseBuildTrigger/checkUpstreamProjects?value= HTTP/1.1" 200 105
91.215.65.18 - - [26/Jun/2017:09:10:38 +0000] "GET /job/generar-paquete-demo-pro/descriptorByName/hudson.tasks.Shell/checkUnstableReturn?value= HTTP/1.1" 200 6
91.215.65.18 - - [26/Jun/2017:09:10:39 +0000] "GET /job/generar-paquete-demo-pro/descriptorByName/hudson.tasks.Shell/checkUnstableReturn?value= HTTP/1.1" 200 6
91.215.65.18 - - [26/Jun/2017:09:10:39 +0000] "GET /job/generar-paquete-demo-pro/descriptorByName/hudson.tasks.Shell/checkUnstableReturn?value= HTTP/1.1" 200 6
91.215.65.18 - - [26/Jun/2017:09:10:39 +0000] "GET /job/generar-paquete-demo-pro/descriptorByName/hudson.plugins.git.UserRemoteConfig/checkCredentialsId?value=f29a8542-0f32-43bf-ad46-f14f250b2b1c&url=http%3A%2F%2F40.69.74.208%3A8081%2Fscm%2Fdem%2Fdemoessentials.git HTTP/1.1" 200 6
91.215.65.18 - - [26/Jun/2017:09:10:39 +0000] "GET /job/generar-paquete-demo-pro/descriptorByName/hudson.scm.SubversionSCM$ModuleLocation/checkCredentialsId?value=&remote= HTTP/1.1" 200 6
91.215.65.18 - - [26/Jun/2017:09:10:39 +0000] "GET /job/generar-paquete-demo-pro/descriptorByName/hudson.scm.SubversionSCM/checkExcludedRegions?value= HTTP/1.1" 200 6
91.215.65.18 - - [26/Jun/2017:09:10:39 +0000] "GET /job/generar-paquete-demo-pro/descriptorByName/hudson.scm.SubversionSCM/checkIncludedRegions?value= HTTP/1.1" 200 6
91.215.65.18 - - [26/Jun/2017:09:10:39 +0000] "GET /job/generar-paquete-demo-pro/descriptorByName/hudson.scm.SubversionSCM/checkExcludedUsers?value= HTTP/1.1" 200 6
91.215.65.18 - - [26/Jun/2017:09:10:39 +0000] "GET /job/generar-paquete-demo-pro/descriptorByName/hudson.scm.SubversionSCM/checkExcludedCommitMessages?value= HTTP/1.1" 200 6
91.215.65.18 - - [26/Jun/2017:09:10:39 +0000] "GET /job/generar-paquete-demo-pro/descriptorByName/hudson.triggers.TimerTrigger/checkSpec?value= HTTP/1.1" 200 117
91.215.65.18 - - [26/Jun/2017:09:10:39 +0000] "GET /trigger/TimerTrigger/check?value=%23%20every%20minute%0A*%20*%20*%20*%20* HTTP/1.1" 200 511
91.215.65.18 - - [26/Jun/2017:09:10:39 +0000] "GET /publisher/ExtendedEmailPublisher/recipientListRecipientsCheck?value=msantosa%40everis.com HTTP/1.1" 200 6
91.215.65.18 - - [26/Jun/2017:09:10:41 +0000] "GET /publisher/ExtendedEmailPublisher/recipientListRecipientsCheck?value=%24DEFAULT_REPLYTO HTTP/1.1" 200 6
91.215.65.18 - - [26/Jun/2017:09:15:16 +0000] "GET /adjuncts/f4615a68/lib/layout/menu_right_arrow.png HTTP/1.1" 200 2769
91.215.65.18 - - [26/Jun/2017:09:15:16 +0000] "GET / HTTP/1.1" 200 7467
91.215.65.18 - - [26/Jun/2017:09:15:21 +0000] "POST /ajaxBuildQueue HTTP/1.1" 200 308
91.215.65.18 - - [26/Jun/2017:09:15:21 +0000] "POST /ajaxExecutors HTTP/1.1" 200 375
91.215.65.18 - - [26/Jun/2017:09:15:26 +0000] "POST /ajaxBuildQueue HTTP/1.1" 200 308
91.215.65.18 - - [26/Jun/2017:09:15:26 +0000] "POST /ajaxExecutors HTTP/1.1" 200 375
91.215.65.18 - - [26/Jun/2017:09:15:31 +0000] "POST /ajaxBuildQueue HTTP/1.1" 200 308
91.215.65.18 - - [26/Jun/2017:09:15:31 +0000] "POST /ajaxExecutors HTTP/1.1" 200 375
91.215.65.18 - - [26/Jun/2017:09:15:36 +0000] "POST /ajaxBuildQueue HTTP/1.1" 200 308
91.215.65.18 - - [26/Jun/2017:09:15:36 +0000] "POST /ajaxExecutors HTTP/1.1" 200 375
91.215.65.18 - - [26/Jun/2017:09:15:41 +0000] "POST /ajaxBuildQueue HTTP/1.1" 200 308
91.215.65.18 - - [26/Jun/2017:09:15:41 +0000] "POST /ajaxExecutors HTTP/1.1" 200 375
91.215.65.18 - - [26/Jun/2017:09:15:46 +0000] "POST /ajaxBuildQueue HTTP/1.1" 200 308
91.215.65.18 - - [26/Jun/2017:09:15:46 +0000] "POST /ajaxExecutors HTTP/1.1" 200 375
91.215.65.18 - - [26/Jun/2017:09:15:50 +0000] "GET /scriptler HTTP/1.1" 302 -
91.215.65.18 - - [26/Jun/2017:09:15:51 +0000] "GET /scriptler/ HTTP/1.1" 200 3414
91.215.65.18 - - [26/Jun/2017:09:15:51 +0000] "GET /static/f4615a68/images/24x24/setting.png HTTP/1.1" 200 1181
91.215.65.18 - - [26/Jun/2017:09:15:51 +0000] "GET /static/f4615a68/images/24x24/next.png HTTP/1.1" 200 824
91.215.65.18 - - [26/Jun/2017:09:15:51 +0000] "GET /static/f4615a68/plugin/scriptler/images/Git-Icon-1788C.png HTTP/1.1" 200 4912
91.215.65.18 - - [26/Jun/2017:09:15:51 +0000] "GET /static/f4615a68/images/48x48/notepad.gif HTTP/1.1" 200 1301
91.215.65.18 - - [26/Jun/2017:09:15:56 +0000] "POST /ajaxExecutors HTTP/1.1" 200 375
91.215.65.18 - - [26/Jun/2017:09:16:01 +0000] "POST /ajaxExecutors HTTP/1.1" 200 375
91.215.65.18 - - [26/Jun/2017:09:16:01 +0000] "GET /scriptler.git HTTP/1.1" 302 -
91.215.65.18 - - [26/Jun/2017:09:16:01 +0000] "GET /scriptler.git/ HTTP/1.1" 200 2930
91.215.65.18 - - [26/Jun/2017:09:16:02 +0000] "GET /plugin/scriptler/images/Git-Icon-1788C.png HTTP/1.1" 200 4912
91.215.65.18 - - [26/Jun/2017:09:16:17 +0000] "GET /scriptler.git HTTP/1.1" 302 -
91.215.65.18 - - [26/Jun/2017:09:16:17 +0000] "GET /scriptler.git/ HTTP/1.1" 200 2929
91.215.65.18 - - [26/Jun/2017:09:16:17 +0000] "GET /plugin/scriptler/images/Git-Icon-1788C.png HTTP/1.1" 304 -
91.215.65.18 - - [26/Jun/2017:09:16:20 +0000] "GET /scriptler.git HTTP/1.1" 302 -
91.215.65.18 - - [26/Jun/2017:09:16:20 +0000] "GET /scriptler.git/ HTTP/1.1" 200 2930
91.215.65.18 - - [26/Jun/2017:09:16:20 +0000] "GET /plugin/scriptler/images/Git-Icon-1788C.png HTTP/1.1" 304 -
91.215.65.18 - - [26/Jun/2017:09:16:26 +0000] "GET /scriptler.git/ HTTP/1.1" 200 2930
91.215.65.18 - - [26/Jun/2017:09:16:29 +0000] "GET /scriptler/ HTTP/1.1" 200 3413
91.215.65.18 - - [26/Jun/2017:09:16:34 +0000] "POST /ajaxExecutors HTTP/1.1" 200 375
91.215.65.18 - - [26/Jun/2017:09:16:35 +0000] "GET /scriptler/catalog HTTP/1.1" 200 10297
91.215.65.18 - - [26/Jun/2017:09:16:35 +0000] "GET /static/f4615a68/images/48x48/folder.gif HTTP/1.1" 200 1132
91.215.65.18 - - [26/Jun/2017:09:16:35 +0000] "GET /static/f4615a68/images/16x16/save.gif HTTP/1.1" 200 608
91.215.65.18 - - [26/Jun/2017:09:16:35 +0000] "GET /static/f4615a68/images/16x16/empty.gif HTTP/1.1" 200 55
91.215.65.18 - - [26/Jun/2017:09:16:40 +0000] "POST /ajaxExecutors HTTP/1.1" 200 375
91.215.65.18 - - [26/Jun/2017:09:16:45 +0000] "POST /ajaxExecutors HTTP/1.1" 200 375
91.215.65.18 - - [26/Jun/2017:09:16:50 +0000] "POST /ajaxExecutors HTTP/1.1" 200 375
91.215.65.18 - - [26/Jun/2017:09:16:55 +0000] "POST /ajaxExecutors HTTP/1.1" 200 375
91.215.65.18 - - [26/Jun/2017:09:17:00 +0000] "POST /ajaxExecutors HTTP/1.1" 200 375
91.215.65.18 - - [26/Jun/2017:09:17:05 +0000] "POST /ajaxExecutors HTTP/1.1" 200 375
91.215.65.18 - - [26/Jun/2017:09:17:10 +0000] "POST /ajaxExecutors HTTP/1.1" 200 375
91.215.65.18 - - [26/Jun/2017:09:17:15 +0000] "POST /ajaxExecutors HTTP/1.1" 200 375
91.215.65.18 - - [26/Jun/2017:09:17:20 +0000] "POST /ajaxExecutors HTTP/1.1" 200 375
91.215.65.18 - - [26/Jun/2017:09:17:25 +0000] "POST /ajaxExecutors HTTP/1.1" 200 375
91.215.65.18 - - [26/Jun/2017:09:17:30 +0000] "POST /ajaxExecutors HTTP/1.1" 200 375
91.215.65.18 - - [26/Jun/2017:09:17:35 +0000] "POST /ajaxExecutors HTTP/1.1" 200 375
91.215.65.18 - - [26/Jun/2017:09:17:40 +0000] "POST /ajaxExecutors HTTP/1.1" 200 375
91.215.65.18 - - [26/Jun/2017:09:17:45 +0000] "POST /ajaxExecutors HTTP/1.1" 200 375
91.215.65.18 - - [26/Jun/2017:09:17:50 +0000] "POST /ajaxExecutors HTTP/1.1" 200 375
91.215.65.18 - - [26/Jun/2017:09:17:55 +0000] "POST /ajaxExecutors HTTP/1.1" 200 375
91.215.65.18 - - [26/Jun/2017:09:18:00 +0000] "POST /ajaxExecutors HTTP/1.1" 200 375
91.215.65.18 - - [26/Jun/2017:09:18:05 +0000] "POST /ajaxExecutors HTTP/1.1" 200 375
91.215.65.18 - - [26/Jun/2017:09:18:10 +0000] "POST /ajaxExecutors HTTP/1.1" 200 375
91.215.65.18 - - [26/Jun/2017:09:18:15 +0000] "POST /ajaxExecutors HTTP/1.1" 200 375
91.215.65.18 - - [26/Jun/2017:09:18:20 +0000] "POST /ajaxExecutors HTTP/1.1" 200 375
91.215.65.18 - - [26/Jun/2017:09:18:25 +0000] "POST /ajaxExecutors HTTP/1.1" 200 375
91.215.65.18 - - [26/Jun/2017:09:18:30 +0000] "POST /ajaxExecutors HTTP/1.1" 200 375
91.215.65.18 - - [26/Jun/2017:09:18:35 +0000] "POST /ajaxExecutors HTTP/1.1" 200 375
91.215.65.18 - - [26/Jun/2017:09:18:40 +0000] "POST /ajaxExecutors HTTP/1.1" 200 375
91.215.65.18 - - [26/Jun/2017:09:18:45 +0000] "POST /ajaxExecutors HTTP/1.1" 200 375
91.215.65.18 - - [26/Jun/2017:09:18:50 +0000] "POST /ajaxExecutors HTTP/1.1" 200 375
91.215.65.18 - - [26/Jun/2017:09:18:55 +0000] "POST /ajaxExecutors HTTP/1.1" 200 375
91.215.65.18 - - [26/Jun/2017:09:19:00 +0000] "POST /ajaxExecutors HTTP/1.1" 200 375
91.215.65.18 - - [26/Jun/2017:09:19:05 +0000] "POST /ajaxExecutors HTTP/1.1" 200 375
91.215.65.18 - - [26/Jun/2017:09:19:10 +0000] "POST /ajaxExecutors HTTP/1.1" 200 375
91.215.65.18 - - [26/Jun/2017:09:19:15 +0000] "POST /ajaxExecutors HTTP/1.1" 200 375
91.215.65.18 - - [26/Jun/2017:09:19:20 +0000] "POST /ajaxExecutors HTTP/1.1" 200 375
91.215.65.18 - - [26/Jun/2017:09:19:25 +0000] "POST /ajaxExecutors HTTP/1.1" 200 375
91.215.65.18 - - [26/Jun/2017:09:19:30 +0000] "POST /ajaxExecutors HTTP/1.1" 200 375
91.215.65.18 - - [26/Jun/2017:09:19:35 +0000] "POST /ajaxExecutors HTTP/1.1" 200 375
91.215.65.18 - - [26/Jun/2017:09:19:40 +0000] "POST /ajaxExecutors HTTP/1.1" 200 375
91.215.65.18 - - [26/Jun/2017:09:19:45 +0000] "POST /ajaxExecutors HTTP/1.1" 200 375
91.215.65.18 - - [26/Jun/2017:09:19:50 +0000] "POST /ajaxExecutors HTTP/1.1" 200 375
91.215.65.18 - - [26/Jun/2017:09:19:55 +0000] "POST /ajaxExecutors HTTP/1.1" 200 375
91.215.65.18 - - [26/Jun/2017:09:20:00 +0000] "POST /ajaxExecutors HTTP/1.1" 200 375
91.215.65.18 - - [26/Jun/2017:09:20:05 +0000] "POST /ajaxExecutors HTTP/1.1" 200 375
91.215.65.18 - - [26/Jun/2017:09:20:10 +0000] "POST /ajaxExecutors HTTP/1.1" 200 375
91.215.65.18 - - [26/Jun/2017:09:20:15 +0000] "POST /ajaxExecutors HTTP/1.1" 200 375
91.215.65.18 - - [26/Jun/2017:09:20:20 +0000] "POST /ajaxExecutors HTTP/1.1" 200 375
91.215.65.18 - - [26/Jun/2017:09:20:25 +0000] "POST /ajaxExecutors HTTP/1.1" 200 375
91.215.65.18 - - [26/Jun/2017:09:20:30 +0000] "POST /ajaxExecutors HTTP/1.1" 200 375
91.215.65.18 - - [26/Jun/2017:09:20:35 +0000] "POST /ajaxExecutors HTTP/1.1" 200 375
91.215.65.18 - - [26/Jun/2017:09:20:40 +0000] "POST /ajaxExecutors HTTP/1.1" 200 375
91.215.65.18 - - [26/Jun/2017:09:20:45 +0000] "POST /ajaxExecutors HTTP/1.1" 200 375
91.215.65.18 - - [26/Jun/2017:09:20:50 +0000] "POST /ajaxExecutors HTTP/1.1" 200 375
91.215.65.18 - - [26/Jun/2017:09:20:55 +0000] "POST /ajaxExecutors HTTP/1.1" 200 375
91.215.65.18 - - [26/Jun/2017:09:21:00 +0000] "POST /ajaxExecutors HTTP/1.1" 200 375
91.215.65.18 - - [26/Jun/2017:09:21:05 +0000] "POST /ajaxExecutors HTTP/1.1" 200 375
91.215.65.18 - - [26/Jun/2017:09:21:10 +0000] "POST /ajaxExecutors HTTP/1.1" 200 375
91.215.65.18 - - [26/Jun/2017:09:21:15 +0000] "POST /ajaxExecutors HTTP/1.1" 200 375
91.215.65.18 - - [26/Jun/2017:09:21:20 +0000] "POST /ajaxExecutors HTTP/1.1" 200 375
91.215.65.18 - - [26/Jun/2017:09:21:25 +0000] "POST /ajaxExecutors HTTP/1.1" 200 375
91.215.65.18 - - [26/Jun/2017:09:21:30 +0000] "POST /ajaxExecutors HTTP/1.1" 200 375
91.215.65.18 - - [26/Jun/2017:09:21:35 +0000] "POST /ajaxExecutors HTTP/1.1" 200 375
91.215.65.18 - - [26/Jun/2017:09:21:40 +0000] "POST /ajaxExecutors HTTP/1.1" 200 375
91.215.65.18 - - [26/Jun/2017:09:21:45 +0000] "POST /ajaxExecutors HTTP/1.1" 200 375
91.215.65.18 - - [26/Jun/2017:09:21:50 +0000] "POST /ajaxExecutors HTTP/1.1" 200 375
91.215.65.18 - - [26/Jun/2017:09:21:55 +0000] "POST /ajaxExecutors HTTP/1.1" 200 375
91.215.65.18 - - [26/Jun/2017:09:22:00 +0000] "POST /ajaxExecutors HTTP/1.1" 200 375
91.215.65.18 - - [26/Jun/2017:09:22:05 +0000] "POST /ajaxExecutors HTTP/1.1" 200 375
91.215.65.18 - - [26/Jun/2017:09:22:10 +0000] "POST /ajaxExecutors HTTP/1.1" 200 375
91.215.65.18 - - [26/Jun/2017:09:22:15 +0000] "POST /ajaxExecutors HTTP/1.1" 200 375
91.215.65.18 - - [26/Jun/2017:09:22:20 +0000] "POST /ajaxExecutors HTTP/1.1" 200 375
91.215.65.18 - - [26/Jun/2017:09:22:25 +0000] "POST /ajaxExecutors HTTP/1.1" 200 375
91.215.65.18 - - [26/Jun/2017:09:22:30 +0000] "POST /ajaxExecutors HTTP/1.1" 200 375
91.215.65.18 - - [26/Jun/2017:09:22:35 +0000] "POST /ajaxExecutors HTTP/1.1" 200 375
91.215.65.18 - - [26/Jun/2017:09:22:40 +0000] "POST /ajaxExecutors HTTP/1.1" 200 375
91.215.65.18 - - [26/Jun/2017:09:22:45 +0000] "POST /ajaxExecutors HTTP/1.1" 200 375
91.215.65.18 - - [26/Jun/2017:09:22:50 +0000] "POST /ajaxExecutors HTTP/1.1" 200 375
91.215.65.18 - - [26/Jun/2017:09:22:55 +0000] "POST /ajaxExecutors HTTP/1.1" 200 375
91.215.65.18 - - [26/Jun/2017:09:23:00 +0000] "POST /ajaxExecutors HTTP/1.1" 200 375
91.215.65.18 - - [26/Jun/2017:09:23:05 +0000] "POST /ajaxExecutors HTTP/1.1" 200 375
91.215.65.18 - - [26/Jun/2017:09:23:10 +0000] "POST /ajaxExecutors HTTP/1.1" 200 375
91.215.65.18 - - [26/Jun/2017:09:23:15 +0000] "POST /ajaxExecutors HTTP/1.1" 200 375
91.215.65.18 - - [26/Jun/2017:09:23:20 +0000] "POST /ajaxExecutors HTTP/1.1" 200 375
91.215.65.18 - - [26/Jun/2017:09:23:25 +0000] "POST /ajaxExecutors HTTP/1.1" 200 375
91.215.65.18 - - [26/Jun/2017:09:23:30 +0000] "POST /ajaxExecutors HTTP/1.1" 200 375
91.215.65.18 - - [26/Jun/2017:09:23:35 +0000] "POST /ajaxExecutors HTTP/1.1" 200 375
91.215.65.18 - - [26/Jun/2017:09:23:40 +0000] "POST /ajaxExecutors HTTP/1.1" 200 375
91.215.65.18 - - [26/Jun/2017:09:23:45 +0000] "POST /ajaxExecutors HTTP/1.1" 200 375
91.215.65.18 - - [26/Jun/2017:09:23:50 +0000] "POST /ajaxExecutors HTTP/1.1" 200 375
91.215.65.18 - - [26/Jun/2017:09:29:20 +0000] "POST /ajaxExecutors HTTP/1.1" 200 375
91.215.65.18 - - [26/Jun/2017:09:40:55 +0000] "GET /adjuncts/f4615a68/lib/layout/menu_right_arrow.png HTTP/1.1" 206 1
91.215.65.18 - - [26/Jun/2017:09:40:55 +0000] "GET /adjuncts/f4615a68/lib/layout/menu_right_arrow.png HTTP/1.1" 206 1587
91.215.65.18 - - [26/Jun/2017:09:40:55 +0000] "GET / HTTP/1.1" 200 7463
91.215.65.18 - - [26/Jun/2017:09:41:00 +0000] "POST /ajaxBuildQueue HTTP/1.1" 200 308
91.215.65.18 - - [26/Jun/2017:09:41:00 +0000] "POST /ajaxExecutors HTTP/1.1" 200 375
91.215.65.18 - - [26/Jun/2017:09:41:00 +0000] "GET /adjuncts/f4615a68/lib/layout/menu_down_arrow2.png HTTP/1.1" 200 132
91.215.65.18 - - [26/Jun/2017:09:41:04 +0000] "GET /view/lightning-testing/ HTTP/1.1" 200 4806
91.215.65.18 - - [26/Jun/2017:09:41:04 +0000] "GET /static/f4615a68/images/24x24/gear.png HTTP/1.1" 200 786
91.215.65.18 - - [26/Jun/2017:09:41:06 +0000] "GET /view/GNF/ HTTP/1.1" 200 4871
91.215.65.18 - - [26/Jun/2017:09:41:06 +0000] "GET / HTTP/1.1" 200 7465
91.215.65.18 - - [26/Jun/2017:09:41:10 +0000] "GET /manage HTTP/1.1" 200 5212
91.215.65.18 - - [26/Jun/2017:09:41:10 +0000] "GET /adjuncts/f4615a68/lib/form/link/link.js HTTP/1.1" 200 293
91.215.65.18 - - [26/Jun/2017:09:41:10 +0000] "GET /static/f4615a68/images/48x48/gear2.png HTTP/1.1" 200 3804
91.215.65.18 - - [26/Jun/2017:09:41:10 +0000] "GET /checkURIEncoding?value=%E5%9F%B7%E4%BA%8B HTTP/1.1" 200 6
91.215.65.18 - - [26/Jun/2017:09:41:10 +0000] "POST /administrativeMonitor/hudson.diagnosis.ReverseProxySetupMonitor/test HTTP/1.1" 302 -
91.215.65.18 - - [26/Jun/2017:09:41:10 +0000] "GET /static/f4615a68/images/48x48/secure.png HTTP/1.1" 200 1908
91.215.65.18 - - [26/Jun/2017:09:41:10 +0000] "GET /static/f4615a68/images/48x48/setting.png HTTP/1.1" 200 3368
91.215.65.18 - - [26/Jun/2017:09:41:10 +0000] "GET /static/f4615a68/images/48x48/refresh.png HTTP/1.1" 200 3387
91.215.65.18 - - [26/Jun/2017:09:41:10 +0000] "GET /static/f4615a68/plugin/credentials/images/48x48/credentials.png HTTP/1.1" 200 4008
91.215.65.18 - - [26/Jun/2017:09:41:10 +0000] "GET /static/f4615a68/images/48x48/plugin.png HTTP/1.1" 200 1859
91.215.65.18 - - [26/Jun/2017:09:41:10 +0000] "GET /static/f4615a68/images/48x48/computer.png HTTP/1.1" 200 3000
91.215.65.18 - - [26/Jun/2017:09:41:10 +0000] "GET /administrativeMonitor/hudson.diagnosis.ReverseProxySetupMonitor/testForReverseProxySetup/http%3A%2F%2F40.69.74.208%3A18080%2Fmanage/ HTTP/1.1" 400 -
91.215.65.18 - - [26/Jun/2017:09:41:10 +0000] "GET /static/f4615a68/images/48x48/clipboard.png HTTP/1.1" 200 1501
91.215.65.18 - - [26/Jun/2017:09:41:10 +0000] "GET /static/f4615a68/images/48x48/monitor.png HTTP/1.1" 200 3270
91.215.65.18 - - [26/Jun/2017:09:41:10 +0000] "GET /static/f4615a68/images/48x48/terminal.png HTTP/1.1" 200 2433
91.215.65.18 - - [26/Jun/2017:09:41:10 +0000] "GET /static/f4615a68/images/48x48/network.png HTTP/1.1" 200 3244
91.215.65.18 - - [26/Jun/2017:09:41:10 +0000] "GET /static/f4615a68/images/48x48/help.png HTTP/1.1" 200 3287
91.215.65.18 - - [26/Jun/2017:09:41:10 +0000] "GET /static/f4615a68/images/48x48/document.png HTTP/1.1" 200 745
91.215.65.18 - - [26/Jun/2017:09:41:10 +0000] "GET /static/f4615a68/images/48x48/system-log-out.png HTTP/1.1" 200 1814
91.215.65.18 - - [26/Jun/2017:09:41:10 +0000] "GET /static/f4615a68/images/48x48/user.png HTTP/1.1" 200 3373
91.215.65.18 - - [26/Jun/2017:09:41:15 +0000] "GET /pluginManager HTTP/1.1" 302 -
91.215.65.18 - - [26/Jun/2017:09:41:15 +0000] "POST /ajaxExecutors HTTP/1.1" 200 375
91.215.65.18 - - [26/Jun/2017:09:41:15 +0000] "POST /ajaxBuildQueue HTTP/1.1" 200 308
91.215.65.18 - - [26/Jun/2017:09:41:15 +0000] "GET /pluginManager/ HTTP/1.1" 200 6094
91.215.65.18 - - [26/Jun/2017:09:41:15 +0000] "GET /adjuncts/f4615a68/hudson/PluginManager/_table.css HTTP/1.1" 200 157
91.215.65.18 - - [26/Jun/2017:09:41:15 +0000] "GET /adjuncts/f4615a68/hudson/PluginManager/_table.js HTTP/1.1" 200 3463
91.215.65.18 - - [26/Jun/2017:09:41:15 +0000] "GET /adjuncts/f4615a68/hudson/PluginManager/search.gif HTTP/1.1" 200 591
91.215.65.18 - - [26/Jun/2017:09:41:20 +0000] "POST /pluginManager/install HTTP/1.1" 302 -
91.215.65.18 - - [26/Jun/2017:09:41:20 +0000] "GET /updateCenter/ HTTP/1.1" 200 3478
91.215.65.18 - - [26/Jun/2017:09:41:20 +0000] "GET /static/f4615a68/images/32x32/plugin.png HTTP/1.1" 200 1235
91.215.65.18 - - [26/Jun/2017:09:41:20 +0000] "GET /static/f4615a68/images/16x16/go-next.png HTTP/1.1" 200 548
91.215.65.18 - - [26/Jun/2017:09:41:23 +0000] "GET /pluginManager/ HTTP/1.1" 200 6093
2.139.146.92 - - [26/Jun/2017:11:30:07 +0000] "GET / HTTP/1.1" 403 793
2.139.146.92 - - [26/Jun/2017:11:30:07 +0000] "GET /login?from=%2F HTTP/1.1" 200 1880
2.139.146.92 - - [26/Jun/2017:11:30:07 +0000] "GET /favicon.ico HTTP/1.1" 200 17542
2.139.146.92 - - [26/Jun/2017:11:30:08 +0000] "GET /static/f4615a68/css/layout-common.css HTTP/1.1" 200 1245
2.139.146.92 - - [26/Jun/2017:11:30:08 +0000] "GET /static/f4615a68/css/style.css HTTP/1.1" 200 9036
2.139.146.92 - - [26/Jun/2017:11:30:08 +0000] "GET /static/f4615a68/scripts/yui/assets/skins/sam/skin.css HTTP/1.1" 200 16551
2.139.146.92 - - [26/Jun/2017:11:30:08 +0000] "GET /static/f4615a68/css/color.css HTTP/1.1" 200 763
2.139.146.92 - - [26/Jun/2017:11:30:08 +0000] "GET /static/f4615a68/css/responsive-grid.css HTTP/1.1" 200 4051
2.139.146.92 - - [26/Jun/2017:11:30:08 +0000] "GET /static/f4615a68/scripts/yui/container/assets/container.css HTTP/1.1" 200 2306
2.139.146.92 - - [26/Jun/2017:11:30:08 +0000] "GET /static/f4615a68/scripts/yui/container/assets/skins/sam/container.css HTTP/1.1" 200 1277
2.139.146.92 - - [26/Jun/2017:11:30:08 +0000] "GET /static/f4615a68/scripts/yui/button/assets/skins/sam/button.css HTTP/1.1" 200 810
2.139.146.92 - - [26/Jun/2017:11:30:08 +0000] "GET /static/f4615a68/scripts/yui/menu/assets/skins/sam/menu.css HTTP/1.1" 200 1301
2.139.146.92 - - [26/Jun/2017:11:30:08 +0000] "GET /adjuncts/f4615a68/lib/layout/breadcrumbs.css HTTP/1.1" 200 717
2.139.146.92 - - [26/Jun/2017:11:30:08 +0000] "GET /static/f4615a68/scripts/behavior.js HTTP/1.1" 200 2360
2.139.146.92 - - [26/Jun/2017:11:30:08 +0000] "GET /static/f4615a68/scripts/prototype.js HTTP/1.1" 200 37879
2.139.146.92 - - [26/Jun/2017:11:30:08 +0000] "GET /adjuncts/f4615a68/org/kohsuke/stapler/bind.js HTTP/1.1" 200 936
2.139.146.92 - - [26/Jun/2017:11:30:08 +0000] "GET /static/f4615a68/scripts/yui/yahoo/yahoo-min.js HTTP/1.1" 200 3038
2.139.146.92 - - [26/Jun/2017:11:30:08 +0000] "GET /static/f4615a68/scripts/yui/dom/dom-min.js HTTP/1.1" 200 5739
2.139.146.92 - - [26/Jun/2017:11:30:08 +0000] "GET /static/f4615a68/scripts/yui/event/event-min.js HTTP/1.1" 200 5146
2.139.146.92 - - [26/Jun/2017:11:30:08 +0000] "GET /static/f4615a68/scripts/yui/animation/animation-min.js HTTP/1.1" 200 4877
2.139.146.92 - - [26/Jun/2017:11:30:08 +0000] "GET /static/f4615a68/scripts/yui/dragdrop/dragdrop-min.js HTTP/1.1" 200 6974
2.139.146.92 - - [26/Jun/2017:11:30:08 +0000] "GET /static/f4615a68/scripts/yui/container/container-min.js HTTP/1.1" 200 19888
2.139.146.92 - - [26/Jun/2017:11:30:08 +0000] "GET /static/f4615a68/scripts/yui/connection/connection-min.js HTTP/1.1" 200 4442
2.139.146.92 - - [26/Jun/2017:11:30:08 +0000] "GET /static/f4615a68/scripts/yui/datasource/datasource-min.js HTTP/1.1" 200 8248
2.139.146.92 - - [26/Jun/2017:11:30:08 +0000] "GET /static/f4615a68/scripts/yui/autocomplete/autocomplete-min.js HTTP/1.1" 200 7254
2.139.146.92 - - [26/Jun/2017:11:30:08 +0000] "GET /static/f4615a68/scripts/yui/menu/menu-min.js HTTP/1.1" 200 15901
2.139.146.92 - - [26/Jun/2017:11:30:08 +0000] "GET /static/f4615a68/scripts/yui/element/element-min.js HTTP/1.1" 200 2698
2.139.146.92 - - [26/Jun/2017:11:30:08 +0000] "GET /static/f4615a68/scripts/yui/button/button-min.js HTTP/1.1" 200 8305
2.139.146.92 - - [26/Jun/2017:11:30:08 +0000] "GET /static/f4615a68/scripts/yui/storage/storage-min.js HTTP/1.1" 200 4048
2.139.146.92 - - [26/Jun/2017:11:30:08 +0000] "GET /static/f4615a68/jsbundles/page-init.js HTTP/1.1" 200 9291
2.139.146.92 - - [26/Jun/2017:11:30:08 +0000] "GET /static/f4615a68/scripts/sortable.js HTTP/1.1" 200 3999
2.139.146.92 - - [26/Jun/2017:11:30:08 +0000] "GET /static/f4615a68/scripts/hudson-behavior.js HTTP/1.1" 200 28684
2.139.146.92 - - [26/Jun/2017:11:30:08 +0000] "GET /adjuncts/f4615a68/lib/layout/breadcrumbs.js HTTP/1.1" 200 3019
2.139.146.92 - - [26/Jun/2017:11:30:08 +0000] "GET /static/f4615a68/images/headshot.png HTTP/1.1" 200 2409
2.139.146.92 - - [26/Jun/2017:11:30:08 +0000] "GET /static/f4615a68/images/title.png HTTP/1.1" 200 2510
2.139.146.92 - - [26/Jun/2017:11:30:08 +0000] "GET /static/f4615a68/images/16x16/help.png HTTP/1.1" 200 763
2.139.146.92 - - [26/Jun/2017:11:30:08 +0000] "GET /static/f4615a68/images/16x16/search.png HTTP/1.1" 200 774
2.139.146.92 - - [26/Jun/2017:11:30:08 +0000] "GET /static/f4615a68/assets/jquery-detached/jsmodules/jquery2.js HTTP/1.1" 200 39262
2.139.146.92 - - [26/Jun/2017:11:30:08 +0000] "GET /adjuncts/f4615a68/lib/layout/menu_down_arrow.png HTTP/1.1" 200 2767
2.139.146.92 - - [26/Jun/2017:11:30:08 +0000] "GET /adjuncts/f4615a68/lib/layout/menu_right_arrow2.png HTTP/1.1" 200 2764
2.139.146.92 - - [26/Jun/2017:11:30:09 +0000] "GET /static/f4615a68/images/top-sticker-bottom-edge.png HTTP/1.1" 200 331
2.139.146.92 - - [26/Jun/2017:11:30:09 +0000] "GET /static/f4615a68/favicon.ico HTTP/1.1" 200 17542
2.139.146.92 - - [26/Jun/2017:11:30:10 +0000] "POST /j_acegi_security_check HTTP/1.1" 302 -
2.139.146.92 - - [26/Jun/2017:11:30:10 +0000] "GET /loginError HTTP/1.1" 401 1818
2.139.146.92 - - [26/Jun/2017:11:30:16 +0000] "GET /login?from=%2F HTTP/1.1" 200 1880
2.139.146.92 - - [26/Jun/2017:11:30:20 +0000] "POST /j_acegi_security_check HTTP/1.1" 302 -
2.139.146.92 - - [26/Jun/2017:11:30:20 +0000] "GET /loginError HTTP/1.1" 401 1817
2.139.146.92 - - [26/Jun/2017:11:30:25 +0000] "GET /login?from=/ HTTP/1.1" 200 1880
2.139.146.92 - - [26/Jun/2017:11:30:33 +0000] "POST /j_acegi_security_check HTTP/1.1" 302 -
2.139.146.92 - - [26/Jun/2017:11:30:33 +0000] "GET / HTTP/1.1" 200 7674
2.139.146.92 - - [26/Jun/2017:11:30:33 +0000] "GET /static/f4615a68/scripts/yui/cookie/cookie-min.js HTTP/1.1" 200 1430
2.139.146.92 - - [26/Jun/2017:11:30:33 +0000] "GET /adjuncts/f4615a68/jenkins/management/AdministrativeMonitorsDecorator/resources.css HTTP/1.1" 200 593
2.139.146.92 - - [26/Jun/2017:11:30:33 +0000] "GET /static/f4615a68/images/24x24/new-package.png HTTP/1.1" 200 922
2.139.146.92 - - [26/Jun/2017:11:30:33 +0000] "GET /static/f4615a68/images/24x24/notepad.png HTTP/1.1" 200 955
2.139.146.92 - - [26/Jun/2017:11:30:33 +0000] "GET /static/f4615a68/images/24x24/user.png HTTP/1.1" 200 1242
2.139.146.92 - - [26/Jun/2017:11:30:33 +0000] "GET /static/f4615a68/images/24x24/fingerprint.png HTTP/1.1" 200 739
2.139.146.92 - - [26/Jun/2017:11:30:33 +0000] "GET /static/f4615a68/plugin/credentials/images/24x24/credentials.png HTTP/1.1" 200 1572
2.139.146.92 - - [26/Jun/2017:11:30:33 +0000] "GET /static/f4615a68/images/24x24/gear2.png HTTP/1.1" 200 1460
2.139.146.92 - - [26/Jun/2017:11:30:33 +0000] "GET /static/f4615a68/images/24x24/search.png HTTP/1.1" 200 1309
2.139.146.92 - - [26/Jun/2017:11:30:33 +0000] "GET /static/f4615a68/images/16x16/collapse.png HTTP/1.1" 200 168
2.139.146.92 - - [26/Jun/2017:11:30:33 +0000] "GET /static/f4615a68/images/32x32/blue.png HTTP/1.1" 200 1656
2.139.146.92 - - [26/Jun/2017:11:30:33 +0000] "GET /static/f4615a68/images/24x24/clock.png HTTP/1.1" 200 1528
2.139.146.92 - - [26/Jun/2017:11:30:33 +0000] "GET /static/f4615a68/images/32x32/nobuilt.png HTTP/1.1" 200 1245
2.139.146.92 - - [26/Jun/2017:11:30:33 +0000] "GET /static/f4615a68/images/32x32/health-80plus.png HTTP/1.1" 200 1270
2.139.146.92 - - [26/Jun/2017:11:30:33 +0000] "GET /static/f4615a68/images/32x32/health-60to79.png HTTP/1.1" 200 1743
2.139.146.92 - - [26/Jun/2017:11:30:33 +0000] "GET /static/f4615a68/images/32x32/health-00to19.png HTTP/1.1" 200 1937
2.139.146.92 - - [26/Jun/2017:11:30:33 +0000] "GET /static/f4615a68/images/32x32/red.png HTTP/1.1" 200 1527
2.139.146.92 - - [26/Jun/2017:11:30:33 +0000] "GET /static/f4615a68/images/16x16/notepad.png HTTP/1.1" 200 383
2.139.146.92 - - [26/Jun/2017:11:30:33 +0000] "GET /static/f4615a68/images/32x32/health-20to39.png HTTP/1.1" 200 1808
2.139.146.92 - - [26/Jun/2017:11:30:33 +0000] "GET /static/f4615a68/images/32x32/disabled.png HTTP/1.1" 200 1245
2.139.146.92 - - [26/Jun/2017:11:30:33 +0000] "GET /static/f4615a68/images/32x32/aborted.png HTTP/1.1" 200 1245
2.139.146.92 - - [26/Jun/2017:11:30:33 +0000] "GET /static/f4615a68/images/32x32/health-40to59.png HTTP/1.1" 200 1320
2.139.146.92 - - [26/Jun/2017:11:30:33 +0000] "GET /adjuncts/f4615a68/jenkins/management/AdministrativeMonitorsDecorator/resources.js HTTP/1.1" 200 376
2.139.146.92 - - [26/Jun/2017:11:30:33 +0000] "GET /static/f4615a68/images/16x16/health-00to19.png HTTP/1.1" 200 643
2.139.146.92 - - [26/Jun/2017:11:30:33 +0000] "GET /static/f4615a68/images/16x16/health-60to79.png HTTP/1.1" 200 652
2.139.146.92 - - [26/Jun/2017:11:30:33 +0000] "GET /static/f4615a68/images/16x16/health-80plus.png HTTP/1.1" 200 481
2.139.146.92 - - [26/Jun/2017:11:30:33 +0000] "GET /static/f4615a68/images/16x16/health-20to39.png HTTP/1.1" 200 762
2.139.146.92 - - [26/Jun/2017:11:30:33 +0000] "GET /static/f4615a68/images/16x16/health-40to59.png HTTP/1.1" 200 518
2.139.146.92 - - [26/Jun/2017:11:30:33 +0000] "GET /static/f4615a68/images/atom.gif HTTP/1.1" 200 644
2.139.146.92 - - [26/Jun/2017:11:30:33 +0000] "GET /static/f4615a68/images/16x16/error.png HTTP/1.1" 200 543
2.139.146.92 - - [26/Jun/2017:11:30:33 +0000] "GET /static/f4615a68/images/16x16/warning.png HTTP/1.1" 200 487
2.139.146.92 - - [26/Jun/2017:11:30:36 +0000] "GET /view/lightning-testing/ HTTP/1.1" 200 4955
2.139.146.92 - - [26/Jun/2017:11:30:36 +0000] "GET /static/f4615a68/images/24x24/gear.png HTTP/1.1" 200 786
2.139.146.92 - - [26/Jun/2017:11:30:36 +0000] "GET /static/f4615a68/images/24x24/edit-delete.png HTTP/1.1" 200 1236
2.139.146.92 - - [26/Jun/2017:11:30:40 +0000] "GET /view/lightning-testing/job/lightning%20testing%20framework/ HTTP/1.1" 200 5785
2.139.146.92 - - [26/Jun/2017:11:30:40 +0000] "GET /static/f4615a68/images/24x24/up.png HTTP/1.1" 200 769
2.139.146.92 - - [26/Jun/2017:11:30:41 +0000] "GET /static/f4615a68/plugin/cloudbees-folder/images/24x24/folder.png HTTP/1.1" 200 1007
2.139.146.92 - - [26/Jun/2017:11:30:41 +0000] "GET /static/f4615a68/images/16x16/blue.png HTTP/1.1" 200 656
2.139.146.92 - - [26/Jun/2017:11:30:41 +0000] "GET /static/f4615a68/images/16x16/red.png HTTP/1.1" 200 639
2.139.146.92 - - [26/Jun/2017:11:30:41 +0000] "GET /static/f4615a68/plugin/cloudbees-folder/images/48x48/folder.png HTTP/1.1" 200 1873
2.139.146.92 - - [26/Jun/2017:11:30:41 +0000] "GET /static/f4615a68/images/16x16/text.png HTTP/1.1" 200 227
2.139.146.92 - - [26/Jun/2017:11:30:41 +0000] "GET /static/f4615a68/images/48x48/package.png HTTP/1.1" 200 1849
2.139.146.92 - - [26/Jun/2017:11:30:41 +0000] "GET /static/f4615a68/images/16x16/go_down.png HTTP/1.1" 200 193
2.139.146.92 - - [26/Jun/2017:11:30:41 +0000] "GET /static/f4615a68/images/16x16/go_top.png HTTP/1.1" 200 211
2.139.146.92 - - [26/Jun/2017:11:30:41 +0000] "GET /static/f4615a68/images/16x16/go_up.png HTTP/1.1" 200 192
2.139.146.92 - - [26/Jun/2017:11:30:41 +0000] "GET /static/f4615a68/images/48x48/notepad.png HTTP/1.1" 200 2282
2.139.146.92 - - [26/Jun/2017:11:30:41 +0000] "GET /static/f4615a68/images/16x16/fingerprint.png HTTP/1.1" 200 503
2.139.146.92 - - [26/Jun/2017:11:30:46 +0000] "POST /view/lightning-testing/job/lightning%20testing%20framework/buildHistory/ajax HTTP/1.1" 200 51
2.139.146.92 - - [26/Jun/2017:11:30:47 +0000] "GET /view/lightning-testing/job/lightning%20testing%20framework/10/ HTTP/1.1" 200 3860
2.139.146.92 - - [26/Jun/2017:11:30:47 +0000] "GET /static/f4615a68/images/24x24/terminal.png HTTP/1.1" 200 1027
2.139.146.92 - - [26/Jun/2017:11:30:47 +0000] "GET /static/f4615a68/images/24x24/previous.png HTTP/1.1" 200 817
2.139.146.92 - - [26/Jun/2017:11:30:47 +0000] "GET /static/f4615a68/images/24x24/save.png HTTP/1.1" 200 693
2.139.146.92 - - [26/Jun/2017:11:30:47 +0000] "GET /static/f4615a68/images/48x48/blue.png HTTP/1.1" 200 2804
2.139.146.92 - - [26/Jun/2017:11:30:47 +0000] "GET /static/f4615a68/images/48x48/orange-square.png HTTP/1.1" 200 2354
2.139.146.92 - - [26/Jun/2017:11:30:47 +0000] "GET /static/f4615a68/plugin/git/icons/git-32x32.png HTTP/1.1" 200 1801
2.139.146.92 - - [26/Jun/2017:11:30:47 +0000] "GET /static/f4615a68/plugin/git/icons/git-48x48.png HTTP/1.1" 200 2405
2.139.146.92 - - [26/Jun/2017:11:30:49 +0000] "GET /adjuncts/f4615a68/lib/layout/menu_down_arrow2.png HTTP/1.1" 200 132
2.139.146.92 - - [26/Jun/2017:11:31:18 +0000] "GET /view/lightning-testing/job/lightning%20testing%20framework/10/console HTTP/1.1" 200 3962
2.139.146.92 - - [26/Jun/2017:11:31:18 +0000] "GET /descriptor/hudson.tasks._ant.AntOutcomeNote/style.css HTTP/1.1" 200 101
2.139.146.92 - - [26/Jun/2017:11:31:18 +0000] "GET /descriptor/hudson.console.ExpandableDetailsNote/style.css HTTP/1.1" 200 114
2.139.146.92 - - [26/Jun/2017:11:31:18 +0000] "GET /descriptor/hudson.plugins.gradle.GradleOutcomeNote/style.css HTTP/1.1" 200 132
2.139.146.92 - - [26/Jun/2017:11:31:18 +0000] "GET /descriptor/hudson.plugins.gradle.GradleTaskNote/style.css HTTP/1.1" 200 109
2.139.146.92 - - [26/Jun/2017:11:31:18 +0000] "GET /extensionList/hudson.console.ConsoleAnnotatorFactory/hudson.plugins.timestamper.annotator.TimestampAnnotatorFactory2/script.js HTTP/1.1" 200 2445
2.139.146.92 - - [26/Jun/2017:11:31:18 +0000] "GET /descriptor/hudson.plugins.gradle.GradleTaskNote/script.js HTTP/1.1" 200 722
2.139.146.92 - - [26/Jun/2017:11:31:19 +0000] "GET /descriptor/hudson.tasks._ant.AntTargetNote/script.js HTTP/1.1" 200 696
2.139.146.92 - - [26/Jun/2017:11:31:19 +0000] "GET /descriptor/hudson.console.ExpandableDetailsNote/script.js HTTP/1.1" 200 200
2.139.146.92 - - [26/Jun/2017:11:31:19 +0000] "GET /static/f4615a68/images/24x24/document.png HTTP/1.1" 200 367
2.139.146.92 - - [26/Jun/2017:11:31:19 +0000] "GET /view/lightning-testing/job/lightning%20testing%20framework/10/console HTTP/1.1" 200 3962
2.139.146.92 - - [26/Jun/2017:11:35:23 +0000] "GET / HTTP/1.1" 200 7673
2.139.146.92 - - [26/Jun/2017:11:35:24 +0000] "GET /opensearch.xml HTTP/1.1" 403 821
2.139.146.92 - - [26/Jun/2017:11:35:25 +0000] "GET /view/lightning-testing/ HTTP/1.1" 200 4957
2.139.146.92 - - [26/Jun/2017:11:35:27 +0000] "GET /view/lightning-testing/job/lightning%20testing/ HTTP/1.1" 200 5173
2.139.146.92 - - [26/Jun/2017:11:35:27 +0000] "GET /static/f4615a68/plugin/email-ext/images/template-debugger.png HTTP/1.1" 200 818
2.139.146.92 - - [26/Jun/2017:11:35:32 +0000] "GET /view/lightning-testing/job/lightning%20testing/41/ HTTP/1.1" 200 3738
2.139.146.92 - - [26/Jun/2017:11:35:32 +0000] "GET /static/f4615a68/images/24x24/document-properties.png HTTP/1.1" 200 732
2.139.146.92 - - [26/Jun/2017:11:35:34 +0000] "GET /view/lightning-testing/job/lightning%20testing/41/console HTTP/1.1" 200 4977
